[ERROR] 2018-06-14 02:00:40,417 | /home/frappe/frappe-bench/apps/frappe/frappe/utils/scheduler.py:
Site: site1.local
Exception in Enqueue Events for Site site1.local
Traceback (most recent call last):
  File "/home/frappe/frappe-bench/apps/frappe/frappe/utils/scheduler.py", line 80, in enqueue_events_for_site
    frappe.init(site=site)
  File "/home/frappe/frappe-bench/apps/frappe/frappe/__init__.py", line 135, in init
    local.conf = _dict(get_site_config())
  File "/home/frappe/frappe-bench/apps/frappe/frappe/__init__.py", line 189, in get_site_config
    config.update(get_file_json(site_config))
  File "/home/frappe/frappe-bench/apps/frappe/frappe/__init__.py", line 896, in get_file_json
    return json.load(f)
  File "/usr/lib/python2.7/json/__init__.py", line 290, in load
    **kw)
  File "/usr/lib/python2.7/json/__init__.py", line 338, in loads
    return _default_decoder.decode(s)
  File "/usr/lib/python2.7/json/decoder.py", line 366, in decode
    obj, end = self.raw_decode(s, idx=_w(s, 0).end())
  File "/usr/lib/python2.7/json/decoder.py", line 384, in raw_decode
    raise ValueError("No JSON object could be decoded")
ValueError: No JSON object could be decoded

[ERROR] 2018-06-14 02:01:40,472 | /home/frappe/frappe-bench/apps/frappe/frappe/utils/scheduler.py:
Site: site1.local
Exception in Enqueue Events for Site site1.local
Traceback (most recent call last):
  File "/home/frappe/frappe-bench/apps/frappe/frappe/utils/scheduler.py", line 80, in enqueue_events_for_site
    frappe.init(site=site)
  File "/home/frappe/frappe-bench/apps/frappe/frappe/__init__.py", line 135, in init
    local.conf = _dict(get_site_config())
  File "/home/frappe/frappe-bench/apps/frappe/frappe/__init__.py", line 189, in get_site_config
    config.update(get_file_json(site_config))
  File "/home/frappe/frappe-bench/apps/frappe/frappe/__init__.py", line 896, in get_file_json
    return json.load(f)
  File "/usr/lib/python2.7/json/__init__.py", line 290, in load
    **kw)
  File "/usr/lib/python2.7/json/__init__.py", line 338, in loads
    return _default_decoder.decode(s)
  File "/usr/lib/python2.7/json/decoder.py", line 366, in decode
    obj, end = self.raw_decode(s, idx=_w(s, 0).end())
  File "/usr/lib/python2.7/json/decoder.py", line 384, in raw_decode
    raise ValueError("No JSON object could be decoded")
ValueError: No JSON object could be decoded

[ERROR] 2018-06-14 02:02:40,531 | /home/frappe/frappe-bench/apps/frappe/frappe/utils/scheduler.py:
Site: site1.local
Exception in Enqueue Events for Site site1.local
Traceback (most recent call last):
  File "/home/frappe/frappe-bench/apps/frappe/frappe/utils/scheduler.py", line 80, in enqueue_events_for_site
    frappe.init(site=site)
  File "/home/frappe/frappe-bench/apps/frappe/frappe/__init__.py", line 135, in init
    local.conf = _dict(get_site_config())
  File "/home/frappe/frappe-bench/apps/frappe/frappe/__init__.py", line 189, in get_site_config
    config.update(get_file_json(site_config))
  File "/home/frappe/frappe-bench/apps/frappe/frappe/__init__.py", line 896, in get_file_json
    return json.load(f)
  File "/usr/lib/python2.7/json/__init__.py", line 290, in load
    **kw)
  File "/usr/lib/python2.7/json/__init__.py", line 338, in loads
    return _default_decoder.decode(s)
  File "/usr/lib/python2.7/json/decoder.py", line 366, in decode
    obj, end = self.raw_decode(s, idx=_w(s, 0).end())
  File "/usr/lib/python2.7/json/decoder.py", line 384, in raw_decode
    raise ValueError("No JSON object could be decoded")
ValueError: No JSON object could be decoded

[ERROR] 2018-06-14 02:03:40,587 | /home/frappe/frappe-bench/apps/frappe/frappe/utils/scheduler.py:
Site: site1.local
Exception in Enqueue Events for Site site1.local
Traceback (most recent call last):
  File "/home/frappe/frappe-bench/apps/frappe/frappe/utils/scheduler.py", line 80, in enqueue_events_for_site
    frappe.init(site=site)
  File "/home/frappe/frappe-bench/apps/frappe/frappe/__init__.py", line 135, in init
    local.conf = _dict(get_site_config())
  File "/home/frappe/frappe-bench/apps/frappe/frappe/__init__.py", line 189, in get_site_config
    config.update(get_file_json(site_config))
  File "/home/frappe/frappe-bench/apps/frappe/frappe/__init__.py", line 896, in get_file_json
    return json.load(f)
  File "/usr/lib/python2.7/json/__init__.py", line 290, in load
    **kw)
  File "/usr/lib/python2.7/json/__init__.py", line 338, in loads
    return _default_decoder.decode(s)
  File "/usr/lib/python2.7/json/decoder.py", line 366, in decode
    obj, end = self.raw_decode(s, idx=_w(s, 0).end())
  File "/usr/lib/python2.7/json/decoder.py", line 384, in raw_decode
    raise ValueError("No JSON object could be decoded")
ValueError: No JSON object could be decoded

[ERROR] 2018-06-14 02:04:40,644 | /home/frappe/frappe-bench/apps/frappe/frappe/utils/scheduler.py:
Site: site1.local
Exception in Enqueue Events for Site site1.local
Traceback (most recent call last):
  File "/home/frappe/frappe-bench/apps/frappe/frappe/utils/scheduler.py", line 80, in enqueue_events_for_site
    frappe.init(site=site)
  File "/home/frappe/frappe-bench/apps/frappe/frappe/__init__.py", line 135, in init
    local.conf = _dict(get_site_config())
  File "/home/frappe/frappe-bench/apps/frappe/frappe/__init__.py", line 189, in get_site_config
    config.update(get_file_json(site_config))
  File "/home/frappe/frappe-bench/apps/frappe/frappe/__init__.py", line 896, in get_file_json
    return json.load(f)
  File "/usr/lib/python2.7/json/__init__.py", line 290, in load
    **kw)
  File "/usr/lib/python2.7/json/__init__.py", line 338, in loads
    return _default_decoder.decode(s)
  File "/usr/lib/python2.7/json/decoder.py", line 366, in decode
    obj, end = self.raw_decode(s, idx=_w(s, 0).end())
  File "/usr/lib/python2.7/json/decoder.py", line 384, in raw_decode
    raise ValueError("No JSON object could be decoded")
ValueError: No JSON object could be decoded

[ERROR] 2018-06-14 02:05:40,704 | /home/frappe/frappe-bench/apps/frappe/frappe/utils/scheduler.py:
Site: site1.local
Exception in Enqueue Events for Site site1.local
Traceback (most recent call last):
  File "/home/frappe/frappe-bench/apps/frappe/frappe/utils/scheduler.py", line 80, in enqueue_events_for_site
    frappe.init(site=site)
  File "/home/frappe/frappe-bench/apps/frappe/frappe/__init__.py", line 135, in init
    local.conf = _dict(get_site_config())
  File "/home/frappe/frappe-bench/apps/frappe/frappe/__init__.py", line 189, in get_site_config
    config.update(get_file_json(site_config))
  File "/home/frappe/frappe-bench/apps/frappe/frappe/__init__.py", line 896, in get_file_json
    return json.load(f)
  File "/usr/lib/python2.7/json/__init__.py", line 290, in load
    **kw)
  File "/usr/lib/python2.7/json/__init__.py", line 338, in loads
    return _default_decoder.decode(s)
  File "/usr/lib/python2.7/json/decoder.py", line 366, in decode
    obj, end = self.raw_decode(s, idx=_w(s, 0).end())
  File "/usr/lib/python2.7/json/decoder.py", line 384, in raw_decode
    raise ValueError("No JSON object could be decoded")
ValueError: No JSON object could be decoded

[ERROR] 2018-06-14 02:06:40,768 | /home/frappe/frappe-bench/apps/frappe/frappe/utils/scheduler.py:
Site: site1.local
Exception in Enqueue Events for Site site1.local
Traceback (most recent call last):
  File "/home/frappe/frappe-bench/apps/frappe/frappe/utils/scheduler.py", line 80, in enqueue_events_for_site
    frappe.init(site=site)
  File "/home/frappe/frappe-bench/apps/frappe/frappe/__init__.py", line 135, in init
    local.conf = _dict(get_site_config())
  File "/home/frappe/frappe-bench/apps/frappe/frappe/__init__.py", line 189, in get_site_config
    config.update(get_file_json(site_config))
  File "/home/frappe/frappe-bench/apps/frappe/frappe/__init__.py", line 896, in get_file_json
    return json.load(f)
  File "/usr/lib/python2.7/json/__init__.py", line 290, in load
    **kw)
  File "/usr/lib/python2.7/json/__init__.py", line 338, in loads
    return _default_decoder.decode(s)
  File "/usr/lib/python2.7/json/decoder.py", line 366, in decode
    obj, end = self.raw_decode(s, idx=_w(s, 0).end())
  File "/usr/lib/python2.7/json/decoder.py", line 384, in raw_decode
    raise ValueError("No JSON object could be decoded")
ValueError: No JSON object could be decoded

[ERROR] 2018-06-14 02:07:40,827 | /home/frappe/frappe-bench/apps/frappe/frappe/utils/scheduler.py:
Site: site1.local
Exception in Enqueue Events for Site site1.local
Traceback (most recent call last):
  File "/home/frappe/frappe-bench/apps/frappe/frappe/utils/scheduler.py", line 80, in enqueue_events_for_site
    frappe.init(site=site)
  File "/home/frappe/frappe-bench/apps/frappe/frappe/__init__.py", line 135, in init
    local.conf = _dict(get_site_config())
  File "/home/frappe/frappe-bench/apps/frappe/frappe/__init__.py", line 189, in get_site_config
    config.update(get_file_json(site_config))
  File "/home/frappe/frappe-bench/apps/frappe/frappe/__init__.py", line 896, in get_file_json
    return json.load(f)
  File "/usr/lib/python2.7/json/__init__.py", line 290, in load
    **kw)
  File "/usr/lib/python2.7/json/__init__.py", line 338, in loads
    return _default_decoder.decode(s)
  File "/usr/lib/python2.7/json/decoder.py", line 366, in decode
    obj, end = self.raw_decode(s, idx=_w(s, 0).end())
  File "/usr/lib/python2.7/json/decoder.py", line 384, in raw_decode
    raise ValueError("No JSON object could be decoded")
ValueError: No JSON object could be decoded

[ERROR] 2018-06-14 02:08:40,882 | /home/frappe/frappe-bench/apps/frappe/frappe/utils/scheduler.py:
Site: site1.local
Exception in Enqueue Events for Site site1.local
Traceback (most recent call last):
  File "/home/frappe/frappe-bench/apps/frappe/frappe/utils/scheduler.py", line 80, in enqueue_events_for_site
    frappe.init(site=site)
  File "/home/frappe/frappe-bench/apps/frappe/frappe/__init__.py", line 135, in init
    local.conf = _dict(get_site_config())
  File "/home/frappe/frappe-bench/apps/frappe/frappe/__init__.py", line 189, in get_site_config
    config.update(get_file_json(site_config))
  File "/home/frappe/frappe-bench/apps/frappe/frappe/__init__.py", line 896, in get_file_json
    return json.load(f)
  File "/usr/lib/python2.7/json/__init__.py", line 290, in load
    **kw)
  File "/usr/lib/python2.7/json/__init__.py", line 338, in loads
    return _default_decoder.decode(s)
  File "/usr/lib/python2.7/json/decoder.py", line 366, in decode
    obj, end = self.raw_decode(s, idx=_w(s, 0).end())
  File "/usr/lib/python2.7/json/decoder.py", line 384, in raw_decode
    raise ValueError("No JSON object could be decoded")
ValueError: No JSON object could be decoded

[ERROR] 2018-06-14 02:09:40,942 | /home/frappe/frappe-bench/apps/frappe/frappe/utils/scheduler.py:
Site: site1.local
Exception in Enqueue Events for Site site1.local
Traceback (most recent call last):
  File "/home/frappe/frappe-bench/apps/frappe/frappe/utils/scheduler.py", line 80, in enqueue_events_for_site
    frappe.init(site=site)
  File "/home/frappe/frappe-bench/apps/frappe/frappe/__init__.py", line 135, in init
    local.conf = _dict(get_site_config())
  File "/home/frappe/frappe-bench/apps/frappe/frappe/__init__.py", line 189, in get_site_config
    config.update(get_file_json(site_config))
  File "/home/frappe/frappe-bench/apps/frappe/frappe/__init__.py", line 896, in get_file_json
    return json.load(f)
  File "/usr/lib/python2.7/json/__init__.py", line 290, in load
    **kw)
  File "/usr/lib/python2.7/json/__init__.py", line 338, in loads
    return _default_decoder.decode(s)
  File "/usr/lib/python2.7/json/decoder.py", line 366, in decode
    obj, end = self.raw_decode(s, idx=_w(s, 0).end())
  File "/usr/lib/python2.7/json/decoder.py", line 384, in raw_decode
    raise ValueError("No JSON object could be decoded")
ValueError: No JSON object could be decoded

[ERROR] 2018-06-14 02:10:41,000 | /home/frappe/frappe-bench/apps/frappe/frappe/utils/scheduler.py:
Site: site1.local
Exception in Enqueue Events for Site site1.local
Traceback (most recent call last):
  File "/home/frappe/frappe-bench/apps/frappe/frappe/utils/scheduler.py", line 80, in enqueue_events_for_site
    frappe.init(site=site)
  File "/home/frappe/frappe-bench/apps/frappe/frappe/__init__.py", line 135, in init
    local.conf = _dict(get_site_config())
  File "/home/frappe/frappe-bench/apps/frappe/frappe/__init__.py", line 189, in get_site_config
    config.update(get_file_json(site_config))
  File "/home/frappe/frappe-bench/apps/frappe/frappe/__init__.py", line 896, in get_file_json
    return json.load(f)
  File "/usr/lib/python2.7/json/__init__.py", line 290, in load
    **kw)
  File "/usr/lib/python2.7/json/__init__.py", line 338, in loads
    return _default_decoder.decode(s)
  File "/usr/lib/python2.7/json/decoder.py", line 366, in decode
    obj, end = self.raw_decode(s, idx=_w(s, 0).end())
  File "/usr/lib/python2.7/json/decoder.py", line 384, in raw_decode
    raise ValueError("No JSON object could be decoded")
ValueError: No JSON object could be decoded

[ERROR] 2018-06-14 02:11:41,057 | /home/frappe/frappe-bench/apps/frappe/frappe/utils/scheduler.py:
Site: site1.local
Exception in Enqueue Events for Site site1.local
Traceback (most recent call last):
  File "/home/frappe/frappe-bench/apps/frappe/frappe/utils/scheduler.py", line 80, in enqueue_events_for_site
    frappe.init(site=site)
  File "/home/frappe/frappe-bench/apps/frappe/frappe/__init__.py", line 135, in init
    local.conf = _dict(get_site_config())
  File "/home/frappe/frappe-bench/apps/frappe/frappe/__init__.py", line 189, in get_site_config
    config.update(get_file_json(site_config))
  File "/home/frappe/frappe-bench/apps/frappe/frappe/__init__.py", line 896, in get_file_json
    return json.load(f)
  File "/usr/lib/python2.7/json/__init__.py", line 290, in load
    **kw)
  File "/usr/lib/python2.7/json/__init__.py", line 338, in loads
    return _default_decoder.decode(s)
  File "/usr/lib/python2.7/json/decoder.py", line 366, in decode
    obj, end = self.raw_decode(s, idx=_w(s, 0).end())
  File "/usr/lib/python2.7/json/decoder.py", line 384, in raw_decode
    raise ValueError("No JSON object could be decoded")
ValueError: No JSON object could be decoded

[ERROR] 2018-06-14 02:12:41,114 | /home/frappe/frappe-bench/apps/frappe/frappe/utils/scheduler.py:
Site: site1.local
Exception in Enqueue Events for Site site1.local
Traceback (most recent call last):
  File "/home/frappe/frappe-bench/apps/frappe/frappe/utils/scheduler.py", line 80, in enqueue_events_for_site
    frappe.init(site=site)
  File "/home/frappe/frappe-bench/apps/frappe/frappe/__init__.py", line 135, in init
    local.conf = _dict(get_site_config())
  File "/home/frappe/frappe-bench/apps/frappe/frappe/__init__.py", line 189, in get_site_config
    config.update(get_file_json(site_config))
  File "/home/frappe/frappe-bench/apps/frappe/frappe/__init__.py", line 896, in get_file_json
    return json.load(f)
  File "/usr/lib/python2.7/json/__init__.py", line 290, in load
    **kw)
  File "/usr/lib/python2.7/json/__init__.py", line 338, in loads
    return _default_decoder.decode(s)
  File "/usr/lib/python2.7/json/decoder.py", line 366, in decode
    obj, end = self.raw_decode(s, idx=_w(s, 0).end())
  File "/usr/lib/python2.7/json/decoder.py", line 384, in raw_decode
    raise ValueError("No JSON object could be decoded")
ValueError: No JSON object could be decoded

[ERROR] 2018-06-14 02:13:41,170 | /home/frappe/frappe-bench/apps/frappe/frappe/utils/scheduler.py:
Site: site1.local
Exception in Enqueue Events for Site site1.local
Traceback (most recent call last):
  File "/home/frappe/frappe-bench/apps/frappe/frappe/utils/scheduler.py", line 80, in enqueue_events_for_site
    frappe.init(site=site)
  File "/home/frappe/frappe-bench/apps/frappe/frappe/__init__.py", line 135, in init
    local.conf = _dict(get_site_config())
  File "/home/frappe/frappe-bench/apps/frappe/frappe/__init__.py", line 189, in get_site_config
    config.update(get_file_json(site_config))
  File "/home/frappe/frappe-bench/apps/frappe/frappe/__init__.py", line 896, in get_file_json
    return json.load(f)
  File "/usr/lib/python2.7/json/__init__.py", line 290, in load
    **kw)
  File "/usr/lib/python2.7/json/__init__.py", line 338, in loads
    return _default_decoder.decode(s)
  File "/usr/lib/python2.7/json/decoder.py", line 366, in decode
    obj, end = self.raw_decode(s, idx=_w(s, 0).end())
  File "/usr/lib/python2.7/json/decoder.py", line 384, in raw_decode
    raise ValueError("No JSON object could be decoded")
ValueError: No JSON object could be decoded

[ERROR] 2018-06-14 02:14:41,225 | /home/frappe/frappe-bench/apps/frappe/frappe/utils/scheduler.py:
Site: site1.local
Exception in Enqueue Events for Site site1.local
Traceback (most recent call last):
  File "/home/frappe/frappe-bench/apps/frappe/frappe/utils/scheduler.py", line 80, in enqueue_events_for_site
    frappe.init(site=site)
  File "/home/frappe/frappe-bench/apps/frappe/frappe/__init__.py", line 135, in init
    local.conf = _dict(get_site_config())
  File "/home/frappe/frappe-bench/apps/frappe/frappe/__init__.py", line 189, in get_site_config
    config.update(get_file_json(site_config))
  File "/home/frappe/frappe-bench/apps/frappe/frappe/__init__.py", line 896, in get_file_json
    return json.load(f)
  File "/usr/lib/python2.7/json/__init__.py", line 290, in load
    **kw)
  File "/usr/lib/python2.7/json/__init__.py", line 338, in loads
    return _default_decoder.decode(s)
  File "/usr/lib/python2.7/json/decoder.py", line 366, in decode
    obj, end = self.raw_decode(s, idx=_w(s, 0).end())
  File "/usr/lib/python2.7/json/decoder.py", line 384, in raw_decode
    raise ValueError("No JSON object could be decoded")
ValueError: No JSON object could be decoded

[ERROR] 2018-06-14 02:15:41,283 | /home/frappe/frappe-bench/apps/frappe/frappe/utils/scheduler.py:
Site: site1.local
Exception in Enqueue Events for Site site1.local
Traceback (most recent call last):
  File "/home/frappe/frappe-bench/apps/frappe/frappe/utils/scheduler.py", line 80, in enqueue_events_for_site
    frappe.init(site=site)
  File "/home/frappe/frappe-bench/apps/frappe/frappe/__init__.py", line 135, in init
    local.conf = _dict(get_site_config())
  File "/home/frappe/frappe-bench/apps/frappe/frappe/__init__.py", line 189, in get_site_config
    config.update(get_file_json(site_config))
  File "/home/frappe/frappe-bench/apps/frappe/frappe/__init__.py", line 896, in get_file_json
    return json.load(f)
  File "/usr/lib/python2.7/json/__init__.py", line 290, in load
    **kw)
  File "/usr/lib/python2.7/json/__init__.py", line 338, in loads
    return _default_decoder.decode(s)
  File "/usr/lib/python2.7/json/decoder.py", line 366, in decode
    obj, end = self.raw_decode(s, idx=_w(s, 0).end())
  File "/usr/lib/python2.7/json/decoder.py", line 384, in raw_decode
    raise ValueError("No JSON object could be decoded")
ValueError: No JSON object could be decoded

[ERROR] 2018-06-14 02:16:41,340 | /home/frappe/frappe-bench/apps/frappe/frappe/utils/scheduler.py:
Site: site1.local
Exception in Enqueue Events for Site site1.local
Traceback (most recent call last):
  File "/home/frappe/frappe-bench/apps/frappe/frappe/utils/scheduler.py", line 80, in enqueue_events_for_site
    frappe.init(site=site)
  File "/home/frappe/frappe-bench/apps/frappe/frappe/__init__.py", line 135, in init
    local.conf = _dict(get_site_config())
  File "/home/frappe/frappe-bench/apps/frappe/frappe/__init__.py", line 189, in get_site_config
    config.update(get_file_json(site_config))
  File "/home/frappe/frappe-bench/apps/frappe/frappe/__init__.py", line 896, in get_file_json
    return json.load(f)
  File "/usr/lib/python2.7/json/__init__.py", line 290, in load
    **kw)
  File "/usr/lib/python2.7/json/__init__.py", line 338, in loads
    return _default_decoder.decode(s)
  File "/usr/lib/python2.7/json/decoder.py", line 366, in decode
    obj, end = self.raw_decode(s, idx=_w(s, 0).end())
  File "/usr/lib/python2.7/json/decoder.py", line 384, in raw_decode
    raise ValueError("No JSON object could be decoded")
ValueError: No JSON object could be decoded

[ERROR] 2018-06-14 02:17:41,397 | /home/frappe/frappe-bench/apps/frappe/frappe/utils/scheduler.py:
Site: site1.local
Exception in Enqueue Events for Site site1.local
Traceback (most recent call last):
  File "/home/frappe/frappe-bench/apps/frappe/frappe/utils/scheduler.py", line 80, in enqueue_events_for_site
    frappe.init(site=site)
  File "/home/frappe/frappe-bench/apps/frappe/frappe/__init__.py", line 135, in init
    local.conf = _dict(get_site_config())
  File "/home/frappe/frappe-bench/apps/frappe/frappe/__init__.py", line 189, in get_site_config
    config.update(get_file_json(site_config))
  File "/home/frappe/frappe-bench/apps/frappe/frappe/__init__.py", line 896, in get_file_json
    return json.load(f)
  File "/usr/lib/python2.7/json/__init__.py", line 290, in load
    **kw)
  File "/usr/lib/python2.7/json/__init__.py", line 338, in loads
    return _default_decoder.decode(s)
  File "/usr/lib/python2.7/json/decoder.py", line 366, in decode
    obj, end = self.raw_decode(s, idx=_w(s, 0).end())
  File "/usr/lib/python2.7/json/decoder.py", line 384, in raw_decode
    raise ValueError("No JSON object could be decoded")
ValueError: No JSON object could be decoded

[ERROR] 2018-06-14 02:18:41,458 | /home/frappe/frappe-bench/apps/frappe/frappe/utils/scheduler.py:
Site: site1.local
Exception in Enqueue Events for Site site1.local
Traceback (most recent call last):
  File "/home/frappe/frappe-bench/apps/frappe/frappe/utils/scheduler.py", line 80, in enqueue_events_for_site
    frappe.init(site=site)
  File "/home/frappe/frappe-bench/apps/frappe/frappe/__init__.py", line 135, in init
    local.conf = _dict(get_site_config())
  File "/home/frappe/frappe-bench/apps/frappe/frappe/__init__.py", line 189, in get_site_config
    config.update(get_file_json(site_config))
  File "/home/frappe/frappe-bench/apps/frappe/frappe/__init__.py", line 896, in get_file_json
    return json.load(f)
  File "/usr/lib/python2.7/json/__init__.py", line 290, in load
    **kw)
  File "/usr/lib/python2.7/json/__init__.py", line 338, in loads
    return _default_decoder.decode(s)
  File "/usr/lib/python2.7/json/decoder.py", line 366, in decode
    obj, end = self.raw_decode(s, idx=_w(s, 0).end())
  File "/usr/lib/python2.7/json/decoder.py", line 384, in raw_decode
    raise ValueError("No JSON object could be decoded")
ValueError: No JSON object could be decoded

[ERROR] 2018-06-14 02:19:41,512 | /home/frappe/frappe-bench/apps/frappe/frappe/utils/scheduler.py:
Site: site1.local
Exception in Enqueue Events for Site site1.local
Traceback (most recent call last):
  File "/home/frappe/frappe-bench/apps/frappe/frappe/utils/scheduler.py", line 80, in enqueue_events_for_site
    frappe.init(site=site)
  File "/home/frappe/frappe-bench/apps/frappe/frappe/__init__.py", line 135, in init
    local.conf = _dict(get_site_config())
  File "/home/frappe/frappe-bench/apps/frappe/frappe/__init__.py", line 189, in get_site_config
    config.update(get_file_json(site_config))
  File "/home/frappe/frappe-bench/apps/frappe/frappe/__init__.py", line 896, in get_file_json
    return json.load(f)
  File "/usr/lib/python2.7/json/__init__.py", line 290, in load
    **kw)
  File "/usr/lib/python2.7/json/__init__.py", line 338, in loads
    return _default_decoder.decode(s)
  File "/usr/lib/python2.7/json/decoder.py", line 366, in decode
    obj, end = self.raw_decode(s, idx=_w(s, 0).end())
  File "/usr/lib/python2.7/json/decoder.py", line 384, in raw_decode
    raise ValueError("No JSON object could be decoded")
ValueError: No JSON object could be decoded

[ERROR] 2018-06-14 02:20:41,570 | /home/frappe/frappe-bench/apps/frappe/frappe/utils/scheduler.py:
Site: site1.local
Exception in Enqueue Events for Site site1.local
Traceback (most recent call last):
  File "/home/frappe/frappe-bench/apps/frappe/frappe/utils/scheduler.py", line 80, in enqueue_events_for_site
    frappe.init(site=site)
  File "/home/frappe/frappe-bench/apps/frappe/frappe/__init__.py", line 135, in init
    local.conf = _dict(get_site_config())
  File "/home/frappe/frappe-bench/apps/frappe/frappe/__init__.py", line 189, in get_site_config
    config.update(get_file_json(site_config))
  File "/home/frappe/frappe-bench/apps/frappe/frappe/__init__.py", line 896, in get_file_json
    return json.load(f)
  File "/usr/lib/python2.7/json/__init__.py", line 290, in load
    **kw)
  File "/usr/lib/python2.7/json/__init__.py", line 338, in loads
    return _default_decoder.decode(s)
  File "/usr/lib/python2.7/json/decoder.py", line 366, in decode
    obj, end = self.raw_decode(s, idx=_w(s, 0).end())
  File "/usr/lib/python2.7/json/decoder.py", line 384, in raw_decode
    raise ValueError("No JSON object could be decoded")
ValueError: No JSON object could be decoded

[ERROR] 2018-06-14 02:21:41,627 | /home/frappe/frappe-bench/apps/frappe/frappe/utils/scheduler.py:
Site: site1.local
Exception in Enqueue Events for Site site1.local
Traceback (most recent call last):
  File "/home/frappe/frappe-bench/apps/frappe/frappe/utils/scheduler.py", line 80, in enqueue_events_for_site
    frappe.init(site=site)
  File "/home/frappe/frappe-bench/apps/frappe/frappe/__init__.py", line 135, in init
    local.conf = _dict(get_site_config())
  File "/home/frappe/frappe-bench/apps/frappe/frappe/__init__.py", line 189, in get_site_config
    config.update(get_file_json(site_config))
  File "/home/frappe/frappe-bench/apps/frappe/frappe/__init__.py", line 896, in get_file_json
    return json.load(f)
  File "/usr/lib/python2.7/json/__init__.py", line 290, in load
    **kw)
  File "/usr/lib/python2.7/json/__init__.py", line 338, in loads
    return _default_decoder.decode(s)
  File "/usr/lib/python2.7/json/decoder.py", line 366, in decode
    obj, end = self.raw_decode(s, idx=_w(s, 0).end())
  File "/usr/lib/python2.7/json/decoder.py", line 384, in raw_decode
    raise ValueError("No JSON object could be decoded")
ValueError: No JSON object could be decoded

[ERROR] 2018-06-14 02:22:41,683 | /home/frappe/frappe-bench/apps/frappe/frappe/utils/scheduler.py:
Site: site1.local
Exception in Enqueue Events for Site site1.local
Traceback (most recent call last):
  File "/home/frappe/frappe-bench/apps/frappe/frappe/utils/scheduler.py", line 80, in enqueue_events_for_site
    frappe.init(site=site)
  File "/home/frappe/frappe-bench/apps/frappe/frappe/__init__.py", line 135, in init
    local.conf = _dict(get_site_config())
  File "/home/frappe/frappe-bench/apps/frappe/frappe/__init__.py", line 189, in get_site_config
    config.update(get_file_json(site_config))
  File "/home/frappe/frappe-bench/apps/frappe/frappe/__init__.py", line 896, in get_file_json
    return json.load(f)
  File "/usr/lib/python2.7/json/__init__.py", line 290, in load
    **kw)
  File "/usr/lib/python2.7/json/__init__.py", line 338, in loads
    return _default_decoder.decode(s)
  File "/usr/lib/python2.7/json/decoder.py", line 366, in decode
    obj, end = self.raw_decode(s, idx=_w(s, 0).end())
  File "/usr/lib/python2.7/json/decoder.py", line 384, in raw_decode
    raise ValueError("No JSON object could be decoded")
ValueError: No JSON object could be decoded

[ERROR] 2018-06-14 02:23:41,740 | /home/frappe/frappe-bench/apps/frappe/frappe/utils/scheduler.py:
Site: site1.local
Exception in Enqueue Events for Site site1.local
Traceback (most recent call last):
  File "/home/frappe/frappe-bench/apps/frappe/frappe/utils/scheduler.py", line 80, in enqueue_events_for_site
    frappe.init(site=site)
  File "/home/frappe/frappe-bench/apps/frappe/frappe/__init__.py", line 135, in init
    local.conf = _dict(get_site_config())
  File "/home/frappe/frappe-bench/apps/frappe/frappe/__init__.py", line 189, in get_site_config
    config.update(get_file_json(site_config))
  File "/home/frappe/frappe-bench/apps/frappe/frappe/__init__.py", line 896, in get_file_json
    return json.load(f)
  File "/usr/lib/python2.7/json/__init__.py", line 290, in load
    **kw)
  File "/usr/lib/python2.7/json/__init__.py", line 338, in loads
    return _default_decoder.decode(s)
  File "/usr/lib/python2.7/json/decoder.py", line 366, in decode
    obj, end = self.raw_decode(s, idx=_w(s, 0).end())
  File "/usr/lib/python2.7/json/decoder.py", line 384, in raw_decode
    raise ValueError("No JSON object could be decoded")
ValueError: No JSON object could be decoded

[ERROR] 2018-06-14 02:24:41,796 | /home/frappe/frappe-bench/apps/frappe/frappe/utils/scheduler.py:
Site: site1.local
Exception in Enqueue Events for Site site1.local
Traceback (most recent call last):
  File "/home/frappe/frappe-bench/apps/frappe/frappe/utils/scheduler.py", line 80, in enqueue_events_for_site
    frappe.init(site=site)
  File "/home/frappe/frappe-bench/apps/frappe/frappe/__init__.py", line 135, in init
    local.conf = _dict(get_site_config())
  File "/home/frappe/frappe-bench/apps/frappe/frappe/__init__.py", line 189, in get_site_config
    config.update(get_file_json(site_config))
  File "/home/frappe/frappe-bench/apps/frappe/frappe/__init__.py", line 896, in get_file_json
    return json.load(f)
  File "/usr/lib/python2.7/json/__init__.py", line 290, in load
    **kw)
  File "/usr/lib/python2.7/json/__init__.py", line 338, in loads
    return _default_decoder.decode(s)
  File "/usr/lib/python2.7/json/decoder.py", line 366, in decode
    obj, end = self.raw_decode(s, idx=_w(s, 0).end())
  File "/usr/lib/python2.7/json/decoder.py", line 384, in raw_decode
    raise ValueError("No JSON object could be decoded")
ValueError: No JSON object could be decoded

[ERROR] 2018-06-14 02:25:41,854 | /home/frappe/frappe-bench/apps/frappe/frappe/utils/scheduler.py:
Site: site1.local
Exception in Enqueue Events for Site site1.local
Traceback (most recent call last):
  File "/home/frappe/frappe-bench/apps/frappe/frappe/utils/scheduler.py", line 80, in enqueue_events_for_site
    frappe.init(site=site)
  File "/home/frappe/frappe-bench/apps/frappe/frappe/__init__.py", line 135, in init
    local.conf = _dict(get_site_config())
  File "/home/frappe/frappe-bench/apps/frappe/frappe/__init__.py", line 189, in get_site_config
    config.update(get_file_json(site_config))
  File "/home/frappe/frappe-bench/apps/frappe/frappe/__init__.py", line 896, in get_file_json
    return json.load(f)
  File "/usr/lib/python2.7/json/__init__.py", line 290, in load
    **kw)
  File "/usr/lib/python2.7/json/__init__.py", line 338, in loads
    return _default_decoder.decode(s)
  File "/usr/lib/python2.7/json/decoder.py", line 366, in decode
    obj, end = self.raw_decode(s, idx=_w(s, 0).end())
  File "/usr/lib/python2.7/json/decoder.py", line 384, in raw_decode
    raise ValueError("No JSON object could be decoded")
ValueError: No JSON object could be decoded

[ERROR] 2018-06-14 02:26:41,912 | /home/frappe/frappe-bench/apps/frappe/frappe/utils/scheduler.py:
Site: site1.local
Exception in Enqueue Events for Site site1.local
Traceback (most recent call last):
  File "/home/frappe/frappe-bench/apps/frappe/frappe/utils/scheduler.py", line 80, in enqueue_events_for_site
    frappe.init(site=site)
  File "/home/frappe/frappe-bench/apps/frappe/frappe/__init__.py", line 135, in init
    local.conf = _dict(get_site_config())
  File "/home/frappe/frappe-bench/apps/frappe/frappe/__init__.py", line 189, in get_site_config
    config.update(get_file_json(site_config))
  File "/home/frappe/frappe-bench/apps/frappe/frappe/__init__.py", line 896, in get_file_json
    return json.load(f)
  File "/usr/lib/python2.7/json/__init__.py", line 290, in load
    **kw)
  File "/usr/lib/python2.7/json/__init__.py", line 338, in loads
    return _default_decoder.decode(s)
  File "/usr/lib/python2.7/json/decoder.py", line 366, in decode
    obj, end = self.raw_decode(s, idx=_w(s, 0).end())
  File "/usr/lib/python2.7/json/decoder.py", line 384, in raw_decode
    raise ValueError("No JSON object could be decoded")
ValueError: No JSON object could be decoded

[ERROR] 2018-06-14 02:27:41,968 | /home/frappe/frappe-bench/apps/frappe/frappe/utils/scheduler.py:
Site: site1.local
Exception in Enqueue Events for Site site1.local
Traceback (most recent call last):
  File "/home/frappe/frappe-bench/apps/frappe/frappe/utils/scheduler.py", line 80, in enqueue_events_for_site
    frappe.init(site=site)
  File "/home/frappe/frappe-bench/apps/frappe/frappe/__init__.py", line 135, in init
    local.conf = _dict(get_site_config())
  File "/home/frappe/frappe-bench/apps/frappe/frappe/__init__.py", line 189, in get_site_config
    config.update(get_file_json(site_config))
  File "/home/frappe/frappe-bench/apps/frappe/frappe/__init__.py", line 896, in get_file_json
    return json.load(f)
  File "/usr/lib/python2.7/json/__init__.py", line 290, in load
    **kw)
  File "/usr/lib/python2.7/json/__init__.py", line 338, in loads
    return _default_decoder.decode(s)
  File "/usr/lib/python2.7/json/decoder.py", line 366, in decode
    obj, end = self.raw_decode(s, idx=_w(s, 0).end())
  File "/usr/lib/python2.7/json/decoder.py", line 384, in raw_decode
    raise ValueError("No JSON object could be decoded")
ValueError: No JSON object could be decoded

[ERROR] 2018-06-14 02:28:42,025 | /home/frappe/frappe-bench/apps/frappe/frappe/utils/scheduler.py:
Site: site1.local
Exception in Enqueue Events for Site site1.local
Traceback (most recent call last):
  File "/home/frappe/frappe-bench/apps/frappe/frappe/utils/scheduler.py", line 80, in enqueue_events_for_site
    frappe.init(site=site)
  File "/home/frappe/frappe-bench/apps/frappe/frappe/__init__.py", line 135, in init
    local.conf = _dict(get_site_config())
  File "/home/frappe/frappe-bench/apps/frappe/frappe/__init__.py", line 189, in get_site_config
    config.update(get_file_json(site_config))
  File "/home/frappe/frappe-bench/apps/frappe/frappe/__init__.py", line 896, in get_file_json
    return json.load(f)
  File "/usr/lib/python2.7/json/__init__.py", line 290, in load
    **kw)
  File "/usr/lib/python2.7/json/__init__.py", line 338, in loads
    return _default_decoder.decode(s)
  File "/usr/lib/python2.7/json/decoder.py", line 366, in decode
    obj, end = self.raw_decode(s, idx=_w(s, 0).end())
  File "/usr/lib/python2.7/json/decoder.py", line 384, in raw_decode
    raise ValueError("No JSON object could be decoded")
ValueError: No JSON object could be decoded

[ERROR] 2018-06-14 02:29:42,084 | /home/frappe/frappe-bench/apps/frappe/frappe/utils/scheduler.py:
Site: site1.local
Exception in Enqueue Events for Site site1.local
Traceback (most recent call last):
  File "/home/frappe/frappe-bench/apps/frappe/frappe/utils/scheduler.py", line 80, in enqueue_events_for_site
    frappe.init(site=site)
  File "/home/frappe/frappe-bench/apps/frappe/frappe/__init__.py", line 135, in init
    local.conf = _dict(get_site_config())
  File "/home/frappe/frappe-bench/apps/frappe/frappe/__init__.py", line 189, in get_site_config
    config.update(get_file_json(site_config))
  File "/home/frappe/frappe-bench/apps/frappe/frappe/__init__.py", line 896, in get_file_json
    return json.load(f)
  File "/usr/lib/python2.7/json/__init__.py", line 290, in load
    **kw)
  File "/usr/lib/python2.7/json/__init__.py", line 338, in loads
    return _default_decoder.decode(s)
  File "/usr/lib/python2.7/json/decoder.py", line 366, in decode
    obj, end = self.raw_decode(s, idx=_w(s, 0).end())
  File "/usr/lib/python2.7/json/decoder.py", line 384, in raw_decode
    raise ValueError("No JSON object could be decoded")
ValueError: No JSON object could be decoded

[ERROR] 2018-06-14 02:30:42,140 | /home/frappe/frappe-bench/apps/frappe/frappe/utils/scheduler.py:
Site: site1.local
Exception in Enqueue Events for Site site1.local
Traceback (most recent call last):
  File "/home/frappe/frappe-bench/apps/frappe/frappe/utils/scheduler.py", line 80, in enqueue_events_for_site
    frappe.init(site=site)
  File "/home/frappe/frappe-bench/apps/frappe/frappe/__init__.py", line 135, in init
    local.conf = _dict(get_site_config())
  File "/home/frappe/frappe-bench/apps/frappe/frappe/__init__.py", line 189, in get_site_config
    config.update(get_file_json(site_config))
  File "/home/frappe/frappe-bench/apps/frappe/frappe/__init__.py", line 896, in get_file_json
    return json.load(f)
  File "/usr/lib/python2.7/json/__init__.py", line 290, in load
    **kw)
  File "/usr/lib/python2.7/json/__init__.py", line 338, in loads
    return _default_decoder.decode(s)
  File "/usr/lib/python2.7/json/decoder.py", line 366, in decode
    obj, end = self.raw_decode(s, idx=_w(s, 0).end())
  File "/usr/lib/python2.7/json/decoder.py", line 384, in raw_decode
    raise ValueError("No JSON object could be decoded")
ValueError: No JSON object could be decoded

[ERROR] 2018-06-14 02:31:42,200 | /home/frappe/frappe-bench/apps/frappe/frappe/utils/scheduler.py:
Site: site1.local
Exception in Enqueue Events for Site site1.local
Traceback (most recent call last):
  File "/home/frappe/frappe-bench/apps/frappe/frappe/utils/scheduler.py", line 80, in enqueue_events_for_site
    frappe.init(site=site)
  File "/home/frappe/frappe-bench/apps/frappe/frappe/__init__.py", line 135, in init
    local.conf = _dict(get_site_config())
  File "/home/frappe/frappe-bench/apps/frappe/frappe/__init__.py", line 189, in get_site_config
    config.update(get_file_json(site_config))
  File "/home/frappe/frappe-bench/apps/frappe/frappe/__init__.py", line 896, in get_file_json
    return json.load(f)
  File "/usr/lib/python2.7/json/__init__.py", line 290, in load
    **kw)
  File "/usr/lib/python2.7/json/__init__.py", line 338, in loads
    return _default_decoder.decode(s)
  File "/usr/lib/python2.7/json/decoder.py", line 366, in decode
    obj, end = self.raw_decode(s, idx=_w(s, 0).end())
  File "/usr/lib/python2.7/json/decoder.py", line 384, in raw_decode
    raise ValueError("No JSON object could be decoded")
ValueError: No JSON object could be decoded

[ERROR] 2018-06-14 02:32:42,257 | /home/frappe/frappe-bench/apps/frappe/frappe/utils/scheduler.py:
Site: site1.local
Exception in Enqueue Events for Site site1.local
Traceback (most recent call last):
  File "/home/frappe/frappe-bench/apps/frappe/frappe/utils/scheduler.py", line 80, in enqueue_events_for_site
    frappe.init(site=site)
  File "/home/frappe/frappe-bench/apps/frappe/frappe/__init__.py", line 135, in init
    local.conf = _dict(get_site_config())
  File "/home/frappe/frappe-bench/apps/frappe/frappe/__init__.py", line 189, in get_site_config
    config.update(get_file_json(site_config))
  File "/home/frappe/frappe-bench/apps/frappe/frappe/__init__.py", line 896, in get_file_json
    return json.load(f)
  File "/usr/lib/python2.7/json/__init__.py", line 290, in load
    **kw)
  File "/usr/lib/python2.7/json/__init__.py", line 338, in loads
    return _default_decoder.decode(s)
  File "/usr/lib/python2.7/json/decoder.py", line 366, in decode
    obj, end = self.raw_decode(s, idx=_w(s, 0).end())
  File "/usr/lib/python2.7/json/decoder.py", line 384, in raw_decode
    raise ValueError("No JSON object could be decoded")
ValueError: No JSON object could be decoded

[ERROR] 2018-06-14 02:33:42,319 | /home/frappe/frappe-bench/apps/frappe/frappe/utils/scheduler.py:
Site: site1.local
Exception in Enqueue Events for Site site1.local
Traceback (most recent call last):
  File "/home/frappe/frappe-bench/apps/frappe/frappe/utils/scheduler.py", line 80, in enqueue_events_for_site
    frappe.init(site=site)
  File "/home/frappe/frappe-bench/apps/frappe/frappe/__init__.py", line 135, in init
    local.conf = _dict(get_site_config())
  File "/home/frappe/frappe-bench/apps/frappe/frappe/__init__.py", line 189, in get_site_config
    config.update(get_file_json(site_config))
  File "/home/frappe/frappe-bench/apps/frappe/frappe/__init__.py", line 896, in get_file_json
    return json.load(f)
  File "/usr/lib/python2.7/json/__init__.py", line 290, in load
    **kw)
  File "/usr/lib/python2.7/json/__init__.py", line 338, in loads
    return _default_decoder.decode(s)
  File "/usr/lib/python2.7/json/decoder.py", line 366, in decode
    obj, end = self.raw_decode(s, idx=_w(s, 0).end())
  File "/usr/lib/python2.7/json/decoder.py", line 384, in raw_decode
    raise ValueError("No JSON object could be decoded")
ValueError: No JSON object could be decoded

[ERROR] 2018-06-14 02:34:42,377 | /home/frappe/frappe-bench/apps/frappe/frappe/utils/scheduler.py:
Site: site1.local
Exception in Enqueue Events for Site site1.local
Traceback (most recent call last):
  File "/home/frappe/frappe-bench/apps/frappe/frappe/utils/scheduler.py", line 80, in enqueue_events_for_site
    frappe.init(site=site)
  File "/home/frappe/frappe-bench/apps/frappe/frappe/__init__.py", line 135, in init
    local.conf = _dict(get_site_config())
  File "/home/frappe/frappe-bench/apps/frappe/frappe/__init__.py", line 189, in get_site_config
    config.update(get_file_json(site_config))
  File "/home/frappe/frappe-bench/apps/frappe/frappe/__init__.py", line 896, in get_file_json
    return json.load(f)
  File "/usr/lib/python2.7/json/__init__.py", line 290, in load
    **kw)
  File "/usr/lib/python2.7/json/__init__.py", line 338, in loads
    return _default_decoder.decode(s)
  File "/usr/lib/python2.7/json/decoder.py", line 366, in decode
    obj, end = self.raw_decode(s, idx=_w(s, 0).end())
  File "/usr/lib/python2.7/json/decoder.py", line 384, in raw_decode
    raise ValueError("No JSON object could be decoded")
ValueError: No JSON object could be decoded

[ERROR] 2018-06-14 02:35:42,433 | /home/frappe/frappe-bench/apps/frappe/frappe/utils/scheduler.py:
Site: site1.local
Exception in Enqueue Events for Site site1.local
Traceback (most recent call last):
  File "/home/frappe/frappe-bench/apps/frappe/frappe/utils/scheduler.py", line 80, in enqueue_events_for_site
    frappe.init(site=site)
  File "/home/frappe/frappe-bench/apps/frappe/frappe/__init__.py", line 135, in init
    local.conf = _dict(get_site_config())
  File "/home/frappe/frappe-bench/apps/frappe/frappe/__init__.py", line 189, in get_site_config
    config.update(get_file_json(site_config))
  File "/home/frappe/frappe-bench/apps/frappe/frappe/__init__.py", line 896, in get_file_json
    return json.load(f)
  File "/usr/lib/python2.7/json/__init__.py", line 290, in load
    **kw)
  File "/usr/lib/python2.7/json/__init__.py", line 338, in loads
    return _default_decoder.decode(s)
  File "/usr/lib/python2.7/json/decoder.py", line 366, in decode
    obj, end = self.raw_decode(s, idx=_w(s, 0).end())
  File "/usr/lib/python2.7/json/decoder.py", line 384, in raw_decode
    raise ValueError("No JSON object could be decoded")
ValueError: No JSON object could be decoded

[ERROR] 2018-06-14 02:36:42,489 | /home/frappe/frappe-bench/apps/frappe/frappe/utils/scheduler.py:
Site: site1.local
Exception in Enqueue Events for Site site1.local
Traceback (most recent call last):
  File "/home/frappe/frappe-bench/apps/frappe/frappe/utils/scheduler.py", line 80, in enqueue_events_for_site
    frappe.init(site=site)
  File "/home/frappe/frappe-bench/apps/frappe/frappe/__init__.py", line 135, in init
    local.conf = _dict(get_site_config())
  File "/home/frappe/frappe-bench/apps/frappe/frappe/__init__.py", line 189, in get_site_config
    config.update(get_file_json(site_config))
  File "/home/frappe/frappe-bench/apps/frappe/frappe/__init__.py", line 896, in get_file_json
    return json.load(f)
  File "/usr/lib/python2.7/json/__init__.py", line 290, in load
    **kw)
  File "/usr/lib/python2.7/json/__init__.py", line 338, in loads
    return _default_decoder.decode(s)
  File "/usr/lib/python2.7/json/decoder.py", line 366, in decode
    obj, end = self.raw_decode(s, idx=_w(s, 0).end())
  File "/usr/lib/python2.7/json/decoder.py", line 384, in raw_decode
    raise ValueError("No JSON object could be decoded")
ValueError: No JSON object could be decoded

[ERROR] 2018-06-14 02:37:42,546 | /home/frappe/frappe-bench/apps/frappe/frappe/utils/scheduler.py:
Site: site1.local
Exception in Enqueue Events for Site site1.local
Traceback (most recent call last):
  File "/home/frappe/frappe-bench/apps/frappe/frappe/utils/scheduler.py", line 80, in enqueue_events_for_site
    frappe.init(site=site)
  File "/home/frappe/frappe-bench/apps/frappe/frappe/__init__.py", line 135, in init
    local.conf = _dict(get_site_config())
  File "/home/frappe/frappe-bench/apps/frappe/frappe/__init__.py", line 189, in get_site_config
    config.update(get_file_json(site_config))
  File "/home/frappe/frappe-bench/apps/frappe/frappe/__init__.py", line 896, in get_file_json
    return json.load(f)
  File "/usr/lib/python2.7/json/__init__.py", line 290, in load
    **kw)
  File "/usr/lib/python2.7/json/__init__.py", line 338, in loads
    return _default_decoder.decode(s)
  File "/usr/lib/python2.7/json/decoder.py", line 366, in decode
    obj, end = self.raw_decode(s, idx=_w(s, 0).end())
  File "/usr/lib/python2.7/json/decoder.py", line 384, in raw_decode
    raise ValueError("No JSON object could be decoded")
ValueError: No JSON object could be decoded

[ERROR] 2018-06-14 02:38:42,600 | /home/frappe/frappe-bench/apps/frappe/frappe/utils/scheduler.py:
Site: site1.local
Exception in Enqueue Events for Site site1.local
Traceback (most recent call last):
  File "/home/frappe/frappe-bench/apps/frappe/frappe/utils/scheduler.py", line 80, in enqueue_events_for_site
    frappe.init(site=site)
  File "/home/frappe/frappe-bench/apps/frappe/frappe/__init__.py", line 135, in init
    local.conf = _dict(get_site_config())
  File "/home/frappe/frappe-bench/apps/frappe/frappe/__init__.py", line 189, in get_site_config
    config.update(get_file_json(site_config))
  File "/home/frappe/frappe-bench/apps/frappe/frappe/__init__.py", line 896, in get_file_json
    return json.load(f)
  File "/usr/lib/python2.7/json/__init__.py", line 290, in load
    **kw)
  File "/usr/lib/python2.7/json/__init__.py", line 338, in loads
    return _default_decoder.decode(s)
  File "/usr/lib/python2.7/json/decoder.py", line 366, in decode
    obj, end = self.raw_decode(s, idx=_w(s, 0).end())
  File "/usr/lib/python2.7/json/decoder.py", line 384, in raw_decode
    raise ValueError("No JSON object could be decoded")
ValueError: No JSON object could be decoded

[ERROR] 2018-06-14 02:39:42,654 | /home/frappe/frappe-bench/apps/frappe/frappe/utils/scheduler.py:
Site: site1.local
Exception in Enqueue Events for Site site1.local
Traceback (most recent call last):
  File "/home/frappe/frappe-bench/apps/frappe/frappe/utils/scheduler.py", line 80, in enqueue_events_for_site
    frappe.init(site=site)
  File "/home/frappe/frappe-bench/apps/frappe/frappe/__init__.py", line 135, in init
    local.conf = _dict(get_site_config())
  File "/home/frappe/frappe-bench/apps/frappe/frappe/__init__.py", line 189, in get_site_config
    config.update(get_file_json(site_config))
  File "/home/frappe/frappe-bench/apps/frappe/frappe/__init__.py", line 896, in get_file_json
    return json.load(f)
  File "/usr/lib/python2.7/json/__init__.py", line 290, in load
    **kw)
  File "/usr/lib/python2.7/json/__init__.py", line 338, in loads
    return _default_decoder.decode(s)
  File "/usr/lib/python2.7/json/decoder.py", line 366, in decode
    obj, end = self.raw_decode(s, idx=_w(s, 0).end())
  File "/usr/lib/python2.7/json/decoder.py", line 384, in raw_decode
    raise ValueError("No JSON object could be decoded")
ValueError: No JSON object could be decoded

[ERROR] 2018-06-14 02:40:42,716 | /home/frappe/frappe-bench/apps/frappe/frappe/utils/scheduler.py:
Site: site1.local
Exception in Enqueue Events for Site site1.local
Traceback (most recent call last):
  File "/home/frappe/frappe-bench/apps/frappe/frappe/utils/scheduler.py", line 80, in enqueue_events_for_site
    frappe.init(site=site)
  File "/home/frappe/frappe-bench/apps/frappe/frappe/__init__.py", line 135, in init
    local.conf = _dict(get_site_config())
  File "/home/frappe/frappe-bench/apps/frappe/frappe/__init__.py", line 189, in get_site_config
    config.update(get_file_json(site_config))
  File "/home/frappe/frappe-bench/apps/frappe/frappe/__init__.py", line 896, in get_file_json
    return json.load(f)
  File "/usr/lib/python2.7/json/__init__.py", line 290, in load
    **kw)
  File "/usr/lib/python2.7/json/__init__.py", line 338, in loads
    return _default_decoder.decode(s)
  File "/usr/lib/python2.7/json/decoder.py", line 366, in decode
    obj, end = self.raw_decode(s, idx=_w(s, 0).end())
  File "/usr/lib/python2.7/json/decoder.py", line 384, in raw_decode
    raise ValueError("No JSON object could be decoded")
ValueError: No JSON object could be decoded

[ERROR] 2018-06-14 02:41:42,769 | /home/frappe/frappe-bench/apps/frappe/frappe/utils/scheduler.py:
Site: site1.local
Exception in Enqueue Events for Site site1.local
Traceback (most recent call last):
  File "/home/frappe/frappe-bench/apps/frappe/frappe/utils/scheduler.py", line 80, in enqueue_events_for_site
    frappe.init(site=site)
  File "/home/frappe/frappe-bench/apps/frappe/frappe/__init__.py", line 135, in init
    local.conf = _dict(get_site_config())
  File "/home/frappe/frappe-bench/apps/frappe/frappe/__init__.py", line 189, in get_site_config
    config.update(get_file_json(site_config))
  File "/home/frappe/frappe-bench/apps/frappe/frappe/__init__.py", line 896, in get_file_json
    return json.load(f)
  File "/usr/lib/python2.7/json/__init__.py", line 290, in load
    **kw)
  File "/usr/lib/python2.7/json/__init__.py", line 338, in loads
    return _default_decoder.decode(s)
  File "/usr/lib/python2.7/json/decoder.py", line 366, in decode
    obj, end = self.raw_decode(s, idx=_w(s, 0).end())
  File "/usr/lib/python2.7/json/decoder.py", line 384, in raw_decode
    raise ValueError("No JSON object could be decoded")
ValueError: No JSON object could be decoded

[ERROR] 2018-06-14 02:42:42,830 | /home/frappe/frappe-bench/apps/frappe/frappe/utils/scheduler.py:
Site: site1.local
Exception in Enqueue Events for Site site1.local
Traceback (most recent call last):
  File "/home/frappe/frappe-bench/apps/frappe/frappe/utils/scheduler.py", line 80, in enqueue_events_for_site
    frappe.init(site=site)
  File "/home/frappe/frappe-bench/apps/frappe/frappe/__init__.py", line 135, in init
    local.conf = _dict(get_site_config())
  File "/home/frappe/frappe-bench/apps/frappe/frappe/__init__.py", line 189, in get_site_config
    config.update(get_file_json(site_config))
  File "/home/frappe/frappe-bench/apps/frappe/frappe/__init__.py", line 896, in get_file_json
    return json.load(f)
  File "/usr/lib/python2.7/json/__init__.py", line 290, in load
    **kw)
  File "/usr/lib/python2.7/json/__init__.py", line 338, in loads
    return _default_decoder.decode(s)
  File "/usr/lib/python2.7/json/decoder.py", line 366, in decode
    obj, end = self.raw_decode(s, idx=_w(s, 0).end())
  File "/usr/lib/python2.7/json/decoder.py", line 384, in raw_decode
    raise ValueError("No JSON object could be decoded")
ValueError: No JSON object could be decoded

[ERROR] 2018-06-14 02:43:42,890 | /home/frappe/frappe-bench/apps/frappe/frappe/utils/scheduler.py:
Site: site1.local
Exception in Enqueue Events for Site site1.local
Traceback (most recent call last):
  File "/home/frappe/frappe-bench/apps/frappe/frappe/utils/scheduler.py", line 80, in enqueue_events_for_site
    frappe.init(site=site)
  File "/home/frappe/frappe-bench/apps/frappe/frappe/__init__.py", line 135, in init
    local.conf = _dict(get_site_config())
  File "/home/frappe/frappe-bench/apps/frappe/frappe/__init__.py", line 189, in get_site_config
    config.update(get_file_json(site_config))
  File "/home/frappe/frappe-bench/apps/frappe/frappe/__init__.py", line 896, in get_file_json
    return json.load(f)
  File "/usr/lib/python2.7/json/__init__.py", line 290, in load
    **kw)
  File "/usr/lib/python2.7/json/__init__.py", line 338, in loads
    return _default_decoder.decode(s)
  File "/usr/lib/python2.7/json/decoder.py", line 366, in decode
    obj, end = self.raw_decode(s, idx=_w(s, 0).end())
  File "/usr/lib/python2.7/json/decoder.py", line 384, in raw_decode
    raise ValueError("No JSON object could be decoded")
ValueError: No JSON object could be decoded

[ERROR] 2018-06-14 02:44:42,944 | /home/frappe/frappe-bench/apps/frappe/frappe/utils/scheduler.py:
Site: site1.local
Exception in Enqueue Events for Site site1.local
Traceback (most recent call last):
  File "/home/frappe/frappe-bench/apps/frappe/frappe/utils/scheduler.py", line 80, in enqueue_events_for_site
    frappe.init(site=site)
  File "/home/frappe/frappe-bench/apps/frappe/frappe/__init__.py", line 135, in init
    local.conf = _dict(get_site_config())
  File "/home/frappe/frappe-bench/apps/frappe/frappe/__init__.py", line 189, in get_site_config
    config.update(get_file_json(site_config))
  File "/home/frappe/frappe-bench/apps/frappe/frappe/__init__.py", line 896, in get_file_json
    return json.load(f)
  File "/usr/lib/python2.7/json/__init__.py", line 290, in load
    **kw)
  File "/usr/lib/python2.7/json/__init__.py", line 338, in loads
    return _default_decoder.decode(s)
  File "/usr/lib/python2.7/json/decoder.py", line 366, in decode
    obj, end = self.raw_decode(s, idx=_w(s, 0).end())
  File "/usr/lib/python2.7/json/decoder.py", line 384, in raw_decode
    raise ValueError("No JSON object could be decoded")
ValueError: No JSON object could be decoded

[ERROR] 2018-06-14 02:45:43,001 | /home/frappe/frappe-bench/apps/frappe/frappe/utils/scheduler.py:
Site: site1.local
Exception in Enqueue Events for Site site1.local
Traceback (most recent call last):
  File "/home/frappe/frappe-bench/apps/frappe/frappe/utils/scheduler.py", line 80, in enqueue_events_for_site
    frappe.init(site=site)
  File "/home/frappe/frappe-bench/apps/frappe/frappe/__init__.py", line 135, in init
    local.conf = _dict(get_site_config())
  File "/home/frappe/frappe-bench/apps/frappe/frappe/__init__.py", line 189, in get_site_config
    config.update(get_file_json(site_config))
  File "/home/frappe/frappe-bench/apps/frappe/frappe/__init__.py", line 896, in get_file_json
    return json.load(f)
  File "/usr/lib/python2.7/json/__init__.py", line 290, in load
    **kw)
  File "/usr/lib/python2.7/json/__init__.py", line 338, in loads
    return _default_decoder.decode(s)
  File "/usr/lib/python2.7/json/decoder.py", line 366, in decode
    obj, end = self.raw_decode(s, idx=_w(s, 0).end())
  File "/usr/lib/python2.7/json/decoder.py", line 384, in raw_decode
    raise ValueError("No JSON object could be decoded")
ValueError: No JSON object could be decoded

[ERROR] 2018-06-14 02:46:43,058 | /home/frappe/frappe-bench/apps/frappe/frappe/utils/scheduler.py:
Site: site1.local
Exception in Enqueue Events for Site site1.local
Traceback (most recent call last):
  File "/home/frappe/frappe-bench/apps/frappe/frappe/utils/scheduler.py", line 80, in enqueue_events_for_site
    frappe.init(site=site)
  File "/home/frappe/frappe-bench/apps/frappe/frappe/__init__.py", line 135, in init
    local.conf = _dict(get_site_config())
  File "/home/frappe/frappe-bench/apps/frappe/frappe/__init__.py", line 189, in get_site_config
    config.update(get_file_json(site_config))
  File "/home/frappe/frappe-bench/apps/frappe/frappe/__init__.py", line 896, in get_file_json
    return json.load(f)
  File "/usr/lib/python2.7/json/__init__.py", line 290, in load
    **kw)
  File "/usr/lib/python2.7/json/__init__.py", line 338, in loads
    return _default_decoder.decode(s)
  File "/usr/lib/python2.7/json/decoder.py", line 366, in decode
    obj, end = self.raw_decode(s, idx=_w(s, 0).end())
  File "/usr/lib/python2.7/json/decoder.py", line 384, in raw_decode
    raise ValueError("No JSON object could be decoded")
ValueError: No JSON object could be decoded

[ERROR] 2018-06-14 02:47:43,115 | /home/frappe/frappe-bench/apps/frappe/frappe/utils/scheduler.py:
Site: site1.local
Exception in Enqueue Events for Site site1.local
Traceback (most recent call last):
  File "/home/frappe/frappe-bench/apps/frappe/frappe/utils/scheduler.py", line 80, in enqueue_events_for_site
    frappe.init(site=site)
  File "/home/frappe/frappe-bench/apps/frappe/frappe/__init__.py", line 135, in init
    local.conf = _dict(get_site_config())
  File "/home/frappe/frappe-bench/apps/frappe/frappe/__init__.py", line 189, in get_site_config
    config.update(get_file_json(site_config))
  File "/home/frappe/frappe-bench/apps/frappe/frappe/__init__.py", line 896, in get_file_json
    return json.load(f)
  File "/usr/lib/python2.7/json/__init__.py", line 290, in load
    **kw)
  File "/usr/lib/python2.7/json/__init__.py", line 338, in loads
    return _default_decoder.decode(s)
  File "/usr/lib/python2.7/json/decoder.py", line 366, in decode
    obj, end = self.raw_decode(s, idx=_w(s, 0).end())
  File "/usr/lib/python2.7/json/decoder.py", line 384, in raw_decode
    raise ValueError("No JSON object could be decoded")
ValueError: No JSON object could be decoded

[ERROR] 2018-06-14 02:48:43,168 | /home/frappe/frappe-bench/apps/frappe/frappe/utils/scheduler.py:
Site: site1.local
Exception in Enqueue Events for Site site1.local
Traceback (most recent call last):
  File "/home/frappe/frappe-bench/apps/frappe/frappe/utils/scheduler.py", line 80, in enqueue_events_for_site
    frappe.init(site=site)
  File "/home/frappe/frappe-bench/apps/frappe/frappe/__init__.py", line 135, in init
    local.conf = _dict(get_site_config())
  File "/home/frappe/frappe-bench/apps/frappe/frappe/__init__.py", line 189, in get_site_config
    config.update(get_file_json(site_config))
  File "/home/frappe/frappe-bench/apps/frappe/frappe/__init__.py", line 896, in get_file_json
    return json.load(f)
  File "/usr/lib/python2.7/json/__init__.py", line 290, in load
    **kw)
  File "/usr/lib/python2.7/json/__init__.py", line 338, in loads
    return _default_decoder.decode(s)
  File "/usr/lib/python2.7/json/decoder.py", line 366, in decode
    obj, end = self.raw_decode(s, idx=_w(s, 0).end())
  File "/usr/lib/python2.7/json/decoder.py", line 384, in raw_decode
    raise ValueError("No JSON object could be decoded")
ValueError: No JSON object could be decoded

[ERROR] 2018-06-14 02:49:43,226 | /home/frappe/frappe-bench/apps/frappe/frappe/utils/scheduler.py:
Site: site1.local
Exception in Enqueue Events for Site site1.local
Traceback (most recent call last):
  File "/home/frappe/frappe-bench/apps/frappe/frappe/utils/scheduler.py", line 80, in enqueue_events_for_site
    frappe.init(site=site)
  File "/home/frappe/frappe-bench/apps/frappe/frappe/__init__.py", line 135, in init
    local.conf = _dict(get_site_config())
  File "/home/frappe/frappe-bench/apps/frappe/frappe/__init__.py", line 189, in get_site_config
    config.update(get_file_json(site_config))
  File "/home/frappe/frappe-bench/apps/frappe/frappe/__init__.py", line 896, in get_file_json
    return json.load(f)
  File "/usr/lib/python2.7/json/__init__.py", line 290, in load
    **kw)
  File "/usr/lib/python2.7/json/__init__.py", line 338, in loads
    return _default_decoder.decode(s)
  File "/usr/lib/python2.7/json/decoder.py", line 366, in decode
    obj, end = self.raw_decode(s, idx=_w(s, 0).end())
  File "/usr/lib/python2.7/json/decoder.py", line 384, in raw_decode
    raise ValueError("No JSON object could be decoded")
ValueError: No JSON object could be decoded

[ERROR] 2018-06-14 02:50:43,282 | /home/frappe/frappe-bench/apps/frappe/frappe/utils/scheduler.py:
Site: site1.local
Exception in Enqueue Events for Site site1.local
Traceback (most recent call last):
  File "/home/frappe/frappe-bench/apps/frappe/frappe/utils/scheduler.py", line 80, in enqueue_events_for_site
    frappe.init(site=site)
  File "/home/frappe/frappe-bench/apps/frappe/frappe/__init__.py", line 135, in init
    local.conf = _dict(get_site_config())
  File "/home/frappe/frappe-bench/apps/frappe/frappe/__init__.py", line 189, in get_site_config
    config.update(get_file_json(site_config))
  File "/home/frappe/frappe-bench/apps/frappe/frappe/__init__.py", line 896, in get_file_json
    return json.load(f)
  File "/usr/lib/python2.7/json/__init__.py", line 290, in load
    **kw)
  File "/usr/lib/python2.7/json/__init__.py", line 338, in loads
    return _default_decoder.decode(s)
  File "/usr/lib/python2.7/json/decoder.py", line 366, in decode
    obj, end = self.raw_decode(s, idx=_w(s, 0).end())
  File "/usr/lib/python2.7/json/decoder.py", line 384, in raw_decode
    raise ValueError("No JSON object could be decoded")
ValueError: No JSON object could be decoded

[ERROR] 2018-06-14 02:51:43,338 | /home/frappe/frappe-bench/apps/frappe/frappe/utils/scheduler.py:
Site: site1.local
Exception in Enqueue Events for Site site1.local
Traceback (most recent call last):
  File "/home/frappe/frappe-bench/apps/frappe/frappe/utils/scheduler.py", line 80, in enqueue_events_for_site
    frappe.init(site=site)
  File "/home/frappe/frappe-bench/apps/frappe/frappe/__init__.py", line 135, in init
    local.conf = _dict(get_site_config())
  File "/home/frappe/frappe-bench/apps/frappe/frappe/__init__.py", line 189, in get_site_config
    config.update(get_file_json(site_config))
  File "/home/frappe/frappe-bench/apps/frappe/frappe/__init__.py", line 896, in get_file_json
    return json.load(f)
  File "/usr/lib/python2.7/json/__init__.py", line 290, in load
    **kw)
  File "/usr/lib/python2.7/json/__init__.py", line 338, in loads
    return _default_decoder.decode(s)
  File "/usr/lib/python2.7/json/decoder.py", line 366, in decode
    obj, end = self.raw_decode(s, idx=_w(s, 0).end())
  File "/usr/lib/python2.7/json/decoder.py", line 384, in raw_decode
    raise ValueError("No JSON object could be decoded")
ValueError: No JSON object could be decoded

[ERROR] 2018-06-14 02:52:43,395 | /home/frappe/frappe-bench/apps/frappe/frappe/utils/scheduler.py:
Site: site1.local
Exception in Enqueue Events for Site site1.local
Traceback (most recent call last):
  File "/home/frappe/frappe-bench/apps/frappe/frappe/utils/scheduler.py", line 80, in enqueue_events_for_site
    frappe.init(site=site)
  File "/home/frappe/frappe-bench/apps/frappe/frappe/__init__.py", line 135, in init
    local.conf = _dict(get_site_config())
  File "/home/frappe/frappe-bench/apps/frappe/frappe/__init__.py", line 189, in get_site_config
    config.update(get_file_json(site_config))
  File "/home/frappe/frappe-bench/apps/frappe/frappe/__init__.py", line 896, in get_file_json
    return json.load(f)
  File "/usr/lib/python2.7/json/__init__.py", line 290, in load
    **kw)
  File "/usr/lib/python2.7/json/__init__.py", line 338, in loads
    return _default_decoder.decode(s)
  File "/usr/lib/python2.7/json/decoder.py", line 366, in decode
    obj, end = self.raw_decode(s, idx=_w(s, 0).end())
  File "/usr/lib/python2.7/json/decoder.py", line 384, in raw_decode
    raise ValueError("No JSON object could be decoded")
ValueError: No JSON object could be decoded

[ERROR] 2018-06-14 02:53:43,457 | /home/frappe/frappe-bench/apps/frappe/frappe/utils/scheduler.py:
Site: site1.local
Exception in Enqueue Events for Site site1.local
Traceback (most recent call last):
  File "/home/frappe/frappe-bench/apps/frappe/frappe/utils/scheduler.py", line 80, in enqueue_events_for_site
    frappe.init(site=site)
  File "/home/frappe/frappe-bench/apps/frappe/frappe/__init__.py", line 135, in init
    local.conf = _dict(get_site_config())
  File "/home/frappe/frappe-bench/apps/frappe/frappe/__init__.py", line 189, in get_site_config
    config.update(get_file_json(site_config))
  File "/home/frappe/frappe-bench/apps/frappe/frappe/__init__.py", line 896, in get_file_json
    return json.load(f)
  File "/usr/lib/python2.7/json/__init__.py", line 290, in load
    **kw)
  File "/usr/lib/python2.7/json/__init__.py", line 338, in loads
    return _default_decoder.decode(s)
  File "/usr/lib/python2.7/json/decoder.py", line 366, in decode
    obj, end = self.raw_decode(s, idx=_w(s, 0).end())
  File "/usr/lib/python2.7/json/decoder.py", line 384, in raw_decode
    raise ValueError("No JSON object could be decoded")
ValueError: No JSON object could be decoded

[ERROR] 2018-06-14 02:54:43,513 | /home/frappe/frappe-bench/apps/frappe/frappe/utils/scheduler.py:
Site: site1.local
Exception in Enqueue Events for Site site1.local
Traceback (most recent call last):
  File "/home/frappe/frappe-bench/apps/frappe/frappe/utils/scheduler.py", line 80, in enqueue_events_for_site
    frappe.init(site=site)
  File "/home/frappe/frappe-bench/apps/frappe/frappe/__init__.py", line 135, in init
    local.conf = _dict(get_site_config())
  File "/home/frappe/frappe-bench/apps/frappe/frappe/__init__.py", line 189, in get_site_config
    config.update(get_file_json(site_config))
  File "/home/frappe/frappe-bench/apps/frappe/frappe/__init__.py", line 896, in get_file_json
    return json.load(f)
  File "/usr/lib/python2.7/json/__init__.py", line 290, in load
    **kw)
  File "/usr/lib/python2.7/json/__init__.py", line 338, in loads
    return _default_decoder.decode(s)
  File "/usr/lib/python2.7/json/decoder.py", line 366, in decode
    obj, end = self.raw_decode(s, idx=_w(s, 0).end())
  File "/usr/lib/python2.7/json/decoder.py", line 384, in raw_decode
    raise ValueError("No JSON object could be decoded")
ValueError: No JSON object could be decoded

[ERROR] 2018-06-14 02:55:43,570 | /home/frappe/frappe-bench/apps/frappe/frappe/utils/scheduler.py:
Site: site1.local
Exception in Enqueue Events for Site site1.local
Traceback (most recent call last):
  File "/home/frappe/frappe-bench/apps/frappe/frappe/utils/scheduler.py", line 80, in enqueue_events_for_site
    frappe.init(site=site)
  File "/home/frappe/frappe-bench/apps/frappe/frappe/__init__.py", line 135, in init
    local.conf = _dict(get_site_config())
  File "/home/frappe/frappe-bench/apps/frappe/frappe/__init__.py", line 189, in get_site_config
    config.update(get_file_json(site_config))
  File "/home/frappe/frappe-bench/apps/frappe/frappe/__init__.py", line 896, in get_file_json
    return json.load(f)
  File "/usr/lib/python2.7/json/__init__.py", line 290, in load
    **kw)
  File "/usr/lib/python2.7/json/__init__.py", line 338, in loads
    return _default_decoder.decode(s)
  File "/usr/lib/python2.7/json/decoder.py", line 366, in decode
    obj, end = self.raw_decode(s, idx=_w(s, 0).end())
  File "/usr/lib/python2.7/json/decoder.py", line 384, in raw_decode
    raise ValueError("No JSON object could be decoded")
ValueError: No JSON object could be decoded

[ERROR] 2018-06-14 02:56:43,627 | /home/frappe/frappe-bench/apps/frappe/frappe/utils/scheduler.py:
Site: site1.local
Exception in Enqueue Events for Site site1.local
Traceback (most recent call last):
  File "/home/frappe/frappe-bench/apps/frappe/frappe/utils/scheduler.py", line 80, in enqueue_events_for_site
    frappe.init(site=site)
  File "/home/frappe/frappe-bench/apps/frappe/frappe/__init__.py", line 135, in init
    local.conf = _dict(get_site_config())
  File "/home/frappe/frappe-bench/apps/frappe/frappe/__init__.py", line 189, in get_site_config
    config.update(get_file_json(site_config))
  File "/home/frappe/frappe-bench/apps/frappe/frappe/__init__.py", line 896, in get_file_json
    return json.load(f)
  File "/usr/lib/python2.7/json/__init__.py", line 290, in load
    **kw)
  File "/usr/lib/python2.7/json/__init__.py", line 338, in loads
    return _default_decoder.decode(s)
  File "/usr/lib/python2.7/json/decoder.py", line 366, in decode
    obj, end = self.raw_decode(s, idx=_w(s, 0).end())
  File "/usr/lib/python2.7/json/decoder.py", line 384, in raw_decode
    raise ValueError("No JSON object could be decoded")
ValueError: No JSON object could be decoded

[ERROR] 2018-06-14 02:57:43,689 | /home/frappe/frappe-bench/apps/frappe/frappe/utils/scheduler.py:
Site: site1.local
Exception in Enqueue Events for Site site1.local
Traceback (most recent call last):
  File "/home/frappe/frappe-bench/apps/frappe/frappe/utils/scheduler.py", line 80, in enqueue_events_for_site
    frappe.init(site=site)
  File "/home/frappe/frappe-bench/apps/frappe/frappe/__init__.py", line 135, in init
    local.conf = _dict(get_site_config())
  File "/home/frappe/frappe-bench/apps/frappe/frappe/__init__.py", line 189, in get_site_config
    config.update(get_file_json(site_config))
  File "/home/frappe/frappe-bench/apps/frappe/frappe/__init__.py", line 896, in get_file_json
    return json.load(f)
  File "/usr/lib/python2.7/json/__init__.py", line 290, in load
    **kw)
  File "/usr/lib/python2.7/json/__init__.py", line 338, in loads
    return _default_decoder.decode(s)
  File "/usr/lib/python2.7/json/decoder.py", line 366, in decode
    obj, end = self.raw_decode(s, idx=_w(s, 0).end())
  File "/usr/lib/python2.7/json/decoder.py", line 384, in raw_decode
    raise ValueError("No JSON object could be decoded")
ValueError: No JSON object could be decoded

[ERROR] 2018-06-14 02:58:43,742 | /home/frappe/frappe-bench/apps/frappe/frappe/utils/scheduler.py:
Site: site1.local
Exception in Enqueue Events for Site site1.local
Traceback (most recent call last):
  File "/home/frappe/frappe-bench/apps/frappe/frappe/utils/scheduler.py", line 80, in enqueue_events_for_site
    frappe.init(site=site)
  File "/home/frappe/frappe-bench/apps/frappe/frappe/__init__.py", line 135, in init
    local.conf = _dict(get_site_config())
  File "/home/frappe/frappe-bench/apps/frappe/frappe/__init__.py", line 189, in get_site_config
    config.update(get_file_json(site_config))
  File "/home/frappe/frappe-bench/apps/frappe/frappe/__init__.py", line 896, in get_file_json
    return json.load(f)
  File "/usr/lib/python2.7/json/__init__.py", line 290, in load
    **kw)
  File "/usr/lib/python2.7/json/__init__.py", line 338, in loads
    return _default_decoder.decode(s)
  File "/usr/lib/python2.7/json/decoder.py", line 366, in decode
    obj, end = self.raw_decode(s, idx=_w(s, 0).end())
  File "/usr/lib/python2.7/json/decoder.py", line 384, in raw_decode
    raise ValueError("No JSON object could be decoded")
ValueError: No JSON object could be decoded

[ERROR] 2018-06-14 02:59:43,803 | /home/frappe/frappe-bench/apps/frappe/frappe/utils/scheduler.py:
Site: site1.local
Exception in Enqueue Events for Site site1.local
Traceback (most recent call last):
  File "/home/frappe/frappe-bench/apps/frappe/frappe/utils/scheduler.py", line 80, in enqueue_events_for_site
    frappe.init(site=site)
  File "/home/frappe/frappe-bench/apps/frappe/frappe/__init__.py", line 135, in init
    local.conf = _dict(get_site_config())
  File "/home/frappe/frappe-bench/apps/frappe/frappe/__init__.py", line 189, in get_site_config
    config.update(get_file_json(site_config))
  File "/home/frappe/frappe-bench/apps/frappe/frappe/__init__.py", line 896, in get_file_json
    return json.load(f)
  File "/usr/lib/python2.7/json/__init__.py", line 290, in load
    **kw)
  File "/usr/lib/python2.7/json/__init__.py", line 338, in loads
    return _default_decoder.decode(s)
  File "/usr/lib/python2.7/json/decoder.py", line 366, in decode
    obj, end = self.raw_decode(s, idx=_w(s, 0).end())
  File "/usr/lib/python2.7/json/decoder.py", line 384, in raw_decode
    raise ValueError("No JSON object could be decoded")
ValueError: No JSON object could be decoded

[ERROR] 2018-06-14 03:00:43,859 | /home/frappe/frappe-bench/apps/frappe/frappe/utils/scheduler.py:
Site: site1.local
Exception in Enqueue Events for Site site1.local
Traceback (most recent call last):
  File "/home/frappe/frappe-bench/apps/frappe/frappe/utils/scheduler.py", line 80, in enqueue_events_for_site
    frappe.init(site=site)
  File "/home/frappe/frappe-bench/apps/frappe/frappe/__init__.py", line 135, in init
    local.conf = _dict(get_site_config())
  File "/home/frappe/frappe-bench/apps/frappe/frappe/__init__.py", line 189, in get_site_config
    config.update(get_file_json(site_config))
  File "/home/frappe/frappe-bench/apps/frappe/frappe/__init__.py", line 896, in get_file_json
    return json.load(f)
  File "/usr/lib/python2.7/json/__init__.py", line 290, in load
    **kw)
  File "/usr/lib/python2.7/json/__init__.py", line 338, in loads
    return _default_decoder.decode(s)
  File "/usr/lib/python2.7/json/decoder.py", line 366, in decode
    obj, end = self.raw_decode(s, idx=_w(s, 0).end())
  File "/usr/lib/python2.7/json/decoder.py", line 384, in raw_decode
    raise ValueError("No JSON object could be decoded")
ValueError: No JSON object could be decoded

[ERROR] 2018-06-14 03:01:43,922 | /home/frappe/frappe-bench/apps/frappe/frappe/utils/scheduler.py:
Site: site1.local
Exception in Enqueue Events for Site site1.local
Traceback (most recent call last):
  File "/home/frappe/frappe-bench/apps/frappe/frappe/utils/scheduler.py", line 80, in enqueue_events_for_site
    frappe.init(site=site)
  File "/home/frappe/frappe-bench/apps/frappe/frappe/__init__.py", line 135, in init
    local.conf = _dict(get_site_config())
  File "/home/frappe/frappe-bench/apps/frappe/frappe/__init__.py", line 189, in get_site_config
    config.update(get_file_json(site_config))
  File "/home/frappe/frappe-bench/apps/frappe/frappe/__init__.py", line 896, in get_file_json
    return json.load(f)
  File "/usr/lib/python2.7/json/__init__.py", line 290, in load
    **kw)
  File "/usr/lib/python2.7/json/__init__.py", line 338, in loads
    return _default_decoder.decode(s)
  File "/usr/lib/python2.7/json/decoder.py", line 366, in decode
    obj, end = self.raw_decode(s, idx=_w(s, 0).end())
  File "/usr/lib/python2.7/json/decoder.py", line 384, in raw_decode
    raise ValueError("No JSON object could be decoded")
ValueError: No JSON object could be decoded

[ERROR] 2018-06-14 03:02:43,980 | /home/frappe/frappe-bench/apps/frappe/frappe/utils/scheduler.py:
Site: site1.local
Exception in Enqueue Events for Site site1.local
Traceback (most recent call last):
  File "/home/frappe/frappe-bench/apps/frappe/frappe/utils/scheduler.py", line 80, in enqueue_events_for_site
    frappe.init(site=site)
  File "/home/frappe/frappe-bench/apps/frappe/frappe/__init__.py", line 135, in init
    local.conf = _dict(get_site_config())
  File "/home/frappe/frappe-bench/apps/frappe/frappe/__init__.py", line 189, in get_site_config
    config.update(get_file_json(site_config))
  File "/home/frappe/frappe-bench/apps/frappe/frappe/__init__.py", line 896, in get_file_json
    return json.load(f)
  File "/usr/lib/python2.7/json/__init__.py", line 290, in load
    **kw)
  File "/usr/lib/python2.7/json/__init__.py", line 338, in loads
    return _default_decoder.decode(s)
  File "/usr/lib/python2.7/json/decoder.py", line 366, in decode
    obj, end = self.raw_decode(s, idx=_w(s, 0).end())
  File "/usr/lib/python2.7/json/decoder.py", line 384, in raw_decode
    raise ValueError("No JSON object could be decoded")
ValueError: No JSON object could be decoded

[ERROR] 2018-06-14 03:03:44,044 | /home/frappe/frappe-bench/apps/frappe/frappe/utils/scheduler.py:
Site: site1.local
Exception in Enqueue Events for Site site1.local
Traceback (most recent call last):
  File "/home/frappe/frappe-bench/apps/frappe/frappe/utils/scheduler.py", line 80, in enqueue_events_for_site
    frappe.init(site=site)
  File "/home/frappe/frappe-bench/apps/frappe/frappe/__init__.py", line 135, in init
    local.conf = _dict(get_site_config())
  File "/home/frappe/frappe-bench/apps/frappe/frappe/__init__.py", line 189, in get_site_config
    config.update(get_file_json(site_config))
  File "/home/frappe/frappe-bench/apps/frappe/frappe/__init__.py", line 896, in get_file_json
    return json.load(f)
  File "/usr/lib/python2.7/json/__init__.py", line 290, in load
    **kw)
  File "/usr/lib/python2.7/json/__init__.py", line 338, in loads
    return _default_decoder.decode(s)
  File "/usr/lib/python2.7/json/decoder.py", line 366, in decode
    obj, end = self.raw_decode(s, idx=_w(s, 0).end())
  File "/usr/lib/python2.7/json/decoder.py", line 384, in raw_decode
    raise ValueError("No JSON object could be decoded")
ValueError: No JSON object could be decoded

[ERROR] 2018-06-14 03:04:44,103 | /home/frappe/frappe-bench/apps/frappe/frappe/utils/scheduler.py:
Site: site1.local
Exception in Enqueue Events for Site site1.local
Traceback (most recent call last):
  File "/home/frappe/frappe-bench/apps/frappe/frappe/utils/scheduler.py", line 80, in enqueue_events_for_site
    frappe.init(site=site)
  File "/home/frappe/frappe-bench/apps/frappe/frappe/__init__.py", line 135, in init
    local.conf = _dict(get_site_config())
  File "/home/frappe/frappe-bench/apps/frappe/frappe/__init__.py", line 189, in get_site_config
    config.update(get_file_json(site_config))
  File "/home/frappe/frappe-bench/apps/frappe/frappe/__init__.py", line 896, in get_file_json
    return json.load(f)
  File "/usr/lib/python2.7/json/__init__.py", line 290, in load
    **kw)
  File "/usr/lib/python2.7/json/__init__.py", line 338, in loads
    return _default_decoder.decode(s)
  File "/usr/lib/python2.7/json/decoder.py", line 366, in decode
    obj, end = self.raw_decode(s, idx=_w(s, 0).end())
  File "/usr/lib/python2.7/json/decoder.py", line 384, in raw_decode
    raise ValueError("No JSON object could be decoded")
ValueError: No JSON object could be decoded

[ERROR] 2018-06-14 03:05:44,158 | /home/frappe/frappe-bench/apps/frappe/frappe/utils/scheduler.py:
Site: site1.local
Exception in Enqueue Events for Site site1.local
Traceback (most recent call last):
  File "/home/frappe/frappe-bench/apps/frappe/frappe/utils/scheduler.py", line 80, in enqueue_events_for_site
    frappe.init(site=site)
  File "/home/frappe/frappe-bench/apps/frappe/frappe/__init__.py", line 135, in init
    local.conf = _dict(get_site_config())
  File "/home/frappe/frappe-bench/apps/frappe/frappe/__init__.py", line 189, in get_site_config
    config.update(get_file_json(site_config))
  File "/home/frappe/frappe-bench/apps/frappe/frappe/__init__.py", line 896, in get_file_json
    return json.load(f)
  File "/usr/lib/python2.7/json/__init__.py", line 290, in load
    **kw)
  File "/usr/lib/python2.7/json/__init__.py", line 338, in loads
    return _default_decoder.decode(s)
  File "/usr/lib/python2.7/json/decoder.py", line 366, in decode
    obj, end = self.raw_decode(s, idx=_w(s, 0).end())
  File "/usr/lib/python2.7/json/decoder.py", line 384, in raw_decode
    raise ValueError("No JSON object could be decoded")
ValueError: No JSON object could be decoded

[ERROR] 2018-06-14 03:06:44,215 | /home/frappe/frappe-bench/apps/frappe/frappe/utils/scheduler.py:
Site: site1.local
Exception in Enqueue Events for Site site1.local
Traceback (most recent call last):
  File "/home/frappe/frappe-bench/apps/frappe/frappe/utils/scheduler.py", line 80, in enqueue_events_for_site
    frappe.init(site=site)
  File "/home/frappe/frappe-bench/apps/frappe/frappe/__init__.py", line 135, in init
    local.conf = _dict(get_site_config())
  File "/home/frappe/frappe-bench/apps/frappe/frappe/__init__.py", line 189, in get_site_config
    config.update(get_file_json(site_config))
  File "/home/frappe/frappe-bench/apps/frappe/frappe/__init__.py", line 896, in get_file_json
    return json.load(f)
  File "/usr/lib/python2.7/json/__init__.py", line 290, in load
    **kw)
  File "/usr/lib/python2.7/json/__init__.py", line 338, in loads
    return _default_decoder.decode(s)
  File "/usr/lib/python2.7/json/decoder.py", line 366, in decode
    obj, end = self.raw_decode(s, idx=_w(s, 0).end())
  File "/usr/lib/python2.7/json/decoder.py", line 384, in raw_decode
    raise ValueError("No JSON object could be decoded")
ValueError: No JSON object could be decoded

[ERROR] 2018-06-14 03:07:44,273 | /home/frappe/frappe-bench/apps/frappe/frappe/utils/scheduler.py:
Site: site1.local
Exception in Enqueue Events for Site site1.local
Traceback (most recent call last):
  File "/home/frappe/frappe-bench/apps/frappe/frappe/utils/scheduler.py", line 80, in enqueue_events_for_site
    frappe.init(site=site)
  File "/home/frappe/frappe-bench/apps/frappe/frappe/__init__.py", line 135, in init
    local.conf = _dict(get_site_config())
  File "/home/frappe/frappe-bench/apps/frappe/frappe/__init__.py", line 189, in get_site_config
    config.update(get_file_json(site_config))
  File "/home/frappe/frappe-bench/apps/frappe/frappe/__init__.py", line 896, in get_file_json
    return json.load(f)
  File "/usr/lib/python2.7/json/__init__.py", line 290, in load
    **kw)
  File "/usr/lib/python2.7/json/__init__.py", line 338, in loads
    return _default_decoder.decode(s)
  File "/usr/lib/python2.7/json/decoder.py", line 366, in decode
    obj, end = self.raw_decode(s, idx=_w(s, 0).end())
  File "/usr/lib/python2.7/json/decoder.py", line 384, in raw_decode
    raise ValueError("No JSON object could be decoded")
ValueError: No JSON object could be decoded

[ERROR] 2018-06-14 03:08:44,327 | /home/frappe/frappe-bench/apps/frappe/frappe/utils/scheduler.py:
Site: site1.local
Exception in Enqueue Events for Site site1.local
Traceback (most recent call last):
  File "/home/frappe/frappe-bench/apps/frappe/frappe/utils/scheduler.py", line 80, in enqueue_events_for_site
    frappe.init(site=site)
  File "/home/frappe/frappe-bench/apps/frappe/frappe/__init__.py", line 135, in init
    local.conf = _dict(get_site_config())
  File "/home/frappe/frappe-bench/apps/frappe/frappe/__init__.py", line 189, in get_site_config
    config.update(get_file_json(site_config))
  File "/home/frappe/frappe-bench/apps/frappe/frappe/__init__.py", line 896, in get_file_json
    return json.load(f)
  File "/usr/lib/python2.7/json/__init__.py", line 290, in load
    **kw)
  File "/usr/lib/python2.7/json/__init__.py", line 338, in loads
    return _default_decoder.decode(s)
  File "/usr/lib/python2.7/json/decoder.py", line 366, in decode
    obj, end = self.raw_decode(s, idx=_w(s, 0).end())
  File "/usr/lib/python2.7/json/decoder.py", line 384, in raw_decode
    raise ValueError("No JSON object could be decoded")
ValueError: No JSON object could be decoded

[ERROR] 2018-06-14 03:09:44,387 | /home/frappe/frappe-bench/apps/frappe/frappe/utils/scheduler.py:
Site: site1.local
Exception in Enqueue Events for Site site1.local
Traceback (most recent call last):
  File "/home/frappe/frappe-bench/apps/frappe/frappe/utils/scheduler.py", line 80, in enqueue_events_for_site
    frappe.init(site=site)
  File "/home/frappe/frappe-bench/apps/frappe/frappe/__init__.py", line 135, in init
    local.conf = _dict(get_site_config())
  File "/home/frappe/frappe-bench/apps/frappe/frappe/__init__.py", line 189, in get_site_config
    config.update(get_file_json(site_config))
  File "/home/frappe/frappe-bench/apps/frappe/frappe/__init__.py", line 896, in get_file_json
    return json.load(f)
  File "/usr/lib/python2.7/json/__init__.py", line 290, in load
    **kw)
  File "/usr/lib/python2.7/json/__init__.py", line 338, in loads
    return _default_decoder.decode(s)
  File "/usr/lib/python2.7/json/decoder.py", line 366, in decode
    obj, end = self.raw_decode(s, idx=_w(s, 0).end())
  File "/usr/lib/python2.7/json/decoder.py", line 384, in raw_decode
    raise ValueError("No JSON object could be decoded")
ValueError: No JSON object could be decoded

[ERROR] 2018-06-14 03:10:44,445 | /home/frappe/frappe-bench/apps/frappe/frappe/utils/scheduler.py:
Site: site1.local
Exception in Enqueue Events for Site site1.local
Traceback (most recent call last):
  File "/home/frappe/frappe-bench/apps/frappe/frappe/utils/scheduler.py", line 80, in enqueue_events_for_site
    frappe.init(site=site)
  File "/home/frappe/frappe-bench/apps/frappe/frappe/__init__.py", line 135, in init
    local.conf = _dict(get_site_config())
  File "/home/frappe/frappe-bench/apps/frappe/frappe/__init__.py", line 189, in get_site_config
    config.update(get_file_json(site_config))
  File "/home/frappe/frappe-bench/apps/frappe/frappe/__init__.py", line 896, in get_file_json
    return json.load(f)
  File "/usr/lib/python2.7/json/__init__.py", line 290, in load
    **kw)
  File "/usr/lib/python2.7/json/__init__.py", line 338, in loads
    return _default_decoder.decode(s)
  File "/usr/lib/python2.7/json/decoder.py", line 366, in decode
    obj, end = self.raw_decode(s, idx=_w(s, 0).end())
  File "/usr/lib/python2.7/json/decoder.py", line 384, in raw_decode
    raise ValueError("No JSON object could be decoded")
ValueError: No JSON object could be decoded

[ERROR] 2018-06-14 03:11:44,504 | /home/frappe/frappe-bench/apps/frappe/frappe/utils/scheduler.py:
Site: site1.local
Exception in Enqueue Events for Site site1.local
Traceback (most recent call last):
  File "/home/frappe/frappe-bench/apps/frappe/frappe/utils/scheduler.py", line 80, in enqueue_events_for_site
    frappe.init(site=site)
  File "/home/frappe/frappe-bench/apps/frappe/frappe/__init__.py", line 135, in init
    local.conf = _dict(get_site_config())
  File "/home/frappe/frappe-bench/apps/frappe/frappe/__init__.py", line 189, in get_site_config
    config.update(get_file_json(site_config))
  File "/home/frappe/frappe-bench/apps/frappe/frappe/__init__.py", line 896, in get_file_json
    return json.load(f)
  File "/usr/lib/python2.7/json/__init__.py", line 290, in load
    **kw)
  File "/usr/lib/python2.7/json/__init__.py", line 338, in loads
    return _default_decoder.decode(s)
  File "/usr/lib/python2.7/json/decoder.py", line 366, in decode
    obj, end = self.raw_decode(s, idx=_w(s, 0).end())
  File "/usr/lib/python2.7/json/decoder.py", line 384, in raw_decode
    raise ValueError("No JSON object could be decoded")
ValueError: No JSON object could be decoded

[ERROR] 2018-06-14 03:12:44,562 | /home/frappe/frappe-bench/apps/frappe/frappe/utils/scheduler.py:
Site: site1.local
Exception in Enqueue Events for Site site1.local
Traceback (most recent call last):
  File "/home/frappe/frappe-bench/apps/frappe/frappe/utils/scheduler.py", line 80, in enqueue_events_for_site
    frappe.init(site=site)
  File "/home/frappe/frappe-bench/apps/frappe/frappe/__init__.py", line 135, in init
    local.conf = _dict(get_site_config())
  File "/home/frappe/frappe-bench/apps/frappe/frappe/__init__.py", line 189, in get_site_config
    config.update(get_file_json(site_config))
  File "/home/frappe/frappe-bench/apps/frappe/frappe/__init__.py", line 896, in get_file_json
    return json.load(f)
  File "/usr/lib/python2.7/json/__init__.py", line 290, in load
    **kw)
  File "/usr/lib/python2.7/json/__init__.py", line 338, in loads
    return _default_decoder.decode(s)
  File "/usr/lib/python2.7/json/decoder.py", line 366, in decode
    obj, end = self.raw_decode(s, idx=_w(s, 0).end())
  File "/usr/lib/python2.7/json/decoder.py", line 384, in raw_decode
    raise ValueError("No JSON object could be decoded")
ValueError: No JSON object could be decoded

[ERROR] 2018-06-14 03:13:44,618 | /home/frappe/frappe-bench/apps/frappe/frappe/utils/scheduler.py:
Site: site1.local
Exception in Enqueue Events for Site site1.local
Traceback (most recent call last):
  File "/home/frappe/frappe-bench/apps/frappe/frappe/utils/scheduler.py", line 80, in enqueue_events_for_site
    frappe.init(site=site)
  File "/home/frappe/frappe-bench/apps/frappe/frappe/__init__.py", line 135, in init
    local.conf = _dict(get_site_config())
  File "/home/frappe/frappe-bench/apps/frappe/frappe/__init__.py", line 189, in get_site_config
    config.update(get_file_json(site_config))
  File "/home/frappe/frappe-bench/apps/frappe/frappe/__init__.py", line 896, in get_file_json
    return json.load(f)
  File "/usr/lib/python2.7/json/__init__.py", line 290, in load
    **kw)
  File "/usr/lib/python2.7/json/__init__.py", line 338, in loads
    return _default_decoder.decode(s)
  File "/usr/lib/python2.7/json/decoder.py", line 366, in decode
    obj, end = self.raw_decode(s, idx=_w(s, 0).end())
  File "/usr/lib/python2.7/json/decoder.py", line 384, in raw_decode
    raise ValueError("No JSON object could be decoded")
ValueError: No JSON object could be decoded

[ERROR] 2018-06-14 03:14:44,678 | /home/frappe/frappe-bench/apps/frappe/frappe/utils/scheduler.py:
Site: site1.local
Exception in Enqueue Events for Site site1.local
Traceback (most recent call last):
  File "/home/frappe/frappe-bench/apps/frappe/frappe/utils/scheduler.py", line 80, in enqueue_events_for_site
    frappe.init(site=site)
  File "/home/frappe/frappe-bench/apps/frappe/frappe/__init__.py", line 135, in init
    local.conf = _dict(get_site_config())
  File "/home/frappe/frappe-bench/apps/frappe/frappe/__init__.py", line 189, in get_site_config
    config.update(get_file_json(site_config))
  File "/home/frappe/frappe-bench/apps/frappe/frappe/__init__.py", line 896, in get_file_json
    return json.load(f)
  File "/usr/lib/python2.7/json/__init__.py", line 290, in load
    **kw)
  File "/usr/lib/python2.7/json/__init__.py", line 338, in loads
    return _default_decoder.decode(s)
  File "/usr/lib/python2.7/json/decoder.py", line 366, in decode
    obj, end = self.raw_decode(s, idx=_w(s, 0).end())
  File "/usr/lib/python2.7/json/decoder.py", line 384, in raw_decode
    raise ValueError("No JSON object could be decoded")
ValueError: No JSON object could be decoded

[ERROR] 2018-06-14 03:15:44,738 | /home/frappe/frappe-bench/apps/frappe/frappe/utils/scheduler.py:
Site: site1.local
Exception in Enqueue Events for Site site1.local
Traceback (most recent call last):
  File "/home/frappe/frappe-bench/apps/frappe/frappe/utils/scheduler.py", line 80, in enqueue_events_for_site
    frappe.init(site=site)
  File "/home/frappe/frappe-bench/apps/frappe/frappe/__init__.py", line 135, in init
    local.conf = _dict(get_site_config())
  File "/home/frappe/frappe-bench/apps/frappe/frappe/__init__.py", line 189, in get_site_config
    config.update(get_file_json(site_config))
  File "/home/frappe/frappe-bench/apps/frappe/frappe/__init__.py", line 896, in get_file_json
    return json.load(f)
  File "/usr/lib/python2.7/json/__init__.py", line 290, in load
    **kw)
  File "/usr/lib/python2.7/json/__init__.py", line 338, in loads
    return _default_decoder.decode(s)
  File "/usr/lib/python2.7/json/decoder.py", line 366, in decode
    obj, end = self.raw_decode(s, idx=_w(s, 0).end())
  File "/usr/lib/python2.7/json/decoder.py", line 384, in raw_decode
    raise ValueError("No JSON object could be decoded")
ValueError: No JSON object could be decoded

[ERROR] 2018-06-14 03:16:44,797 | /home/frappe/frappe-bench/apps/frappe/frappe/utils/scheduler.py:
Site: site1.local
Exception in Enqueue Events for Site site1.local
Traceback (most recent call last):
  File "/home/frappe/frappe-bench/apps/frappe/frappe/utils/scheduler.py", line 80, in enqueue_events_for_site
    frappe.init(site=site)
  File "/home/frappe/frappe-bench/apps/frappe/frappe/__init__.py", line 135, in init
    local.conf = _dict(get_site_config())
  File "/home/frappe/frappe-bench/apps/frappe/frappe/__init__.py", line 189, in get_site_config
    config.update(get_file_json(site_config))
  File "/home/frappe/frappe-bench/apps/frappe/frappe/__init__.py", line 896, in get_file_json
    return json.load(f)
  File "/usr/lib/python2.7/json/__init__.py", line 290, in load
    **kw)
  File "/usr/lib/python2.7/json/__init__.py", line 338, in loads
    return _default_decoder.decode(s)
  File "/usr/lib/python2.7/json/decoder.py", line 366, in decode
    obj, end = self.raw_decode(s, idx=_w(s, 0).end())
  File "/usr/lib/python2.7/json/decoder.py", line 384, in raw_decode
    raise ValueError("No JSON object could be decoded")
ValueError: No JSON object could be decoded

[ERROR] 2018-06-14 03:17:44,856 | /home/frappe/frappe-bench/apps/frappe/frappe/utils/scheduler.py:
Site: site1.local
Exception in Enqueue Events for Site site1.local
Traceback (most recent call last):
  File "/home/frappe/frappe-bench/apps/frappe/frappe/utils/scheduler.py", line 80, in enqueue_events_for_site
    frappe.init(site=site)
  File "/home/frappe/frappe-bench/apps/frappe/frappe/__init__.py", line 135, in init
    local.conf = _dict(get_site_config())
  File "/home/frappe/frappe-bench/apps/frappe/frappe/__init__.py", line 189, in get_site_config
    config.update(get_file_json(site_config))
  File "/home/frappe/frappe-bench/apps/frappe/frappe/__init__.py", line 896, in get_file_json
    return json.load(f)
  File "/usr/lib/python2.7/json/__init__.py", line 290, in load
    **kw)
  File "/usr/lib/python2.7/json/__init__.py", line 338, in loads
    return _default_decoder.decode(s)
  File "/usr/lib/python2.7/json/decoder.py", line 366, in decode
    obj, end = self.raw_decode(s, idx=_w(s, 0).end())
  File "/usr/lib/python2.7/json/decoder.py", line 384, in raw_decode
    raise ValueError("No JSON object could be decoded")
ValueError: No JSON object could be decoded

[ERROR] 2018-06-14 03:18:44,914 | /home/frappe/frappe-bench/apps/frappe/frappe/utils/scheduler.py:
Site: site1.local
Exception in Enqueue Events for Site site1.local
Traceback (most recent call last):
  File "/home/frappe/frappe-bench/apps/frappe/frappe/utils/scheduler.py", line 80, in enqueue_events_for_site
    frappe.init(site=site)
  File "/home/frappe/frappe-bench/apps/frappe/frappe/__init__.py", line 135, in init
    local.conf = _dict(get_site_config())
  File "/home/frappe/frappe-bench/apps/frappe/frappe/__init__.py", line 189, in get_site_config
    config.update(get_file_json(site_config))
  File "/home/frappe/frappe-bench/apps/frappe/frappe/__init__.py", line 896, in get_file_json
    return json.load(f)
  File "/usr/lib/python2.7/json/__init__.py", line 290, in load
    **kw)
  File "/usr/lib/python2.7/json/__init__.py", line 338, in loads
    return _default_decoder.decode(s)
  File "/usr/lib/python2.7/json/decoder.py", line 366, in decode
    obj, end = self.raw_decode(s, idx=_w(s, 0).end())
  File "/usr/lib/python2.7/json/decoder.py", line 384, in raw_decode
    raise ValueError("No JSON object could be decoded")
ValueError: No JSON object could be decoded

[ERROR] 2018-06-14 03:19:44,977 | /home/frappe/frappe-bench/apps/frappe/frappe/utils/scheduler.py:
Site: site1.local
Exception in Enqueue Events for Site site1.local
Traceback (most recent call last):
  File "/home/frappe/frappe-bench/apps/frappe/frappe/utils/scheduler.py", line 80, in enqueue_events_for_site
    frappe.init(site=site)
  File "/home/frappe/frappe-bench/apps/frappe/frappe/__init__.py", line 135, in init
    local.conf = _dict(get_site_config())
  File "/home/frappe/frappe-bench/apps/frappe/frappe/__init__.py", line 189, in get_site_config
    config.update(get_file_json(site_config))
  File "/home/frappe/frappe-bench/apps/frappe/frappe/__init__.py", line 896, in get_file_json
    return json.load(f)
  File "/usr/lib/python2.7/json/__init__.py", line 290, in load
    **kw)
  File "/usr/lib/python2.7/json/__init__.py", line 338, in loads
    return _default_decoder.decode(s)
  File "/usr/lib/python2.7/json/decoder.py", line 366, in decode
    obj, end = self.raw_decode(s, idx=_w(s, 0).end())
  File "/usr/lib/python2.7/json/decoder.py", line 384, in raw_decode
    raise ValueError("No JSON object could be decoded")
ValueError: No JSON object could be decoded

[ERROR] 2018-06-14 03:20:45,036 | /home/frappe/frappe-bench/apps/frappe/frappe/utils/scheduler.py:
Site: site1.local
Exception in Enqueue Events for Site site1.local
Traceback (most recent call last):
  File "/home/frappe/frappe-bench/apps/frappe/frappe/utils/scheduler.py", line 80, in enqueue_events_for_site
    frappe.init(site=site)
  File "/home/frappe/frappe-bench/apps/frappe/frappe/__init__.py", line 135, in init
    local.conf = _dict(get_site_config())
  File "/home/frappe/frappe-bench/apps/frappe/frappe/__init__.py", line 189, in get_site_config
    config.update(get_file_json(site_config))
  File "/home/frappe/frappe-bench/apps/frappe/frappe/__init__.py", line 896, in get_file_json
    return json.load(f)
  File "/usr/lib/python2.7/json/__init__.py", line 290, in load
    **kw)
  File "/usr/lib/python2.7/json/__init__.py", line 338, in loads
    return _default_decoder.decode(s)
  File "/usr/lib/python2.7/json/decoder.py", line 366, in decode
    obj, end = self.raw_decode(s, idx=_w(s, 0).end())
  File "/usr/lib/python2.7/json/decoder.py", line 384, in raw_decode
    raise ValueError("No JSON object could be decoded")
ValueError: No JSON object could be decoded

[ERROR] 2018-06-14 03:21:45,099 | /home/frappe/frappe-bench/apps/frappe/frappe/utils/scheduler.py:
Site: site1.local
Exception in Enqueue Events for Site site1.local
Traceback (most recent call last):
  File "/home/frappe/frappe-bench/apps/frappe/frappe/utils/scheduler.py", line 80, in enqueue_events_for_site
    frappe.init(site=site)
  File "/home/frappe/frappe-bench/apps/frappe/frappe/__init__.py", line 135, in init
    local.conf = _dict(get_site_config())
  File "/home/frappe/frappe-bench/apps/frappe/frappe/__init__.py", line 189, in get_site_config
    config.update(get_file_json(site_config))
  File "/home/frappe/frappe-bench/apps/frappe/frappe/__init__.py", line 896, in get_file_json
    return json.load(f)
  File "/usr/lib/python2.7/json/__init__.py", line 290, in load
    **kw)
  File "/usr/lib/python2.7/json/__init__.py", line 338, in loads
    return _default_decoder.decode(s)
  File "/usr/lib/python2.7/json/decoder.py", line 366, in decode
    obj, end = self.raw_decode(s, idx=_w(s, 0).end())
  File "/usr/lib/python2.7/json/decoder.py", line 384, in raw_decode
    raise ValueError("No JSON object could be decoded")
ValueError: No JSON object could be decoded

[ERROR] 2018-06-14 03:22:45,157 | /home/frappe/frappe-bench/apps/frappe/frappe/utils/scheduler.py:
Site: site1.local
Exception in Enqueue Events for Site site1.local
Traceback (most recent call last):
  File "/home/frappe/frappe-bench/apps/frappe/frappe/utils/scheduler.py", line 80, in enqueue_events_for_site
    frappe.init(site=site)
  File "/home/frappe/frappe-bench/apps/frappe/frappe/__init__.py", line 135, in init
    local.conf = _dict(get_site_config())
  File "/home/frappe/frappe-bench/apps/frappe/frappe/__init__.py", line 189, in get_site_config
    config.update(get_file_json(site_config))
  File "/home/frappe/frappe-bench/apps/frappe/frappe/__init__.py", line 896, in get_file_json
    return json.load(f)
  File "/usr/lib/python2.7/json/__init__.py", line 290, in load
    **kw)
  File "/usr/lib/python2.7/json/__init__.py", line 338, in loads
    return _default_decoder.decode(s)
  File "/usr/lib/python2.7/json/decoder.py", line 366, in decode
    obj, end = self.raw_decode(s, idx=_w(s, 0).end())
  File "/usr/lib/python2.7/json/decoder.py", line 384, in raw_decode
    raise ValueError("No JSON object could be decoded")
ValueError: No JSON object could be decoded

