[ERROR] 2018-06-13 19:05:16,280 | /home/frappe/frappe-bench/apps/frappe/frappe/utils/scheduler.py:
Site: site1.local
Exception in Enqueue Events for Site site1.local
Traceback (most recent call last):
  File "/home/frappe/frappe-bench/apps/frappe/frappe/utils/scheduler.py", line 80, in enqueue_events_for_site
    frappe.init(site=site)
  File "/home/frappe/frappe-bench/apps/frappe/frappe/__init__.py", line 135, in init
    local.conf = _dict(get_site_config())
  File "/home/frappe/frappe-bench/apps/frappe/frappe/__init__.py", line 189, in get_site_config
    config.update(get_file_json(site_config))
  File "/home/frappe/frappe-bench/apps/frappe/frappe/__init__.py", line 896, in get_file_json
    return json.load(f)
  File "/usr/lib/python2.7/json/__init__.py", line 290, in load
    **kw)
  File "/usr/lib/python2.7/json/__init__.py", line 338, in loads
    return _default_decoder.decode(s)
  File "/usr/lib/python2.7/json/decoder.py", line 366, in decode
    obj, end = self.raw_decode(s, idx=_w(s, 0).end())
  File "/usr/lib/python2.7/json/decoder.py", line 384, in raw_decode
    raise ValueError("No JSON object could be decoded")
ValueError: No JSON object could be decoded

[ERROR] 2018-06-13 19:06:16,341 | /home/frappe/frappe-bench/apps/frappe/frappe/utils/scheduler.py:
Site: site1.local
Exception in Enqueue Events for Site site1.local
Traceback (most recent call last):
  File "/home/frappe/frappe-bench/apps/frappe/frappe/utils/scheduler.py", line 80, in enqueue_events_for_site
    frappe.init(site=site)
  File "/home/frappe/frappe-bench/apps/frappe/frappe/__init__.py", line 135, in init
    local.conf = _dict(get_site_config())
  File "/home/frappe/frappe-bench/apps/frappe/frappe/__init__.py", line 189, in get_site_config
    config.update(get_file_json(site_config))
  File "/home/frappe/frappe-bench/apps/frappe/frappe/__init__.py", line 896, in get_file_json
    return json.load(f)
  File "/usr/lib/python2.7/json/__init__.py", line 290, in load
    **kw)
  File "/usr/lib/python2.7/json/__init__.py", line 338, in loads
    return _default_decoder.decode(s)
  File "/usr/lib/python2.7/json/decoder.py", line 366, in decode
    obj, end = self.raw_decode(s, idx=_w(s, 0).end())
  File "/usr/lib/python2.7/json/decoder.py", line 384, in raw_decode
    raise ValueError("No JSON object could be decoded")
ValueError: No JSON object could be decoded

[ERROR] 2018-06-13 19:07:16,396 | /home/frappe/frappe-bench/apps/frappe/frappe/utils/scheduler.py:
Site: site1.local
Exception in Enqueue Events for Site site1.local
Traceback (most recent call last):
  File "/home/frappe/frappe-bench/apps/frappe/frappe/utils/scheduler.py", line 80, in enqueue_events_for_site
    frappe.init(site=site)
  File "/home/frappe/frappe-bench/apps/frappe/frappe/__init__.py", line 135, in init
    local.conf = _dict(get_site_config())
  File "/home/frappe/frappe-bench/apps/frappe/frappe/__init__.py", line 189, in get_site_config
    config.update(get_file_json(site_config))
  File "/home/frappe/frappe-bench/apps/frappe/frappe/__init__.py", line 896, in get_file_json
    return json.load(f)
  File "/usr/lib/python2.7/json/__init__.py", line 290, in load
    **kw)
  File "/usr/lib/python2.7/json/__init__.py", line 338, in loads
    return _default_decoder.decode(s)
  File "/usr/lib/python2.7/json/decoder.py", line 366, in decode
    obj, end = self.raw_decode(s, idx=_w(s, 0).end())
  File "/usr/lib/python2.7/json/decoder.py", line 384, in raw_decode
    raise ValueError("No JSON object could be decoded")
ValueError: No JSON object could be decoded

[ERROR] 2018-06-13 19:08:16,454 | /home/frappe/frappe-bench/apps/frappe/frappe/utils/scheduler.py:
Site: site1.local
Exception in Enqueue Events for Site site1.local
Traceback (most recent call last):
  File "/home/frappe/frappe-bench/apps/frappe/frappe/utils/scheduler.py", line 80, in enqueue_events_for_site
    frappe.init(site=site)
  File "/home/frappe/frappe-bench/apps/frappe/frappe/__init__.py", line 135, in init
    local.conf = _dict(get_site_config())
  File "/home/frappe/frappe-bench/apps/frappe/frappe/__init__.py", line 189, in get_site_config
    config.update(get_file_json(site_config))
  File "/home/frappe/frappe-bench/apps/frappe/frappe/__init__.py", line 896, in get_file_json
    return json.load(f)
  File "/usr/lib/python2.7/json/__init__.py", line 290, in load
    **kw)
  File "/usr/lib/python2.7/json/__init__.py", line 338, in loads
    return _default_decoder.decode(s)
  File "/usr/lib/python2.7/json/decoder.py", line 366, in decode
    obj, end = self.raw_decode(s, idx=_w(s, 0).end())
  File "/usr/lib/python2.7/json/decoder.py", line 384, in raw_decode
    raise ValueError("No JSON object could be decoded")
ValueError: No JSON object could be decoded

[ERROR] 2018-06-13 19:09:16,509 | /home/frappe/frappe-bench/apps/frappe/frappe/utils/scheduler.py:
Site: site1.local
Exception in Enqueue Events for Site site1.local
Traceback (most recent call last):
  File "/home/frappe/frappe-bench/apps/frappe/frappe/utils/scheduler.py", line 80, in enqueue_events_for_site
    frappe.init(site=site)
  File "/home/frappe/frappe-bench/apps/frappe/frappe/__init__.py", line 135, in init
    local.conf = _dict(get_site_config())
  File "/home/frappe/frappe-bench/apps/frappe/frappe/__init__.py", line 189, in get_site_config
    config.update(get_file_json(site_config))
  File "/home/frappe/frappe-bench/apps/frappe/frappe/__init__.py", line 896, in get_file_json
    return json.load(f)
  File "/usr/lib/python2.7/json/__init__.py", line 290, in load
    **kw)
  File "/usr/lib/python2.7/json/__init__.py", line 338, in loads
    return _default_decoder.decode(s)
  File "/usr/lib/python2.7/json/decoder.py", line 366, in decode
    obj, end = self.raw_decode(s, idx=_w(s, 0).end())
  File "/usr/lib/python2.7/json/decoder.py", line 384, in raw_decode
    raise ValueError("No JSON object could be decoded")
ValueError: No JSON object could be decoded

[ERROR] 2018-06-13 19:10:16,567 | /home/frappe/frappe-bench/apps/frappe/frappe/utils/scheduler.py:
Site: site1.local
Exception in Enqueue Events for Site site1.local
Traceback (most recent call last):
  File "/home/frappe/frappe-bench/apps/frappe/frappe/utils/scheduler.py", line 80, in enqueue_events_for_site
    frappe.init(site=site)
  File "/home/frappe/frappe-bench/apps/frappe/frappe/__init__.py", line 135, in init
    local.conf = _dict(get_site_config())
  File "/home/frappe/frappe-bench/apps/frappe/frappe/__init__.py", line 189, in get_site_config
    config.update(get_file_json(site_config))
  File "/home/frappe/frappe-bench/apps/frappe/frappe/__init__.py", line 896, in get_file_json
    return json.load(f)
  File "/usr/lib/python2.7/json/__init__.py", line 290, in load
    **kw)
  File "/usr/lib/python2.7/json/__init__.py", line 338, in loads
    return _default_decoder.decode(s)
  File "/usr/lib/python2.7/json/decoder.py", line 366, in decode
    obj, end = self.raw_decode(s, idx=_w(s, 0).end())
  File "/usr/lib/python2.7/json/decoder.py", line 384, in raw_decode
    raise ValueError("No JSON object could be decoded")
ValueError: No JSON object could be decoded

[ERROR] 2018-06-13 19:11:16,622 | /home/frappe/frappe-bench/apps/frappe/frappe/utils/scheduler.py:
Site: site1.local
Exception in Enqueue Events for Site site1.local
Traceback (most recent call last):
  File "/home/frappe/frappe-bench/apps/frappe/frappe/utils/scheduler.py", line 80, in enqueue_events_for_site
    frappe.init(site=site)
  File "/home/frappe/frappe-bench/apps/frappe/frappe/__init__.py", line 135, in init
    local.conf = _dict(get_site_config())
  File "/home/frappe/frappe-bench/apps/frappe/frappe/__init__.py", line 189, in get_site_config
    config.update(get_file_json(site_config))
  File "/home/frappe/frappe-bench/apps/frappe/frappe/__init__.py", line 896, in get_file_json
    return json.load(f)
  File "/usr/lib/python2.7/json/__init__.py", line 290, in load
    **kw)
  File "/usr/lib/python2.7/json/__init__.py", line 338, in loads
    return _default_decoder.decode(s)
  File "/usr/lib/python2.7/json/decoder.py", line 366, in decode
    obj, end = self.raw_decode(s, idx=_w(s, 0).end())
  File "/usr/lib/python2.7/json/decoder.py", line 384, in raw_decode
    raise ValueError("No JSON object could be decoded")
ValueError: No JSON object could be decoded

[ERROR] 2018-06-13 19:12:16,683 | /home/frappe/frappe-bench/apps/frappe/frappe/utils/scheduler.py:
Site: site1.local
Exception in Enqueue Events for Site site1.local
Traceback (most recent call last):
  File "/home/frappe/frappe-bench/apps/frappe/frappe/utils/scheduler.py", line 80, in enqueue_events_for_site
    frappe.init(site=site)
  File "/home/frappe/frappe-bench/apps/frappe/frappe/__init__.py", line 135, in init
    local.conf = _dict(get_site_config())
  File "/home/frappe/frappe-bench/apps/frappe/frappe/__init__.py", line 189, in get_site_config
    config.update(get_file_json(site_config))
  File "/home/frappe/frappe-bench/apps/frappe/frappe/__init__.py", line 896, in get_file_json
    return json.load(f)
  File "/usr/lib/python2.7/json/__init__.py", line 290, in load
    **kw)
  File "/usr/lib/python2.7/json/__init__.py", line 338, in loads
    return _default_decoder.decode(s)
  File "/usr/lib/python2.7/json/decoder.py", line 366, in decode
    obj, end = self.raw_decode(s, idx=_w(s, 0).end())
  File "/usr/lib/python2.7/json/decoder.py", line 384, in raw_decode
    raise ValueError("No JSON object could be decoded")
ValueError: No JSON object could be decoded

[ERROR] 2018-06-13 19:13:16,736 | /home/frappe/frappe-bench/apps/frappe/frappe/utils/scheduler.py:
Site: site1.local
Exception in Enqueue Events for Site site1.local
Traceback (most recent call last):
  File "/home/frappe/frappe-bench/apps/frappe/frappe/utils/scheduler.py", line 80, in enqueue_events_for_site
    frappe.init(site=site)
  File "/home/frappe/frappe-bench/apps/frappe/frappe/__init__.py", line 135, in init
    local.conf = _dict(get_site_config())
  File "/home/frappe/frappe-bench/apps/frappe/frappe/__init__.py", line 189, in get_site_config
    config.update(get_file_json(site_config))
  File "/home/frappe/frappe-bench/apps/frappe/frappe/__init__.py", line 896, in get_file_json
    return json.load(f)
  File "/usr/lib/python2.7/json/__init__.py", line 290, in load
    **kw)
  File "/usr/lib/python2.7/json/__init__.py", line 338, in loads
    return _default_decoder.decode(s)
  File "/usr/lib/python2.7/json/decoder.py", line 366, in decode
    obj, end = self.raw_decode(s, idx=_w(s, 0).end())
  File "/usr/lib/python2.7/json/decoder.py", line 384, in raw_decode
    raise ValueError("No JSON object could be decoded")
ValueError: No JSON object could be decoded

[ERROR] 2018-06-13 19:14:16,794 | /home/frappe/frappe-bench/apps/frappe/frappe/utils/scheduler.py:
Site: site1.local
Exception in Enqueue Events for Site site1.local
Traceback (most recent call last):
  File "/home/frappe/frappe-bench/apps/frappe/frappe/utils/scheduler.py", line 80, in enqueue_events_for_site
    frappe.init(site=site)
  File "/home/frappe/frappe-bench/apps/frappe/frappe/__init__.py", line 135, in init
    local.conf = _dict(get_site_config())
  File "/home/frappe/frappe-bench/apps/frappe/frappe/__init__.py", line 189, in get_site_config
    config.update(get_file_json(site_config))
  File "/home/frappe/frappe-bench/apps/frappe/frappe/__init__.py", line 896, in get_file_json
    return json.load(f)
  File "/usr/lib/python2.7/json/__init__.py", line 290, in load
    **kw)
  File "/usr/lib/python2.7/json/__init__.py", line 338, in loads
    return _default_decoder.decode(s)
  File "/usr/lib/python2.7/json/decoder.py", line 366, in decode
    obj, end = self.raw_decode(s, idx=_w(s, 0).end())
  File "/usr/lib/python2.7/json/decoder.py", line 384, in raw_decode
    raise ValueError("No JSON object could be decoded")
ValueError: No JSON object could be decoded

[ERROR] 2018-06-13 19:15:16,851 | /home/frappe/frappe-bench/apps/frappe/frappe/utils/scheduler.py:
Site: site1.local
Exception in Enqueue Events for Site site1.local
Traceback (most recent call last):
  File "/home/frappe/frappe-bench/apps/frappe/frappe/utils/scheduler.py", line 80, in enqueue_events_for_site
    frappe.init(site=site)
  File "/home/frappe/frappe-bench/apps/frappe/frappe/__init__.py", line 135, in init
    local.conf = _dict(get_site_config())
  File "/home/frappe/frappe-bench/apps/frappe/frappe/__init__.py", line 189, in get_site_config
    config.update(get_file_json(site_config))
  File "/home/frappe/frappe-bench/apps/frappe/frappe/__init__.py", line 896, in get_file_json
    return json.load(f)
  File "/usr/lib/python2.7/json/__init__.py", line 290, in load
    **kw)
  File "/usr/lib/python2.7/json/__init__.py", line 338, in loads
    return _default_decoder.decode(s)
  File "/usr/lib/python2.7/json/decoder.py", line 366, in decode
    obj, end = self.raw_decode(s, idx=_w(s, 0).end())
  File "/usr/lib/python2.7/json/decoder.py", line 384, in raw_decode
    raise ValueError("No JSON object could be decoded")
ValueError: No JSON object could be decoded

[ERROR] 2018-06-13 19:16:16,909 | /home/frappe/frappe-bench/apps/frappe/frappe/utils/scheduler.py:
Site: site1.local
Exception in Enqueue Events for Site site1.local
Traceback (most recent call last):
  File "/home/frappe/frappe-bench/apps/frappe/frappe/utils/scheduler.py", line 80, in enqueue_events_for_site
    frappe.init(site=site)
  File "/home/frappe/frappe-bench/apps/frappe/frappe/__init__.py", line 135, in init
    local.conf = _dict(get_site_config())
  File "/home/frappe/frappe-bench/apps/frappe/frappe/__init__.py", line 189, in get_site_config
    config.update(get_file_json(site_config))
  File "/home/frappe/frappe-bench/apps/frappe/frappe/__init__.py", line 896, in get_file_json
    return json.load(f)
  File "/usr/lib/python2.7/json/__init__.py", line 290, in load
    **kw)
  File "/usr/lib/python2.7/json/__init__.py", line 338, in loads
    return _default_decoder.decode(s)
  File "/usr/lib/python2.7/json/decoder.py", line 366, in decode
    obj, end = self.raw_decode(s, idx=_w(s, 0).end())
  File "/usr/lib/python2.7/json/decoder.py", line 384, in raw_decode
    raise ValueError("No JSON object could be decoded")
ValueError: No JSON object could be decoded

[ERROR] 2018-06-13 19:17:16,965 | /home/frappe/frappe-bench/apps/frappe/frappe/utils/scheduler.py:
Site: site1.local
Exception in Enqueue Events for Site site1.local
Traceback (most recent call last):
  File "/home/frappe/frappe-bench/apps/frappe/frappe/utils/scheduler.py", line 80, in enqueue_events_for_site
    frappe.init(site=site)
  File "/home/frappe/frappe-bench/apps/frappe/frappe/__init__.py", line 135, in init
    local.conf = _dict(get_site_config())
  File "/home/frappe/frappe-bench/apps/frappe/frappe/__init__.py", line 189, in get_site_config
    config.update(get_file_json(site_config))
  File "/home/frappe/frappe-bench/apps/frappe/frappe/__init__.py", line 896, in get_file_json
    return json.load(f)
  File "/usr/lib/python2.7/json/__init__.py", line 290, in load
    **kw)
  File "/usr/lib/python2.7/json/__init__.py", line 338, in loads
    return _default_decoder.decode(s)
  File "/usr/lib/python2.7/json/decoder.py", line 366, in decode
    obj, end = self.raw_decode(s, idx=_w(s, 0).end())
  File "/usr/lib/python2.7/json/decoder.py", line 384, in raw_decode
    raise ValueError("No JSON object could be decoded")
ValueError: No JSON object could be decoded

[ERROR] 2018-06-13 19:18:17,023 | /home/frappe/frappe-bench/apps/frappe/frappe/utils/scheduler.py:
Site: site1.local
Exception in Enqueue Events for Site site1.local
Traceback (most recent call last):
  File "/home/frappe/frappe-bench/apps/frappe/frappe/utils/scheduler.py", line 80, in enqueue_events_for_site
    frappe.init(site=site)
  File "/home/frappe/frappe-bench/apps/frappe/frappe/__init__.py", line 135, in init
    local.conf = _dict(get_site_config())
  File "/home/frappe/frappe-bench/apps/frappe/frappe/__init__.py", line 189, in get_site_config
    config.update(get_file_json(site_config))
  File "/home/frappe/frappe-bench/apps/frappe/frappe/__init__.py", line 896, in get_file_json
    return json.load(f)
  File "/usr/lib/python2.7/json/__init__.py", line 290, in load
    **kw)
  File "/usr/lib/python2.7/json/__init__.py", line 338, in loads
    return _default_decoder.decode(s)
  File "/usr/lib/python2.7/json/decoder.py", line 366, in decode
    obj, end = self.raw_decode(s, idx=_w(s, 0).end())
  File "/usr/lib/python2.7/json/decoder.py", line 384, in raw_decode
    raise ValueError("No JSON object could be decoded")
ValueError: No JSON object could be decoded

[ERROR] 2018-06-13 19:19:17,080 | /home/frappe/frappe-bench/apps/frappe/frappe/utils/scheduler.py:
Site: site1.local
Exception in Enqueue Events for Site site1.local
Traceback (most recent call last):
  File "/home/frappe/frappe-bench/apps/frappe/frappe/utils/scheduler.py", line 80, in enqueue_events_for_site
    frappe.init(site=site)
  File "/home/frappe/frappe-bench/apps/frappe/frappe/__init__.py", line 135, in init
    local.conf = _dict(get_site_config())
  File "/home/frappe/frappe-bench/apps/frappe/frappe/__init__.py", line 189, in get_site_config
    config.update(get_file_json(site_config))
  File "/home/frappe/frappe-bench/apps/frappe/frappe/__init__.py", line 896, in get_file_json
    return json.load(f)
  File "/usr/lib/python2.7/json/__init__.py", line 290, in load
    **kw)
  File "/usr/lib/python2.7/json/__init__.py", line 338, in loads
    return _default_decoder.decode(s)
  File "/usr/lib/python2.7/json/decoder.py", line 366, in decode
    obj, end = self.raw_decode(s, idx=_w(s, 0).end())
  File "/usr/lib/python2.7/json/decoder.py", line 384, in raw_decode
    raise ValueError("No JSON object could be decoded")
ValueError: No JSON object could be decoded

[ERROR] 2018-06-13 19:20:17,141 | /home/frappe/frappe-bench/apps/frappe/frappe/utils/scheduler.py:
Site: site1.local
Exception in Enqueue Events for Site site1.local
Traceback (most recent call last):
  File "/home/frappe/frappe-bench/apps/frappe/frappe/utils/scheduler.py", line 80, in enqueue_events_for_site
    frappe.init(site=site)
  File "/home/frappe/frappe-bench/apps/frappe/frappe/__init__.py", line 135, in init
    local.conf = _dict(get_site_config())
  File "/home/frappe/frappe-bench/apps/frappe/frappe/__init__.py", line 189, in get_site_config
    config.update(get_file_json(site_config))
  File "/home/frappe/frappe-bench/apps/frappe/frappe/__init__.py", line 896, in get_file_json
    return json.load(f)
  File "/usr/lib/python2.7/json/__init__.py", line 290, in load
    **kw)
  File "/usr/lib/python2.7/json/__init__.py", line 338, in loads
    return _default_decoder.decode(s)
  File "/usr/lib/python2.7/json/decoder.py", line 366, in decode
    obj, end = self.raw_decode(s, idx=_w(s, 0).end())
  File "/usr/lib/python2.7/json/decoder.py", line 384, in raw_decode
    raise ValueError("No JSON object could be decoded")
ValueError: No JSON object could be decoded

[ERROR] 2018-06-13 19:21:17,200 | /home/frappe/frappe-bench/apps/frappe/frappe/utils/scheduler.py:
Site: site1.local
Exception in Enqueue Events for Site site1.local
Traceback (most recent call last):
  File "/home/frappe/frappe-bench/apps/frappe/frappe/utils/scheduler.py", line 80, in enqueue_events_for_site
    frappe.init(site=site)
  File "/home/frappe/frappe-bench/apps/frappe/frappe/__init__.py", line 135, in init
    local.conf = _dict(get_site_config())
  File "/home/frappe/frappe-bench/apps/frappe/frappe/__init__.py", line 189, in get_site_config
    config.update(get_file_json(site_config))
  File "/home/frappe/frappe-bench/apps/frappe/frappe/__init__.py", line 896, in get_file_json
    return json.load(f)
  File "/usr/lib/python2.7/json/__init__.py", line 290, in load
    **kw)
  File "/usr/lib/python2.7/json/__init__.py", line 338, in loads
    return _default_decoder.decode(s)
  File "/usr/lib/python2.7/json/decoder.py", line 366, in decode
    obj, end = self.raw_decode(s, idx=_w(s, 0).end())
  File "/usr/lib/python2.7/json/decoder.py", line 384, in raw_decode
    raise ValueError("No JSON object could be decoded")
ValueError: No JSON object could be decoded

[ERROR] 2018-06-13 19:22:17,253 | /home/frappe/frappe-bench/apps/frappe/frappe/utils/scheduler.py:
Site: site1.local
Exception in Enqueue Events for Site site1.local
Traceback (most recent call last):
  File "/home/frappe/frappe-bench/apps/frappe/frappe/utils/scheduler.py", line 80, in enqueue_events_for_site
    frappe.init(site=site)
  File "/home/frappe/frappe-bench/apps/frappe/frappe/__init__.py", line 135, in init
    local.conf = _dict(get_site_config())
  File "/home/frappe/frappe-bench/apps/frappe/frappe/__init__.py", line 189, in get_site_config
    config.update(get_file_json(site_config))
  File "/home/frappe/frappe-bench/apps/frappe/frappe/__init__.py", line 896, in get_file_json
    return json.load(f)
  File "/usr/lib/python2.7/json/__init__.py", line 290, in load
    **kw)
  File "/usr/lib/python2.7/json/__init__.py", line 338, in loads
    return _default_decoder.decode(s)
  File "/usr/lib/python2.7/json/decoder.py", line 366, in decode
    obj, end = self.raw_decode(s, idx=_w(s, 0).end())
  File "/usr/lib/python2.7/json/decoder.py", line 384, in raw_decode
    raise ValueError("No JSON object could be decoded")
ValueError: No JSON object could be decoded

[ERROR] 2018-06-13 19:23:17,309 | /home/frappe/frappe-bench/apps/frappe/frappe/utils/scheduler.py:
Site: site1.local
Exception in Enqueue Events for Site site1.local
Traceback (most recent call last):
  File "/home/frappe/frappe-bench/apps/frappe/frappe/utils/scheduler.py", line 80, in enqueue_events_for_site
    frappe.init(site=site)
  File "/home/frappe/frappe-bench/apps/frappe/frappe/__init__.py", line 135, in init
    local.conf = _dict(get_site_config())
  File "/home/frappe/frappe-bench/apps/frappe/frappe/__init__.py", line 189, in get_site_config
    config.update(get_file_json(site_config))
  File "/home/frappe/frappe-bench/apps/frappe/frappe/__init__.py", line 896, in get_file_json
    return json.load(f)
  File "/usr/lib/python2.7/json/__init__.py", line 290, in load
    **kw)
  File "/usr/lib/python2.7/json/__init__.py", line 338, in loads
    return _default_decoder.decode(s)
  File "/usr/lib/python2.7/json/decoder.py", line 366, in decode
    obj, end = self.raw_decode(s, idx=_w(s, 0).end())
  File "/usr/lib/python2.7/json/decoder.py", line 384, in raw_decode
    raise ValueError("No JSON object could be decoded")
ValueError: No JSON object could be decoded

[ERROR] 2018-06-13 19:24:17,368 | /home/frappe/frappe-bench/apps/frappe/frappe/utils/scheduler.py:
Site: site1.local
Exception in Enqueue Events for Site site1.local
Traceback (most recent call last):
  File "/home/frappe/frappe-bench/apps/frappe/frappe/utils/scheduler.py", line 80, in enqueue_events_for_site
    frappe.init(site=site)
  File "/home/frappe/frappe-bench/apps/frappe/frappe/__init__.py", line 135, in init
    local.conf = _dict(get_site_config())
  File "/home/frappe/frappe-bench/apps/frappe/frappe/__init__.py", line 189, in get_site_config
    config.update(get_file_json(site_config))
  File "/home/frappe/frappe-bench/apps/frappe/frappe/__init__.py", line 896, in get_file_json
    return json.load(f)
  File "/usr/lib/python2.7/json/__init__.py", line 290, in load
    **kw)
  File "/usr/lib/python2.7/json/__init__.py", line 338, in loads
    return _default_decoder.decode(s)
  File "/usr/lib/python2.7/json/decoder.py", line 366, in decode
    obj, end = self.raw_decode(s, idx=_w(s, 0).end())
  File "/usr/lib/python2.7/json/decoder.py", line 384, in raw_decode
    raise ValueError("No JSON object could be decoded")
ValueError: No JSON object could be decoded

[ERROR] 2018-06-13 19:25:17,423 | /home/frappe/frappe-bench/apps/frappe/frappe/utils/scheduler.py:
Site: site1.local
Exception in Enqueue Events for Site site1.local
Traceback (most recent call last):
  File "/home/frappe/frappe-bench/apps/frappe/frappe/utils/scheduler.py", line 80, in enqueue_events_for_site
    frappe.init(site=site)
  File "/home/frappe/frappe-bench/apps/frappe/frappe/__init__.py", line 135, in init
    local.conf = _dict(get_site_config())
  File "/home/frappe/frappe-bench/apps/frappe/frappe/__init__.py", line 189, in get_site_config
    config.update(get_file_json(site_config))
  File "/home/frappe/frappe-bench/apps/frappe/frappe/__init__.py", line 896, in get_file_json
    return json.load(f)
  File "/usr/lib/python2.7/json/__init__.py", line 290, in load
    **kw)
  File "/usr/lib/python2.7/json/__init__.py", line 338, in loads
    return _default_decoder.decode(s)
  File "/usr/lib/python2.7/json/decoder.py", line 366, in decode
    obj, end = self.raw_decode(s, idx=_w(s, 0).end())
  File "/usr/lib/python2.7/json/decoder.py", line 384, in raw_decode
    raise ValueError("No JSON object could be decoded")
ValueError: No JSON object could be decoded

[ERROR] 2018-06-13 19:26:17,482 | /home/frappe/frappe-bench/apps/frappe/frappe/utils/scheduler.py:
Site: site1.local
Exception in Enqueue Events for Site site1.local
Traceback (most recent call last):
  File "/home/frappe/frappe-bench/apps/frappe/frappe/utils/scheduler.py", line 80, in enqueue_events_for_site
    frappe.init(site=site)
  File "/home/frappe/frappe-bench/apps/frappe/frappe/__init__.py", line 135, in init
    local.conf = _dict(get_site_config())
  File "/home/frappe/frappe-bench/apps/frappe/frappe/__init__.py", line 189, in get_site_config
    config.update(get_file_json(site_config))
  File "/home/frappe/frappe-bench/apps/frappe/frappe/__init__.py", line 896, in get_file_json
    return json.load(f)
  File "/usr/lib/python2.7/json/__init__.py", line 290, in load
    **kw)
  File "/usr/lib/python2.7/json/__init__.py", line 338, in loads
    return _default_decoder.decode(s)
  File "/usr/lib/python2.7/json/decoder.py", line 366, in decode
    obj, end = self.raw_decode(s, idx=_w(s, 0).end())
  File "/usr/lib/python2.7/json/decoder.py", line 384, in raw_decode
    raise ValueError("No JSON object could be decoded")
ValueError: No JSON object could be decoded

[ERROR] 2018-06-13 19:27:17,547 | /home/frappe/frappe-bench/apps/frappe/frappe/utils/scheduler.py:
Site: site1.local
Exception in Enqueue Events for Site site1.local
Traceback (most recent call last):
  File "/home/frappe/frappe-bench/apps/frappe/frappe/utils/scheduler.py", line 80, in enqueue_events_for_site
    frappe.init(site=site)
  File "/home/frappe/frappe-bench/apps/frappe/frappe/__init__.py", line 135, in init
    local.conf = _dict(get_site_config())
  File "/home/frappe/frappe-bench/apps/frappe/frappe/__init__.py", line 189, in get_site_config
    config.update(get_file_json(site_config))
  File "/home/frappe/frappe-bench/apps/frappe/frappe/__init__.py", line 896, in get_file_json
    return json.load(f)
  File "/usr/lib/python2.7/json/__init__.py", line 290, in load
    **kw)
  File "/usr/lib/python2.7/json/__init__.py", line 338, in loads
    return _default_decoder.decode(s)
  File "/usr/lib/python2.7/json/decoder.py", line 366, in decode
    obj, end = self.raw_decode(s, idx=_w(s, 0).end())
  File "/usr/lib/python2.7/json/decoder.py", line 384, in raw_decode
    raise ValueError("No JSON object could be decoded")
ValueError: No JSON object could be decoded

[ERROR] 2018-06-13 19:28:17,601 | /home/frappe/frappe-bench/apps/frappe/frappe/utils/scheduler.py:
Site: site1.local
Exception in Enqueue Events for Site site1.local
Traceback (most recent call last):
  File "/home/frappe/frappe-bench/apps/frappe/frappe/utils/scheduler.py", line 80, in enqueue_events_for_site
    frappe.init(site=site)
  File "/home/frappe/frappe-bench/apps/frappe/frappe/__init__.py", line 135, in init
    local.conf = _dict(get_site_config())
  File "/home/frappe/frappe-bench/apps/frappe/frappe/__init__.py", line 189, in get_site_config
    config.update(get_file_json(site_config))
  File "/home/frappe/frappe-bench/apps/frappe/frappe/__init__.py", line 896, in get_file_json
    return json.load(f)
  File "/usr/lib/python2.7/json/__init__.py", line 290, in load
    **kw)
  File "/usr/lib/python2.7/json/__init__.py", line 338, in loads
    return _default_decoder.decode(s)
  File "/usr/lib/python2.7/json/decoder.py", line 366, in decode
    obj, end = self.raw_decode(s, idx=_w(s, 0).end())
  File "/usr/lib/python2.7/json/decoder.py", line 384, in raw_decode
    raise ValueError("No JSON object could be decoded")
ValueError: No JSON object could be decoded

[ERROR] 2018-06-13 19:29:17,662 | /home/frappe/frappe-bench/apps/frappe/frappe/utils/scheduler.py:
Site: site1.local
Exception in Enqueue Events for Site site1.local
Traceback (most recent call last):
  File "/home/frappe/frappe-bench/apps/frappe/frappe/utils/scheduler.py", line 80, in enqueue_events_for_site
    frappe.init(site=site)
  File "/home/frappe/frappe-bench/apps/frappe/frappe/__init__.py", line 135, in init
    local.conf = _dict(get_site_config())
  File "/home/frappe/frappe-bench/apps/frappe/frappe/__init__.py", line 189, in get_site_config
    config.update(get_file_json(site_config))
  File "/home/frappe/frappe-bench/apps/frappe/frappe/__init__.py", line 896, in get_file_json
    return json.load(f)
  File "/usr/lib/python2.7/json/__init__.py", line 290, in load
    **kw)
  File "/usr/lib/python2.7/json/__init__.py", line 338, in loads
    return _default_decoder.decode(s)
  File "/usr/lib/python2.7/json/decoder.py", line 366, in decode
    obj, end = self.raw_decode(s, idx=_w(s, 0).end())
  File "/usr/lib/python2.7/json/decoder.py", line 384, in raw_decode
    raise ValueError("No JSON object could be decoded")
ValueError: No JSON object could be decoded

[ERROR] 2018-06-13 19:30:17,723 | /home/frappe/frappe-bench/apps/frappe/frappe/utils/scheduler.py:
Site: site1.local
Exception in Enqueue Events for Site site1.local
Traceback (most recent call last):
  File "/home/frappe/frappe-bench/apps/frappe/frappe/utils/scheduler.py", line 80, in enqueue_events_for_site
    frappe.init(site=site)
  File "/home/frappe/frappe-bench/apps/frappe/frappe/__init__.py", line 135, in init
    local.conf = _dict(get_site_config())
  File "/home/frappe/frappe-bench/apps/frappe/frappe/__init__.py", line 189, in get_site_config
    config.update(get_file_json(site_config))
  File "/home/frappe/frappe-bench/apps/frappe/frappe/__init__.py", line 896, in get_file_json
    return json.load(f)
  File "/usr/lib/python2.7/json/__init__.py", line 290, in load
    **kw)
  File "/usr/lib/python2.7/json/__init__.py", line 338, in loads
    return _default_decoder.decode(s)
  File "/usr/lib/python2.7/json/decoder.py", line 366, in decode
    obj, end = self.raw_decode(s, idx=_w(s, 0).end())
  File "/usr/lib/python2.7/json/decoder.py", line 384, in raw_decode
    raise ValueError("No JSON object could be decoded")
ValueError: No JSON object could be decoded

[ERROR] 2018-06-13 19:31:17,785 | /home/frappe/frappe-bench/apps/frappe/frappe/utils/scheduler.py:
Site: site1.local
Exception in Enqueue Events for Site site1.local
Traceback (most recent call last):
  File "/home/frappe/frappe-bench/apps/frappe/frappe/utils/scheduler.py", line 80, in enqueue_events_for_site
    frappe.init(site=site)
  File "/home/frappe/frappe-bench/apps/frappe/frappe/__init__.py", line 135, in init
    local.conf = _dict(get_site_config())
  File "/home/frappe/frappe-bench/apps/frappe/frappe/__init__.py", line 189, in get_site_config
    config.update(get_file_json(site_config))
  File "/home/frappe/frappe-bench/apps/frappe/frappe/__init__.py", line 896, in get_file_json
    return json.load(f)
  File "/usr/lib/python2.7/json/__init__.py", line 290, in load
    **kw)
  File "/usr/lib/python2.7/json/__init__.py", line 338, in loads
    return _default_decoder.decode(s)
  File "/usr/lib/python2.7/json/decoder.py", line 366, in decode
    obj, end = self.raw_decode(s, idx=_w(s, 0).end())
  File "/usr/lib/python2.7/json/decoder.py", line 384, in raw_decode
    raise ValueError("No JSON object could be decoded")
ValueError: No JSON object could be decoded

[ERROR] 2018-06-13 19:32:17,840 | /home/frappe/frappe-bench/apps/frappe/frappe/utils/scheduler.py:
Site: site1.local
Exception in Enqueue Events for Site site1.local
Traceback (most recent call last):
  File "/home/frappe/frappe-bench/apps/frappe/frappe/utils/scheduler.py", line 80, in enqueue_events_for_site
    frappe.init(site=site)
  File "/home/frappe/frappe-bench/apps/frappe/frappe/__init__.py", line 135, in init
    local.conf = _dict(get_site_config())
  File "/home/frappe/frappe-bench/apps/frappe/frappe/__init__.py", line 189, in get_site_config
    config.update(get_file_json(site_config))
  File "/home/frappe/frappe-bench/apps/frappe/frappe/__init__.py", line 896, in get_file_json
    return json.load(f)
  File "/usr/lib/python2.7/json/__init__.py", line 290, in load
    **kw)
  File "/usr/lib/python2.7/json/__init__.py", line 338, in loads
    return _default_decoder.decode(s)
  File "/usr/lib/python2.7/json/decoder.py", line 366, in decode
    obj, end = self.raw_decode(s, idx=_w(s, 0).end())
  File "/usr/lib/python2.7/json/decoder.py", line 384, in raw_decode
    raise ValueError("No JSON object could be decoded")
ValueError: No JSON object could be decoded

[ERROR] 2018-06-13 19:33:17,896 | /home/frappe/frappe-bench/apps/frappe/frappe/utils/scheduler.py:
Site: site1.local
Exception in Enqueue Events for Site site1.local
Traceback (most recent call last):
  File "/home/frappe/frappe-bench/apps/frappe/frappe/utils/scheduler.py", line 80, in enqueue_events_for_site
    frappe.init(site=site)
  File "/home/frappe/frappe-bench/apps/frappe/frappe/__init__.py", line 135, in init
    local.conf = _dict(get_site_config())
  File "/home/frappe/frappe-bench/apps/frappe/frappe/__init__.py", line 189, in get_site_config
    config.update(get_file_json(site_config))
  File "/home/frappe/frappe-bench/apps/frappe/frappe/__init__.py", line 896, in get_file_json
    return json.load(f)
  File "/usr/lib/python2.7/json/__init__.py", line 290, in load
    **kw)
  File "/usr/lib/python2.7/json/__init__.py", line 338, in loads
    return _default_decoder.decode(s)
  File "/usr/lib/python2.7/json/decoder.py", line 366, in decode
    obj, end = self.raw_decode(s, idx=_w(s, 0).end())
  File "/usr/lib/python2.7/json/decoder.py", line 384, in raw_decode
    raise ValueError("No JSON object could be decoded")
ValueError: No JSON object could be decoded

[ERROR] 2018-06-13 19:34:17,956 | /home/frappe/frappe-bench/apps/frappe/frappe/utils/scheduler.py:
Site: site1.local
Exception in Enqueue Events for Site site1.local
Traceback (most recent call last):
  File "/home/frappe/frappe-bench/apps/frappe/frappe/utils/scheduler.py", line 80, in enqueue_events_for_site
    frappe.init(site=site)
  File "/home/frappe/frappe-bench/apps/frappe/frappe/__init__.py", line 135, in init
    local.conf = _dict(get_site_config())
  File "/home/frappe/frappe-bench/apps/frappe/frappe/__init__.py", line 189, in get_site_config
    config.update(get_file_json(site_config))
  File "/home/frappe/frappe-bench/apps/frappe/frappe/__init__.py", line 896, in get_file_json
    return json.load(f)
  File "/usr/lib/python2.7/json/__init__.py", line 290, in load
    **kw)
  File "/usr/lib/python2.7/json/__init__.py", line 338, in loads
    return _default_decoder.decode(s)
  File "/usr/lib/python2.7/json/decoder.py", line 366, in decode
    obj, end = self.raw_decode(s, idx=_w(s, 0).end())
  File "/usr/lib/python2.7/json/decoder.py", line 384, in raw_decode
    raise ValueError("No JSON object could be decoded")
ValueError: No JSON object could be decoded

[ERROR] 2018-06-13 19:35:18,012 | /home/frappe/frappe-bench/apps/frappe/frappe/utils/scheduler.py:
Site: site1.local
Exception in Enqueue Events for Site site1.local
Traceback (most recent call last):
  File "/home/frappe/frappe-bench/apps/frappe/frappe/utils/scheduler.py", line 80, in enqueue_events_for_site
    frappe.init(site=site)
  File "/home/frappe/frappe-bench/apps/frappe/frappe/__init__.py", line 135, in init
    local.conf = _dict(get_site_config())
  File "/home/frappe/frappe-bench/apps/frappe/frappe/__init__.py", line 189, in get_site_config
    config.update(get_file_json(site_config))
  File "/home/frappe/frappe-bench/apps/frappe/frappe/__init__.py", line 896, in get_file_json
    return json.load(f)
  File "/usr/lib/python2.7/json/__init__.py", line 290, in load
    **kw)
  File "/usr/lib/python2.7/json/__init__.py", line 338, in loads
    return _default_decoder.decode(s)
  File "/usr/lib/python2.7/json/decoder.py", line 366, in decode
    obj, end = self.raw_decode(s, idx=_w(s, 0).end())
  File "/usr/lib/python2.7/json/decoder.py", line 384, in raw_decode
    raise ValueError("No JSON object could be decoded")
ValueError: No JSON object could be decoded

[ERROR] 2018-06-13 19:36:18,072 | /home/frappe/frappe-bench/apps/frappe/frappe/utils/scheduler.py:
Site: site1.local
Exception in Enqueue Events for Site site1.local
Traceback (most recent call last):
  File "/home/frappe/frappe-bench/apps/frappe/frappe/utils/scheduler.py", line 80, in enqueue_events_for_site
    frappe.init(site=site)
  File "/home/frappe/frappe-bench/apps/frappe/frappe/__init__.py", line 135, in init
    local.conf = _dict(get_site_config())
  File "/home/frappe/frappe-bench/apps/frappe/frappe/__init__.py", line 189, in get_site_config
    config.update(get_file_json(site_config))
  File "/home/frappe/frappe-bench/apps/frappe/frappe/__init__.py", line 896, in get_file_json
    return json.load(f)
  File "/usr/lib/python2.7/json/__init__.py", line 290, in load
    **kw)
  File "/usr/lib/python2.7/json/__init__.py", line 338, in loads
    return _default_decoder.decode(s)
  File "/usr/lib/python2.7/json/decoder.py", line 366, in decode
    obj, end = self.raw_decode(s, idx=_w(s, 0).end())
  File "/usr/lib/python2.7/json/decoder.py", line 384, in raw_decode
    raise ValueError("No JSON object could be decoded")
ValueError: No JSON object could be decoded

[ERROR] 2018-06-13 19:37:18,137 | /home/frappe/frappe-bench/apps/frappe/frappe/utils/scheduler.py:
Site: site1.local
Exception in Enqueue Events for Site site1.local
Traceback (most recent call last):
  File "/home/frappe/frappe-bench/apps/frappe/frappe/utils/scheduler.py", line 80, in enqueue_events_for_site
    frappe.init(site=site)
  File "/home/frappe/frappe-bench/apps/frappe/frappe/__init__.py", line 135, in init
    local.conf = _dict(get_site_config())
  File "/home/frappe/frappe-bench/apps/frappe/frappe/__init__.py", line 189, in get_site_config
    config.update(get_file_json(site_config))
  File "/home/frappe/frappe-bench/apps/frappe/frappe/__init__.py", line 896, in get_file_json
    return json.load(f)
  File "/usr/lib/python2.7/json/__init__.py", line 290, in load
    **kw)
  File "/usr/lib/python2.7/json/__init__.py", line 338, in loads
    return _default_decoder.decode(s)
  File "/usr/lib/python2.7/json/decoder.py", line 366, in decode
    obj, end = self.raw_decode(s, idx=_w(s, 0).end())
  File "/usr/lib/python2.7/json/decoder.py", line 384, in raw_decode
    raise ValueError("No JSON object could be decoded")
ValueError: No JSON object could be decoded

[ERROR] 2018-06-13 19:38:18,195 | /home/frappe/frappe-bench/apps/frappe/frappe/utils/scheduler.py:
Site: site1.local
Exception in Enqueue Events for Site site1.local
Traceback (most recent call last):
  File "/home/frappe/frappe-bench/apps/frappe/frappe/utils/scheduler.py", line 80, in enqueue_events_for_site
    frappe.init(site=site)
  File "/home/frappe/frappe-bench/apps/frappe/frappe/__init__.py", line 135, in init
    local.conf = _dict(get_site_config())
  File "/home/frappe/frappe-bench/apps/frappe/frappe/__init__.py", line 189, in get_site_config
    config.update(get_file_json(site_config))
  File "/home/frappe/frappe-bench/apps/frappe/frappe/__init__.py", line 896, in get_file_json
    return json.load(f)
  File "/usr/lib/python2.7/json/__init__.py", line 290, in load
    **kw)
  File "/usr/lib/python2.7/json/__init__.py", line 338, in loads
    return _default_decoder.decode(s)
  File "/usr/lib/python2.7/json/decoder.py", line 366, in decode
    obj, end = self.raw_decode(s, idx=_w(s, 0).end())
  File "/usr/lib/python2.7/json/decoder.py", line 384, in raw_decode
    raise ValueError("No JSON object could be decoded")
ValueError: No JSON object could be decoded

[ERROR] 2018-06-13 19:39:18,251 | /home/frappe/frappe-bench/apps/frappe/frappe/utils/scheduler.py:
Site: site1.local
Exception in Enqueue Events for Site site1.local
Traceback (most recent call last):
  File "/home/frappe/frappe-bench/apps/frappe/frappe/utils/scheduler.py", line 80, in enqueue_events_for_site
    frappe.init(site=site)
  File "/home/frappe/frappe-bench/apps/frappe/frappe/__init__.py", line 135, in init
    local.conf = _dict(get_site_config())
  File "/home/frappe/frappe-bench/apps/frappe/frappe/__init__.py", line 189, in get_site_config
    config.update(get_file_json(site_config))
  File "/home/frappe/frappe-bench/apps/frappe/frappe/__init__.py", line 896, in get_file_json
    return json.load(f)
  File "/usr/lib/python2.7/json/__init__.py", line 290, in load
    **kw)
  File "/usr/lib/python2.7/json/__init__.py", line 338, in loads
    return _default_decoder.decode(s)
  File "/usr/lib/python2.7/json/decoder.py", line 366, in decode
    obj, end = self.raw_decode(s, idx=_w(s, 0).end())
  File "/usr/lib/python2.7/json/decoder.py", line 384, in raw_decode
    raise ValueError("No JSON object could be decoded")
ValueError: No JSON object could be decoded

[ERROR] 2018-06-13 19:40:18,311 | /home/frappe/frappe-bench/apps/frappe/frappe/utils/scheduler.py:
Site: site1.local
Exception in Enqueue Events for Site site1.local
Traceback (most recent call last):
  File "/home/frappe/frappe-bench/apps/frappe/frappe/utils/scheduler.py", line 80, in enqueue_events_for_site
    frappe.init(site=site)
  File "/home/frappe/frappe-bench/apps/frappe/frappe/__init__.py", line 135, in init
    local.conf = _dict(get_site_config())
  File "/home/frappe/frappe-bench/apps/frappe/frappe/__init__.py", line 189, in get_site_config
    config.update(get_file_json(site_config))
  File "/home/frappe/frappe-bench/apps/frappe/frappe/__init__.py", line 896, in get_file_json
    return json.load(f)
  File "/usr/lib/python2.7/json/__init__.py", line 290, in load
    **kw)
  File "/usr/lib/python2.7/json/__init__.py", line 338, in loads
    return _default_decoder.decode(s)
  File "/usr/lib/python2.7/json/decoder.py", line 366, in decode
    obj, end = self.raw_decode(s, idx=_w(s, 0).end())
  File "/usr/lib/python2.7/json/decoder.py", line 384, in raw_decode
    raise ValueError("No JSON object could be decoded")
ValueError: No JSON object could be decoded

[ERROR] 2018-06-13 19:41:18,371 | /home/frappe/frappe-bench/apps/frappe/frappe/utils/scheduler.py:
Site: site1.local
Exception in Enqueue Events for Site site1.local
Traceback (most recent call last):
  File "/home/frappe/frappe-bench/apps/frappe/frappe/utils/scheduler.py", line 80, in enqueue_events_for_site
    frappe.init(site=site)
  File "/home/frappe/frappe-bench/apps/frappe/frappe/__init__.py", line 135, in init
    local.conf = _dict(get_site_config())
  File "/home/frappe/frappe-bench/apps/frappe/frappe/__init__.py", line 189, in get_site_config
    config.update(get_file_json(site_config))
  File "/home/frappe/frappe-bench/apps/frappe/frappe/__init__.py", line 896, in get_file_json
    return json.load(f)
  File "/usr/lib/python2.7/json/__init__.py", line 290, in load
    **kw)
  File "/usr/lib/python2.7/json/__init__.py", line 338, in loads
    return _default_decoder.decode(s)
  File "/usr/lib/python2.7/json/decoder.py", line 366, in decode
    obj, end = self.raw_decode(s, idx=_w(s, 0).end())
  File "/usr/lib/python2.7/json/decoder.py", line 384, in raw_decode
    raise ValueError("No JSON object could be decoded")
ValueError: No JSON object could be decoded

[ERROR] 2018-06-13 19:42:18,434 | /home/frappe/frappe-bench/apps/frappe/frappe/utils/scheduler.py:
Site: site1.local
Exception in Enqueue Events for Site site1.local
Traceback (most recent call last):
  File "/home/frappe/frappe-bench/apps/frappe/frappe/utils/scheduler.py", line 80, in enqueue_events_for_site
    frappe.init(site=site)
  File "/home/frappe/frappe-bench/apps/frappe/frappe/__init__.py", line 135, in init
    local.conf = _dict(get_site_config())
  File "/home/frappe/frappe-bench/apps/frappe/frappe/__init__.py", line 189, in get_site_config
    config.update(get_file_json(site_config))
  File "/home/frappe/frappe-bench/apps/frappe/frappe/__init__.py", line 896, in get_file_json
    return json.load(f)
  File "/usr/lib/python2.7/json/__init__.py", line 290, in load
    **kw)
  File "/usr/lib/python2.7/json/__init__.py", line 338, in loads
    return _default_decoder.decode(s)
  File "/usr/lib/python2.7/json/decoder.py", line 366, in decode
    obj, end = self.raw_decode(s, idx=_w(s, 0).end())
  File "/usr/lib/python2.7/json/decoder.py", line 384, in raw_decode
    raise ValueError("No JSON object could be decoded")
ValueError: No JSON object could be decoded

[ERROR] 2018-06-13 19:43:18,489 | /home/frappe/frappe-bench/apps/frappe/frappe/utils/scheduler.py:
Site: site1.local
Exception in Enqueue Events for Site site1.local
Traceback (most recent call last):
  File "/home/frappe/frappe-bench/apps/frappe/frappe/utils/scheduler.py", line 80, in enqueue_events_for_site
    frappe.init(site=site)
  File "/home/frappe/frappe-bench/apps/frappe/frappe/__init__.py", line 135, in init
    local.conf = _dict(get_site_config())
  File "/home/frappe/frappe-bench/apps/frappe/frappe/__init__.py", line 189, in get_site_config
    config.update(get_file_json(site_config))
  File "/home/frappe/frappe-bench/apps/frappe/frappe/__init__.py", line 896, in get_file_json
    return json.load(f)
  File "/usr/lib/python2.7/json/__init__.py", line 290, in load
    **kw)
  File "/usr/lib/python2.7/json/__init__.py", line 338, in loads
    return _default_decoder.decode(s)
  File "/usr/lib/python2.7/json/decoder.py", line 366, in decode
    obj, end = self.raw_decode(s, idx=_w(s, 0).end())
  File "/usr/lib/python2.7/json/decoder.py", line 384, in raw_decode
    raise ValueError("No JSON object could be decoded")
ValueError: No JSON object could be decoded

[ERROR] 2018-06-13 19:44:18,550 | /home/frappe/frappe-bench/apps/frappe/frappe/utils/scheduler.py:
Site: site1.local
Exception in Enqueue Events for Site site1.local
Traceback (most recent call last):
  File "/home/frappe/frappe-bench/apps/frappe/frappe/utils/scheduler.py", line 80, in enqueue_events_for_site
    frappe.init(site=site)
  File "/home/frappe/frappe-bench/apps/frappe/frappe/__init__.py", line 135, in init
    local.conf = _dict(get_site_config())
  File "/home/frappe/frappe-bench/apps/frappe/frappe/__init__.py", line 189, in get_site_config
    config.update(get_file_json(site_config))
  File "/home/frappe/frappe-bench/apps/frappe/frappe/__init__.py", line 896, in get_file_json
    return json.load(f)
  File "/usr/lib/python2.7/json/__init__.py", line 290, in load
    **kw)
  File "/usr/lib/python2.7/json/__init__.py", line 338, in loads
    return _default_decoder.decode(s)
  File "/usr/lib/python2.7/json/decoder.py", line 366, in decode
    obj, end = self.raw_decode(s, idx=_w(s, 0).end())
  File "/usr/lib/python2.7/json/decoder.py", line 384, in raw_decode
    raise ValueError("No JSON object could be decoded")
ValueError: No JSON object could be decoded

[ERROR] 2018-06-13 19:45:18,608 | /home/frappe/frappe-bench/apps/frappe/frappe/utils/scheduler.py:
Site: site1.local
Exception in Enqueue Events for Site site1.local
Traceback (most recent call last):
  File "/home/frappe/frappe-bench/apps/frappe/frappe/utils/scheduler.py", line 80, in enqueue_events_for_site
    frappe.init(site=site)
  File "/home/frappe/frappe-bench/apps/frappe/frappe/__init__.py", line 135, in init
    local.conf = _dict(get_site_config())
  File "/home/frappe/frappe-bench/apps/frappe/frappe/__init__.py", line 189, in get_site_config
    config.update(get_file_json(site_config))
  File "/home/frappe/frappe-bench/apps/frappe/frappe/__init__.py", line 896, in get_file_json
    return json.load(f)
  File "/usr/lib/python2.7/json/__init__.py", line 290, in load
    **kw)
  File "/usr/lib/python2.7/json/__init__.py", line 338, in loads
    return _default_decoder.decode(s)
  File "/usr/lib/python2.7/json/decoder.py", line 366, in decode
    obj, end = self.raw_decode(s, idx=_w(s, 0).end())
  File "/usr/lib/python2.7/json/decoder.py", line 384, in raw_decode
    raise ValueError("No JSON object could be decoded")
ValueError: No JSON object could be decoded

[ERROR] 2018-06-13 19:46:18,666 | /home/frappe/frappe-bench/apps/frappe/frappe/utils/scheduler.py:
Site: site1.local
Exception in Enqueue Events for Site site1.local
Traceback (most recent call last):
  File "/home/frappe/frappe-bench/apps/frappe/frappe/utils/scheduler.py", line 80, in enqueue_events_for_site
    frappe.init(site=site)
  File "/home/frappe/frappe-bench/apps/frappe/frappe/__init__.py", line 135, in init
    local.conf = _dict(get_site_config())
  File "/home/frappe/frappe-bench/apps/frappe/frappe/__init__.py", line 189, in get_site_config
    config.update(get_file_json(site_config))
  File "/home/frappe/frappe-bench/apps/frappe/frappe/__init__.py", line 896, in get_file_json
    return json.load(f)
  File "/usr/lib/python2.7/json/__init__.py", line 290, in load
    **kw)
  File "/usr/lib/python2.7/json/__init__.py", line 338, in loads
    return _default_decoder.decode(s)
  File "/usr/lib/python2.7/json/decoder.py", line 366, in decode
    obj, end = self.raw_decode(s, idx=_w(s, 0).end())
  File "/usr/lib/python2.7/json/decoder.py", line 384, in raw_decode
    raise ValueError("No JSON object could be decoded")
ValueError: No JSON object could be decoded

[ERROR] 2018-06-13 19:47:18,727 | /home/frappe/frappe-bench/apps/frappe/frappe/utils/scheduler.py:
Site: site1.local
Exception in Enqueue Events for Site site1.local
Traceback (most recent call last):
  File "/home/frappe/frappe-bench/apps/frappe/frappe/utils/scheduler.py", line 80, in enqueue_events_for_site
    frappe.init(site=site)
  File "/home/frappe/frappe-bench/apps/frappe/frappe/__init__.py", line 135, in init
    local.conf = _dict(get_site_config())
  File "/home/frappe/frappe-bench/apps/frappe/frappe/__init__.py", line 189, in get_site_config
    config.update(get_file_json(site_config))
  File "/home/frappe/frappe-bench/apps/frappe/frappe/__init__.py", line 896, in get_file_json
    return json.load(f)
  File "/usr/lib/python2.7/json/__init__.py", line 290, in load
    **kw)
  File "/usr/lib/python2.7/json/__init__.py", line 338, in loads
    return _default_decoder.decode(s)
  File "/usr/lib/python2.7/json/decoder.py", line 366, in decode
    obj, end = self.raw_decode(s, idx=_w(s, 0).end())
  File "/usr/lib/python2.7/json/decoder.py", line 384, in raw_decode
    raise ValueError("No JSON object could be decoded")
ValueError: No JSON object could be decoded

[ERROR] 2018-06-13 19:48:18,786 | /home/frappe/frappe-bench/apps/frappe/frappe/utils/scheduler.py:
Site: site1.local
Exception in Enqueue Events for Site site1.local
Traceback (most recent call last):
  File "/home/frappe/frappe-bench/apps/frappe/frappe/utils/scheduler.py", line 80, in enqueue_events_for_site
    frappe.init(site=site)
  File "/home/frappe/frappe-bench/apps/frappe/frappe/__init__.py", line 135, in init
    local.conf = _dict(get_site_config())
  File "/home/frappe/frappe-bench/apps/frappe/frappe/__init__.py", line 189, in get_site_config
    config.update(get_file_json(site_config))
  File "/home/frappe/frappe-bench/apps/frappe/frappe/__init__.py", line 896, in get_file_json
    return json.load(f)
  File "/usr/lib/python2.7/json/__init__.py", line 290, in load
    **kw)
  File "/usr/lib/python2.7/json/__init__.py", line 338, in loads
    return _default_decoder.decode(s)
  File "/usr/lib/python2.7/json/decoder.py", line 366, in decode
    obj, end = self.raw_decode(s, idx=_w(s, 0).end())
  File "/usr/lib/python2.7/json/decoder.py", line 384, in raw_decode
    raise ValueError("No JSON object could be decoded")
ValueError: No JSON object could be decoded

[ERROR] 2018-06-13 19:49:18,845 | /home/frappe/frappe-bench/apps/frappe/frappe/utils/scheduler.py:
Site: site1.local
Exception in Enqueue Events for Site site1.local
Traceback (most recent call last):
  File "/home/frappe/frappe-bench/apps/frappe/frappe/utils/scheduler.py", line 80, in enqueue_events_for_site
    frappe.init(site=site)
  File "/home/frappe/frappe-bench/apps/frappe/frappe/__init__.py", line 135, in init
    local.conf = _dict(get_site_config())
  File "/home/frappe/frappe-bench/apps/frappe/frappe/__init__.py", line 189, in get_site_config
    config.update(get_file_json(site_config))
  File "/home/frappe/frappe-bench/apps/frappe/frappe/__init__.py", line 896, in get_file_json
    return json.load(f)
  File "/usr/lib/python2.7/json/__init__.py", line 290, in load
    **kw)
  File "/usr/lib/python2.7/json/__init__.py", line 338, in loads
    return _default_decoder.decode(s)
  File "/usr/lib/python2.7/json/decoder.py", line 366, in decode
    obj, end = self.raw_decode(s, idx=_w(s, 0).end())
  File "/usr/lib/python2.7/json/decoder.py", line 384, in raw_decode
    raise ValueError("No JSON object could be decoded")
ValueError: No JSON object could be decoded

[ERROR] 2018-06-13 19:50:18,907 | /home/frappe/frappe-bench/apps/frappe/frappe/utils/scheduler.py:
Site: site1.local
Exception in Enqueue Events for Site site1.local
Traceback (most recent call last):
  File "/home/frappe/frappe-bench/apps/frappe/frappe/utils/scheduler.py", line 80, in enqueue_events_for_site
    frappe.init(site=site)
  File "/home/frappe/frappe-bench/apps/frappe/frappe/__init__.py", line 135, in init
    local.conf = _dict(get_site_config())
  File "/home/frappe/frappe-bench/apps/frappe/frappe/__init__.py", line 189, in get_site_config
    config.update(get_file_json(site_config))
  File "/home/frappe/frappe-bench/apps/frappe/frappe/__init__.py", line 896, in get_file_json
    return json.load(f)
  File "/usr/lib/python2.7/json/__init__.py", line 290, in load
    **kw)
  File "/usr/lib/python2.7/json/__init__.py", line 338, in loads
    return _default_decoder.decode(s)
  File "/usr/lib/python2.7/json/decoder.py", line 366, in decode
    obj, end = self.raw_decode(s, idx=_w(s, 0).end())
  File "/usr/lib/python2.7/json/decoder.py", line 384, in raw_decode
    raise ValueError("No JSON object could be decoded")
ValueError: No JSON object could be decoded

[ERROR] 2018-06-13 19:51:18,965 | /home/frappe/frappe-bench/apps/frappe/frappe/utils/scheduler.py:
Site: site1.local
Exception in Enqueue Events for Site site1.local
Traceback (most recent call last):
  File "/home/frappe/frappe-bench/apps/frappe/frappe/utils/scheduler.py", line 80, in enqueue_events_for_site
    frappe.init(site=site)
  File "/home/frappe/frappe-bench/apps/frappe/frappe/__init__.py", line 135, in init
    local.conf = _dict(get_site_config())
  File "/home/frappe/frappe-bench/apps/frappe/frappe/__init__.py", line 189, in get_site_config
    config.update(get_file_json(site_config))
  File "/home/frappe/frappe-bench/apps/frappe/frappe/__init__.py", line 896, in get_file_json
    return json.load(f)
  File "/usr/lib/python2.7/json/__init__.py", line 290, in load
    **kw)
  File "/usr/lib/python2.7/json/__init__.py", line 338, in loads
    return _default_decoder.decode(s)
  File "/usr/lib/python2.7/json/decoder.py", line 366, in decode
    obj, end = self.raw_decode(s, idx=_w(s, 0).end())
  File "/usr/lib/python2.7/json/decoder.py", line 384, in raw_decode
    raise ValueError("No JSON object could be decoded")
ValueError: No JSON object could be decoded

[ERROR] 2018-06-13 19:52:19,023 | /home/frappe/frappe-bench/apps/frappe/frappe/utils/scheduler.py:
Site: site1.local
Exception in Enqueue Events for Site site1.local
Traceback (most recent call last):
  File "/home/frappe/frappe-bench/apps/frappe/frappe/utils/scheduler.py", line 80, in enqueue_events_for_site
    frappe.init(site=site)
  File "/home/frappe/frappe-bench/apps/frappe/frappe/__init__.py", line 135, in init
    local.conf = _dict(get_site_config())
  File "/home/frappe/frappe-bench/apps/frappe/frappe/__init__.py", line 189, in get_site_config
    config.update(get_file_json(site_config))
  File "/home/frappe/frappe-bench/apps/frappe/frappe/__init__.py", line 896, in get_file_json
    return json.load(f)
  File "/usr/lib/python2.7/json/__init__.py", line 290, in load
    **kw)
  File "/usr/lib/python2.7/json/__init__.py", line 338, in loads
    return _default_decoder.decode(s)
  File "/usr/lib/python2.7/json/decoder.py", line 366, in decode
    obj, end = self.raw_decode(s, idx=_w(s, 0).end())
  File "/usr/lib/python2.7/json/decoder.py", line 384, in raw_decode
    raise ValueError("No JSON object could be decoded")
ValueError: No JSON object could be decoded

[ERROR] 2018-06-13 19:53:19,081 | /home/frappe/frappe-bench/apps/frappe/frappe/utils/scheduler.py:
Site: site1.local
Exception in Enqueue Events for Site site1.local
Traceback (most recent call last):
  File "/home/frappe/frappe-bench/apps/frappe/frappe/utils/scheduler.py", line 80, in enqueue_events_for_site
    frappe.init(site=site)
  File "/home/frappe/frappe-bench/apps/frappe/frappe/__init__.py", line 135, in init
    local.conf = _dict(get_site_config())
  File "/home/frappe/frappe-bench/apps/frappe/frappe/__init__.py", line 189, in get_site_config
    config.update(get_file_json(site_config))
  File "/home/frappe/frappe-bench/apps/frappe/frappe/__init__.py", line 896, in get_file_json
    return json.load(f)
  File "/usr/lib/python2.7/json/__init__.py", line 290, in load
    **kw)
  File "/usr/lib/python2.7/json/__init__.py", line 338, in loads
    return _default_decoder.decode(s)
  File "/usr/lib/python2.7/json/decoder.py", line 366, in decode
    obj, end = self.raw_decode(s, idx=_w(s, 0).end())
  File "/usr/lib/python2.7/json/decoder.py", line 384, in raw_decode
    raise ValueError("No JSON object could be decoded")
ValueError: No JSON object could be decoded

[ERROR] 2018-06-13 19:54:19,136 | /home/frappe/frappe-bench/apps/frappe/frappe/utils/scheduler.py:
Site: site1.local
Exception in Enqueue Events for Site site1.local
Traceback (most recent call last):
  File "/home/frappe/frappe-bench/apps/frappe/frappe/utils/scheduler.py", line 80, in enqueue_events_for_site
    frappe.init(site=site)
  File "/home/frappe/frappe-bench/apps/frappe/frappe/__init__.py", line 135, in init
    local.conf = _dict(get_site_config())
  File "/home/frappe/frappe-bench/apps/frappe/frappe/__init__.py", line 189, in get_site_config
    config.update(get_file_json(site_config))
  File "/home/frappe/frappe-bench/apps/frappe/frappe/__init__.py", line 896, in get_file_json
    return json.load(f)
  File "/usr/lib/python2.7/json/__init__.py", line 290, in load
    **kw)
  File "/usr/lib/python2.7/json/__init__.py", line 338, in loads
    return _default_decoder.decode(s)
  File "/usr/lib/python2.7/json/decoder.py", line 366, in decode
    obj, end = self.raw_decode(s, idx=_w(s, 0).end())
  File "/usr/lib/python2.7/json/decoder.py", line 384, in raw_decode
    raise ValueError("No JSON object could be decoded")
ValueError: No JSON object could be decoded

[ERROR] 2018-06-13 19:55:19,192 | /home/frappe/frappe-bench/apps/frappe/frappe/utils/scheduler.py:
Site: site1.local
Exception in Enqueue Events for Site site1.local
Traceback (most recent call last):
  File "/home/frappe/frappe-bench/apps/frappe/frappe/utils/scheduler.py", line 80, in enqueue_events_for_site
    frappe.init(site=site)
  File "/home/frappe/frappe-bench/apps/frappe/frappe/__init__.py", line 135, in init
    local.conf = _dict(get_site_config())
  File "/home/frappe/frappe-bench/apps/frappe/frappe/__init__.py", line 189, in get_site_config
    config.update(get_file_json(site_config))
  File "/home/frappe/frappe-bench/apps/frappe/frappe/__init__.py", line 896, in get_file_json
    return json.load(f)
  File "/usr/lib/python2.7/json/__init__.py", line 290, in load
    **kw)
  File "/usr/lib/python2.7/json/__init__.py", line 338, in loads
    return _default_decoder.decode(s)
  File "/usr/lib/python2.7/json/decoder.py", line 366, in decode
    obj, end = self.raw_decode(s, idx=_w(s, 0).end())
  File "/usr/lib/python2.7/json/decoder.py", line 384, in raw_decode
    raise ValueError("No JSON object could be decoded")
ValueError: No JSON object could be decoded

[ERROR] 2018-06-13 19:56:19,244 | /home/frappe/frappe-bench/apps/frappe/frappe/utils/scheduler.py:
Site: site1.local
Exception in Enqueue Events for Site site1.local
Traceback (most recent call last):
  File "/home/frappe/frappe-bench/apps/frappe/frappe/utils/scheduler.py", line 80, in enqueue_events_for_site
    frappe.init(site=site)
  File "/home/frappe/frappe-bench/apps/frappe/frappe/__init__.py", line 135, in init
    local.conf = _dict(get_site_config())
  File "/home/frappe/frappe-bench/apps/frappe/frappe/__init__.py", line 189, in get_site_config
    config.update(get_file_json(site_config))
  File "/home/frappe/frappe-bench/apps/frappe/frappe/__init__.py", line 896, in get_file_json
    return json.load(f)
  File "/usr/lib/python2.7/json/__init__.py", line 290, in load
    **kw)
  File "/usr/lib/python2.7/json/__init__.py", line 338, in loads
    return _default_decoder.decode(s)
  File "/usr/lib/python2.7/json/decoder.py", line 366, in decode
    obj, end = self.raw_decode(s, idx=_w(s, 0).end())
  File "/usr/lib/python2.7/json/decoder.py", line 384, in raw_decode
    raise ValueError("No JSON object could be decoded")
ValueError: No JSON object could be decoded

[ERROR] 2018-06-13 19:57:19,303 | /home/frappe/frappe-bench/apps/frappe/frappe/utils/scheduler.py:
Site: site1.local
Exception in Enqueue Events for Site site1.local
Traceback (most recent call last):
  File "/home/frappe/frappe-bench/apps/frappe/frappe/utils/scheduler.py", line 80, in enqueue_events_for_site
    frappe.init(site=site)
  File "/home/frappe/frappe-bench/apps/frappe/frappe/__init__.py", line 135, in init
    local.conf = _dict(get_site_config())
  File "/home/frappe/frappe-bench/apps/frappe/frappe/__init__.py", line 189, in get_site_config
    config.update(get_file_json(site_config))
  File "/home/frappe/frappe-bench/apps/frappe/frappe/__init__.py", line 896, in get_file_json
    return json.load(f)
  File "/usr/lib/python2.7/json/__init__.py", line 290, in load
    **kw)
  File "/usr/lib/python2.7/json/__init__.py", line 338, in loads
    return _default_decoder.decode(s)
  File "/usr/lib/python2.7/json/decoder.py", line 366, in decode
    obj, end = self.raw_decode(s, idx=_w(s, 0).end())
  File "/usr/lib/python2.7/json/decoder.py", line 384, in raw_decode
    raise ValueError("No JSON object could be decoded")
ValueError: No JSON object could be decoded

[ERROR] 2018-06-13 19:58:19,362 | /home/frappe/frappe-bench/apps/frappe/frappe/utils/scheduler.py:
Site: site1.local
Exception in Enqueue Events for Site site1.local
Traceback (most recent call last):
  File "/home/frappe/frappe-bench/apps/frappe/frappe/utils/scheduler.py", line 80, in enqueue_events_for_site
    frappe.init(site=site)
  File "/home/frappe/frappe-bench/apps/frappe/frappe/__init__.py", line 135, in init
    local.conf = _dict(get_site_config())
  File "/home/frappe/frappe-bench/apps/frappe/frappe/__init__.py", line 189, in get_site_config
    config.update(get_file_json(site_config))
  File "/home/frappe/frappe-bench/apps/frappe/frappe/__init__.py", line 896, in get_file_json
    return json.load(f)
  File "/usr/lib/python2.7/json/__init__.py", line 290, in load
    **kw)
  File "/usr/lib/python2.7/json/__init__.py", line 338, in loads
    return _default_decoder.decode(s)
  File "/usr/lib/python2.7/json/decoder.py", line 366, in decode
    obj, end = self.raw_decode(s, idx=_w(s, 0).end())
  File "/usr/lib/python2.7/json/decoder.py", line 384, in raw_decode
    raise ValueError("No JSON object could be decoded")
ValueError: No JSON object could be decoded

[ERROR] 2018-06-13 19:59:19,413 | /home/frappe/frappe-bench/apps/frappe/frappe/utils/scheduler.py:
Site: site1.local
Exception in Enqueue Events for Site site1.local
Traceback (most recent call last):
  File "/home/frappe/frappe-bench/apps/frappe/frappe/utils/scheduler.py", line 80, in enqueue_events_for_site
    frappe.init(site=site)
  File "/home/frappe/frappe-bench/apps/frappe/frappe/__init__.py", line 135, in init
    local.conf = _dict(get_site_config())
  File "/home/frappe/frappe-bench/apps/frappe/frappe/__init__.py", line 189, in get_site_config
    config.update(get_file_json(site_config))
  File "/home/frappe/frappe-bench/apps/frappe/frappe/__init__.py", line 896, in get_file_json
    return json.load(f)
  File "/usr/lib/python2.7/json/__init__.py", line 290, in load
    **kw)
  File "/usr/lib/python2.7/json/__init__.py", line 338, in loads
    return _default_decoder.decode(s)
  File "/usr/lib/python2.7/json/decoder.py", line 366, in decode
    obj, end = self.raw_decode(s, idx=_w(s, 0).end())
  File "/usr/lib/python2.7/json/decoder.py", line 384, in raw_decode
    raise ValueError("No JSON object could be decoded")
ValueError: No JSON object could be decoded

[ERROR] 2018-06-13 20:00:19,470 | /home/frappe/frappe-bench/apps/frappe/frappe/utils/scheduler.py:
Site: site1.local
Exception in Enqueue Events for Site site1.local
Traceback (most recent call last):
  File "/home/frappe/frappe-bench/apps/frappe/frappe/utils/scheduler.py", line 80, in enqueue_events_for_site
    frappe.init(site=site)
  File "/home/frappe/frappe-bench/apps/frappe/frappe/__init__.py", line 135, in init
    local.conf = _dict(get_site_config())
  File "/home/frappe/frappe-bench/apps/frappe/frappe/__init__.py", line 189, in get_site_config
    config.update(get_file_json(site_config))
  File "/home/frappe/frappe-bench/apps/frappe/frappe/__init__.py", line 896, in get_file_json
    return json.load(f)
  File "/usr/lib/python2.7/json/__init__.py", line 290, in load
    **kw)
  File "/usr/lib/python2.7/json/__init__.py", line 338, in loads
    return _default_decoder.decode(s)
  File "/usr/lib/python2.7/json/decoder.py", line 366, in decode
    obj, end = self.raw_decode(s, idx=_w(s, 0).end())
  File "/usr/lib/python2.7/json/decoder.py", line 384, in raw_decode
    raise ValueError("No JSON object could be decoded")
ValueError: No JSON object could be decoded

[ERROR] 2018-06-13 20:01:19,528 | /home/frappe/frappe-bench/apps/frappe/frappe/utils/scheduler.py:
Site: site1.local
Exception in Enqueue Events for Site site1.local
Traceback (most recent call last):
  File "/home/frappe/frappe-bench/apps/frappe/frappe/utils/scheduler.py", line 80, in enqueue_events_for_site
    frappe.init(site=site)
  File "/home/frappe/frappe-bench/apps/frappe/frappe/__init__.py", line 135, in init
    local.conf = _dict(get_site_config())
  File "/home/frappe/frappe-bench/apps/frappe/frappe/__init__.py", line 189, in get_site_config
    config.update(get_file_json(site_config))
  File "/home/frappe/frappe-bench/apps/frappe/frappe/__init__.py", line 896, in get_file_json
    return json.load(f)
  File "/usr/lib/python2.7/json/__init__.py", line 290, in load
    **kw)
  File "/usr/lib/python2.7/json/__init__.py", line 338, in loads
    return _default_decoder.decode(s)
  File "/usr/lib/python2.7/json/decoder.py", line 366, in decode
    obj, end = self.raw_decode(s, idx=_w(s, 0).end())
  File "/usr/lib/python2.7/json/decoder.py", line 384, in raw_decode
    raise ValueError("No JSON object could be decoded")
ValueError: No JSON object could be decoded

[ERROR] 2018-06-13 20:02:19,586 | /home/frappe/frappe-bench/apps/frappe/frappe/utils/scheduler.py:
Site: site1.local
Exception in Enqueue Events for Site site1.local
Traceback (most recent call last):
  File "/home/frappe/frappe-bench/apps/frappe/frappe/utils/scheduler.py", line 80, in enqueue_events_for_site
    frappe.init(site=site)
  File "/home/frappe/frappe-bench/apps/frappe/frappe/__init__.py", line 135, in init
    local.conf = _dict(get_site_config())
  File "/home/frappe/frappe-bench/apps/frappe/frappe/__init__.py", line 189, in get_site_config
    config.update(get_file_json(site_config))
  File "/home/frappe/frappe-bench/apps/frappe/frappe/__init__.py", line 896, in get_file_json
    return json.load(f)
  File "/usr/lib/python2.7/json/__init__.py", line 290, in load
    **kw)
  File "/usr/lib/python2.7/json/__init__.py", line 338, in loads
    return _default_decoder.decode(s)
  File "/usr/lib/python2.7/json/decoder.py", line 366, in decode
    obj, end = self.raw_decode(s, idx=_w(s, 0).end())
  File "/usr/lib/python2.7/json/decoder.py", line 384, in raw_decode
    raise ValueError("No JSON object could be decoded")
ValueError: No JSON object could be decoded

[ERROR] 2018-06-13 20:03:19,645 | /home/frappe/frappe-bench/apps/frappe/frappe/utils/scheduler.py:
Site: site1.local
Exception in Enqueue Events for Site site1.local
Traceback (most recent call last):
  File "/home/frappe/frappe-bench/apps/frappe/frappe/utils/scheduler.py", line 80, in enqueue_events_for_site
    frappe.init(site=site)
  File "/home/frappe/frappe-bench/apps/frappe/frappe/__init__.py", line 135, in init
    local.conf = _dict(get_site_config())
  File "/home/frappe/frappe-bench/apps/frappe/frappe/__init__.py", line 189, in get_site_config
    config.update(get_file_json(site_config))
  File "/home/frappe/frappe-bench/apps/frappe/frappe/__init__.py", line 896, in get_file_json
    return json.load(f)
  File "/usr/lib/python2.7/json/__init__.py", line 290, in load
    **kw)
  File "/usr/lib/python2.7/json/__init__.py", line 338, in loads
    return _default_decoder.decode(s)
  File "/usr/lib/python2.7/json/decoder.py", line 366, in decode
    obj, end = self.raw_decode(s, idx=_w(s, 0).end())
  File "/usr/lib/python2.7/json/decoder.py", line 384, in raw_decode
    raise ValueError("No JSON object could be decoded")
ValueError: No JSON object could be decoded

[ERROR] 2018-06-13 20:04:19,703 | /home/frappe/frappe-bench/apps/frappe/frappe/utils/scheduler.py:
Site: site1.local
Exception in Enqueue Events for Site site1.local
Traceback (most recent call last):
  File "/home/frappe/frappe-bench/apps/frappe/frappe/utils/scheduler.py", line 80, in enqueue_events_for_site
    frappe.init(site=site)
  File "/home/frappe/frappe-bench/apps/frappe/frappe/__init__.py", line 135, in init
    local.conf = _dict(get_site_config())
  File "/home/frappe/frappe-bench/apps/frappe/frappe/__init__.py", line 189, in get_site_config
    config.update(get_file_json(site_config))
  File "/home/frappe/frappe-bench/apps/frappe/frappe/__init__.py", line 896, in get_file_json
    return json.load(f)
  File "/usr/lib/python2.7/json/__init__.py", line 290, in load
    **kw)
  File "/usr/lib/python2.7/json/__init__.py", line 338, in loads
    return _default_decoder.decode(s)
  File "/usr/lib/python2.7/json/decoder.py", line 366, in decode
    obj, end = self.raw_decode(s, idx=_w(s, 0).end())
  File "/usr/lib/python2.7/json/decoder.py", line 384, in raw_decode
    raise ValueError("No JSON object could be decoded")
ValueError: No JSON object could be decoded

[ERROR] 2018-06-13 20:05:19,762 | /home/frappe/frappe-bench/apps/frappe/frappe/utils/scheduler.py:
Site: site1.local
Exception in Enqueue Events for Site site1.local
Traceback (most recent call last):
  File "/home/frappe/frappe-bench/apps/frappe/frappe/utils/scheduler.py", line 80, in enqueue_events_for_site
    frappe.init(site=site)
  File "/home/frappe/frappe-bench/apps/frappe/frappe/__init__.py", line 135, in init
    local.conf = _dict(get_site_config())
  File "/home/frappe/frappe-bench/apps/frappe/frappe/__init__.py", line 189, in get_site_config
    config.update(get_file_json(site_config))
  File "/home/frappe/frappe-bench/apps/frappe/frappe/__init__.py", line 896, in get_file_json
    return json.load(f)
  File "/usr/lib/python2.7/json/__init__.py", line 290, in load
    **kw)
  File "/usr/lib/python2.7/json/__init__.py", line 338, in loads
    return _default_decoder.decode(s)
  File "/usr/lib/python2.7/json/decoder.py", line 366, in decode
    obj, end = self.raw_decode(s, idx=_w(s, 0).end())
  File "/usr/lib/python2.7/json/decoder.py", line 384, in raw_decode
    raise ValueError("No JSON object could be decoded")
ValueError: No JSON object could be decoded

[ERROR] 2018-06-13 20:06:19,817 | /home/frappe/frappe-bench/apps/frappe/frappe/utils/scheduler.py:
Site: site1.local
Exception in Enqueue Events for Site site1.local
Traceback (most recent call last):
  File "/home/frappe/frappe-bench/apps/frappe/frappe/utils/scheduler.py", line 80, in enqueue_events_for_site
    frappe.init(site=site)
  File "/home/frappe/frappe-bench/apps/frappe/frappe/__init__.py", line 135, in init
    local.conf = _dict(get_site_config())
  File "/home/frappe/frappe-bench/apps/frappe/frappe/__init__.py", line 189, in get_site_config
    config.update(get_file_json(site_config))
  File "/home/frappe/frappe-bench/apps/frappe/frappe/__init__.py", line 896, in get_file_json
    return json.load(f)
  File "/usr/lib/python2.7/json/__init__.py", line 290, in load
    **kw)
  File "/usr/lib/python2.7/json/__init__.py", line 338, in loads
    return _default_decoder.decode(s)
  File "/usr/lib/python2.7/json/decoder.py", line 366, in decode
    obj, end = self.raw_decode(s, idx=_w(s, 0).end())
  File "/usr/lib/python2.7/json/decoder.py", line 384, in raw_decode
    raise ValueError("No JSON object could be decoded")
ValueError: No JSON object could be decoded

[ERROR] 2018-06-13 20:07:19,877 | /home/frappe/frappe-bench/apps/frappe/frappe/utils/scheduler.py:
Site: site1.local
Exception in Enqueue Events for Site site1.local
Traceback (most recent call last):
  File "/home/frappe/frappe-bench/apps/frappe/frappe/utils/scheduler.py", line 80, in enqueue_events_for_site
    frappe.init(site=site)
  File "/home/frappe/frappe-bench/apps/frappe/frappe/__init__.py", line 135, in init
    local.conf = _dict(get_site_config())
  File "/home/frappe/frappe-bench/apps/frappe/frappe/__init__.py", line 189, in get_site_config
    config.update(get_file_json(site_config))
  File "/home/frappe/frappe-bench/apps/frappe/frappe/__init__.py", line 896, in get_file_json
    return json.load(f)
  File "/usr/lib/python2.7/json/__init__.py", line 290, in load
    **kw)
  File "/usr/lib/python2.7/json/__init__.py", line 338, in loads
    return _default_decoder.decode(s)
  File "/usr/lib/python2.7/json/decoder.py", line 366, in decode
    obj, end = self.raw_decode(s, idx=_w(s, 0).end())
  File "/usr/lib/python2.7/json/decoder.py", line 384, in raw_decode
    raise ValueError("No JSON object could be decoded")
ValueError: No JSON object could be decoded

[ERROR] 2018-06-13 20:08:19,935 | /home/frappe/frappe-bench/apps/frappe/frappe/utils/scheduler.py:
Site: site1.local
Exception in Enqueue Events for Site site1.local
Traceback (most recent call last):
  File "/home/frappe/frappe-bench/apps/frappe/frappe/utils/scheduler.py", line 80, in enqueue_events_for_site
    frappe.init(site=site)
  File "/home/frappe/frappe-bench/apps/frappe/frappe/__init__.py", line 135, in init
    local.conf = _dict(get_site_config())
  File "/home/frappe/frappe-bench/apps/frappe/frappe/__init__.py", line 189, in get_site_config
    config.update(get_file_json(site_config))
  File "/home/frappe/frappe-bench/apps/frappe/frappe/__init__.py", line 896, in get_file_json
    return json.load(f)
  File "/usr/lib/python2.7/json/__init__.py", line 290, in load
    **kw)
  File "/usr/lib/python2.7/json/__init__.py", line 338, in loads
    return _default_decoder.decode(s)
  File "/usr/lib/python2.7/json/decoder.py", line 366, in decode
    obj, end = self.raw_decode(s, idx=_w(s, 0).end())
  File "/usr/lib/python2.7/json/decoder.py", line 384, in raw_decode
    raise ValueError("No JSON object could be decoded")
ValueError: No JSON object could be decoded

[ERROR] 2018-06-13 20:09:19,996 | /home/frappe/frappe-bench/apps/frappe/frappe/utils/scheduler.py:
Site: site1.local
Exception in Enqueue Events for Site site1.local
Traceback (most recent call last):
  File "/home/frappe/frappe-bench/apps/frappe/frappe/utils/scheduler.py", line 80, in enqueue_events_for_site
    frappe.init(site=site)
  File "/home/frappe/frappe-bench/apps/frappe/frappe/__init__.py", line 135, in init
    local.conf = _dict(get_site_config())
  File "/home/frappe/frappe-bench/apps/frappe/frappe/__init__.py", line 189, in get_site_config
    config.update(get_file_json(site_config))
  File "/home/frappe/frappe-bench/apps/frappe/frappe/__init__.py", line 896, in get_file_json
    return json.load(f)
  File "/usr/lib/python2.7/json/__init__.py", line 290, in load
    **kw)
  File "/usr/lib/python2.7/json/__init__.py", line 338, in loads
    return _default_decoder.decode(s)
  File "/usr/lib/python2.7/json/decoder.py", line 366, in decode
    obj, end = self.raw_decode(s, idx=_w(s, 0).end())
  File "/usr/lib/python2.7/json/decoder.py", line 384, in raw_decode
    raise ValueError("No JSON object could be decoded")
ValueError: No JSON object could be decoded

[ERROR] 2018-06-13 20:10:20,056 | /home/frappe/frappe-bench/apps/frappe/frappe/utils/scheduler.py:
Site: site1.local
Exception in Enqueue Events for Site site1.local
Traceback (most recent call last):
  File "/home/frappe/frappe-bench/apps/frappe/frappe/utils/scheduler.py", line 80, in enqueue_events_for_site
    frappe.init(site=site)
  File "/home/frappe/frappe-bench/apps/frappe/frappe/__init__.py", line 135, in init
    local.conf = _dict(get_site_config())
  File "/home/frappe/frappe-bench/apps/frappe/frappe/__init__.py", line 189, in get_site_config
    config.update(get_file_json(site_config))
  File "/home/frappe/frappe-bench/apps/frappe/frappe/__init__.py", line 896, in get_file_json
    return json.load(f)
  File "/usr/lib/python2.7/json/__init__.py", line 290, in load
    **kw)
  File "/usr/lib/python2.7/json/__init__.py", line 338, in loads
    return _default_decoder.decode(s)
  File "/usr/lib/python2.7/json/decoder.py", line 366, in decode
    obj, end = self.raw_decode(s, idx=_w(s, 0).end())
  File "/usr/lib/python2.7/json/decoder.py", line 384, in raw_decode
    raise ValueError("No JSON object could be decoded")
ValueError: No JSON object could be decoded

[ERROR] 2018-06-13 20:11:20,113 | /home/frappe/frappe-bench/apps/frappe/frappe/utils/scheduler.py:
Site: site1.local
Exception in Enqueue Events for Site site1.local
Traceback (most recent call last):
  File "/home/frappe/frappe-bench/apps/frappe/frappe/utils/scheduler.py", line 80, in enqueue_events_for_site
    frappe.init(site=site)
  File "/home/frappe/frappe-bench/apps/frappe/frappe/__init__.py", line 135, in init
    local.conf = _dict(get_site_config())
  File "/home/frappe/frappe-bench/apps/frappe/frappe/__init__.py", line 189, in get_site_config
    config.update(get_file_json(site_config))
  File "/home/frappe/frappe-bench/apps/frappe/frappe/__init__.py", line 896, in get_file_json
    return json.load(f)
  File "/usr/lib/python2.7/json/__init__.py", line 290, in load
    **kw)
  File "/usr/lib/python2.7/json/__init__.py", line 338, in loads
    return _default_decoder.decode(s)
  File "/usr/lib/python2.7/json/decoder.py", line 366, in decode
    obj, end = self.raw_decode(s, idx=_w(s, 0).end())
  File "/usr/lib/python2.7/json/decoder.py", line 384, in raw_decode
    raise ValueError("No JSON object could be decoded")
ValueError: No JSON object could be decoded

[ERROR] 2018-06-13 20:12:20,171 | /home/frappe/frappe-bench/apps/frappe/frappe/utils/scheduler.py:
Site: site1.local
Exception in Enqueue Events for Site site1.local
Traceback (most recent call last):
  File "/home/frappe/frappe-bench/apps/frappe/frappe/utils/scheduler.py", line 80, in enqueue_events_for_site
    frappe.init(site=site)
  File "/home/frappe/frappe-bench/apps/frappe/frappe/__init__.py", line 135, in init
    local.conf = _dict(get_site_config())
  File "/home/frappe/frappe-bench/apps/frappe/frappe/__init__.py", line 189, in get_site_config
    config.update(get_file_json(site_config))
  File "/home/frappe/frappe-bench/apps/frappe/frappe/__init__.py", line 896, in get_file_json
    return json.load(f)
  File "/usr/lib/python2.7/json/__init__.py", line 290, in load
    **kw)
  File "/usr/lib/python2.7/json/__init__.py", line 338, in loads
    return _default_decoder.decode(s)
  File "/usr/lib/python2.7/json/decoder.py", line 366, in decode
    obj, end = self.raw_decode(s, idx=_w(s, 0).end())
  File "/usr/lib/python2.7/json/decoder.py", line 384, in raw_decode
    raise ValueError("No JSON object could be decoded")
ValueError: No JSON object could be decoded

[ERROR] 2018-06-13 20:13:20,233 | /home/frappe/frappe-bench/apps/frappe/frappe/utils/scheduler.py:
Site: site1.local
Exception in Enqueue Events for Site site1.local
Traceback (most recent call last):
  File "/home/frappe/frappe-bench/apps/frappe/frappe/utils/scheduler.py", line 80, in enqueue_events_for_site
    frappe.init(site=site)
  File "/home/frappe/frappe-bench/apps/frappe/frappe/__init__.py", line 135, in init
    local.conf = _dict(get_site_config())
  File "/home/frappe/frappe-bench/apps/frappe/frappe/__init__.py", line 189, in get_site_config
    config.update(get_file_json(site_config))
  File "/home/frappe/frappe-bench/apps/frappe/frappe/__init__.py", line 896, in get_file_json
    return json.load(f)
  File "/usr/lib/python2.7/json/__init__.py", line 290, in load
    **kw)
  File "/usr/lib/python2.7/json/__init__.py", line 338, in loads
    return _default_decoder.decode(s)
  File "/usr/lib/python2.7/json/decoder.py", line 366, in decode
    obj, end = self.raw_decode(s, idx=_w(s, 0).end())
  File "/usr/lib/python2.7/json/decoder.py", line 384, in raw_decode
    raise ValueError("No JSON object could be decoded")
ValueError: No JSON object could be decoded

[ERROR] 2018-06-13 20:14:20,290 | /home/frappe/frappe-bench/apps/frappe/frappe/utils/scheduler.py:
Site: site1.local
Exception in Enqueue Events for Site site1.local
Traceback (most recent call last):
  File "/home/frappe/frappe-bench/apps/frappe/frappe/utils/scheduler.py", line 80, in enqueue_events_for_site
    frappe.init(site=site)
  File "/home/frappe/frappe-bench/apps/frappe/frappe/__init__.py", line 135, in init
    local.conf = _dict(get_site_config())
  File "/home/frappe/frappe-bench/apps/frappe/frappe/__init__.py", line 189, in get_site_config
    config.update(get_file_json(site_config))
  File "/home/frappe/frappe-bench/apps/frappe/frappe/__init__.py", line 896, in get_file_json
    return json.load(f)
  File "/usr/lib/python2.7/json/__init__.py", line 290, in load
    **kw)
  File "/usr/lib/python2.7/json/__init__.py", line 338, in loads
    return _default_decoder.decode(s)
  File "/usr/lib/python2.7/json/decoder.py", line 366, in decode
    obj, end = self.raw_decode(s, idx=_w(s, 0).end())
  File "/usr/lib/python2.7/json/decoder.py", line 384, in raw_decode
    raise ValueError("No JSON object could be decoded")
ValueError: No JSON object could be decoded

[ERROR] 2018-06-13 20:15:20,347 | /home/frappe/frappe-bench/apps/frappe/frappe/utils/scheduler.py:
Site: site1.local
Exception in Enqueue Events for Site site1.local
Traceback (most recent call last):
  File "/home/frappe/frappe-bench/apps/frappe/frappe/utils/scheduler.py", line 80, in enqueue_events_for_site
    frappe.init(site=site)
  File "/home/frappe/frappe-bench/apps/frappe/frappe/__init__.py", line 135, in init
    local.conf = _dict(get_site_config())
  File "/home/frappe/frappe-bench/apps/frappe/frappe/__init__.py", line 189, in get_site_config
    config.update(get_file_json(site_config))
  File "/home/frappe/frappe-bench/apps/frappe/frappe/__init__.py", line 896, in get_file_json
    return json.load(f)
  File "/usr/lib/python2.7/json/__init__.py", line 290, in load
    **kw)
  File "/usr/lib/python2.7/json/__init__.py", line 338, in loads
    return _default_decoder.decode(s)
  File "/usr/lib/python2.7/json/decoder.py", line 366, in decode
    obj, end = self.raw_decode(s, idx=_w(s, 0).end())
  File "/usr/lib/python2.7/json/decoder.py", line 384, in raw_decode
    raise ValueError("No JSON object could be decoded")
ValueError: No JSON object could be decoded

[ERROR] 2018-06-13 20:16:20,405 | /home/frappe/frappe-bench/apps/frappe/frappe/utils/scheduler.py:
Site: site1.local
Exception in Enqueue Events for Site site1.local
Traceback (most recent call last):
  File "/home/frappe/frappe-bench/apps/frappe/frappe/utils/scheduler.py", line 80, in enqueue_events_for_site
    frappe.init(site=site)
  File "/home/frappe/frappe-bench/apps/frappe/frappe/__init__.py", line 135, in init
    local.conf = _dict(get_site_config())
  File "/home/frappe/frappe-bench/apps/frappe/frappe/__init__.py", line 189, in get_site_config
    config.update(get_file_json(site_config))
  File "/home/frappe/frappe-bench/apps/frappe/frappe/__init__.py", line 896, in get_file_json
    return json.load(f)
  File "/usr/lib/python2.7/json/__init__.py", line 290, in load
    **kw)
  File "/usr/lib/python2.7/json/__init__.py", line 338, in loads
    return _default_decoder.decode(s)
  File "/usr/lib/python2.7/json/decoder.py", line 366, in decode
    obj, end = self.raw_decode(s, idx=_w(s, 0).end())
  File "/usr/lib/python2.7/json/decoder.py", line 384, in raw_decode
    raise ValueError("No JSON object could be decoded")
ValueError: No JSON object could be decoded

[ERROR] 2018-06-13 20:17:20,463 | /home/frappe/frappe-bench/apps/frappe/frappe/utils/scheduler.py:
Site: site1.local
Exception in Enqueue Events for Site site1.local
Traceback (most recent call last):
  File "/home/frappe/frappe-bench/apps/frappe/frappe/utils/scheduler.py", line 80, in enqueue_events_for_site
    frappe.init(site=site)
  File "/home/frappe/frappe-bench/apps/frappe/frappe/__init__.py", line 135, in init
    local.conf = _dict(get_site_config())
  File "/home/frappe/frappe-bench/apps/frappe/frappe/__init__.py", line 189, in get_site_config
    config.update(get_file_json(site_config))
  File "/home/frappe/frappe-bench/apps/frappe/frappe/__init__.py", line 896, in get_file_json
    return json.load(f)
  File "/usr/lib/python2.7/json/__init__.py", line 290, in load
    **kw)
  File "/usr/lib/python2.7/json/__init__.py", line 338, in loads
    return _default_decoder.decode(s)
  File "/usr/lib/python2.7/json/decoder.py", line 366, in decode
    obj, end = self.raw_decode(s, idx=_w(s, 0).end())
  File "/usr/lib/python2.7/json/decoder.py", line 384, in raw_decode
    raise ValueError("No JSON object could be decoded")
ValueError: No JSON object could be decoded

[ERROR] 2018-06-13 20:18:20,518 | /home/frappe/frappe-bench/apps/frappe/frappe/utils/scheduler.py:
Site: site1.local
Exception in Enqueue Events for Site site1.local
Traceback (most recent call last):
  File "/home/frappe/frappe-bench/apps/frappe/frappe/utils/scheduler.py", line 80, in enqueue_events_for_site
    frappe.init(site=site)
  File "/home/frappe/frappe-bench/apps/frappe/frappe/__init__.py", line 135, in init
    local.conf = _dict(get_site_config())
  File "/home/frappe/frappe-bench/apps/frappe/frappe/__init__.py", line 189, in get_site_config
    config.update(get_file_json(site_config))
  File "/home/frappe/frappe-bench/apps/frappe/frappe/__init__.py", line 896, in get_file_json
    return json.load(f)
  File "/usr/lib/python2.7/json/__init__.py", line 290, in load
    **kw)
  File "/usr/lib/python2.7/json/__init__.py", line 338, in loads
    return _default_decoder.decode(s)
  File "/usr/lib/python2.7/json/decoder.py", line 366, in decode
    obj, end = self.raw_decode(s, idx=_w(s, 0).end())
  File "/usr/lib/python2.7/json/decoder.py", line 384, in raw_decode
    raise ValueError("No JSON object could be decoded")
ValueError: No JSON object could be decoded

[ERROR] 2018-06-13 20:19:20,573 | /home/frappe/frappe-bench/apps/frappe/frappe/utils/scheduler.py:
Site: site1.local
Exception in Enqueue Events for Site site1.local
Traceback (most recent call last):
  File "/home/frappe/frappe-bench/apps/frappe/frappe/utils/scheduler.py", line 80, in enqueue_events_for_site
    frappe.init(site=site)
  File "/home/frappe/frappe-bench/apps/frappe/frappe/__init__.py", line 135, in init
    local.conf = _dict(get_site_config())
  File "/home/frappe/frappe-bench/apps/frappe/frappe/__init__.py", line 189, in get_site_config
    config.update(get_file_json(site_config))
  File "/home/frappe/frappe-bench/apps/frappe/frappe/__init__.py", line 896, in get_file_json
    return json.load(f)
  File "/usr/lib/python2.7/json/__init__.py", line 290, in load
    **kw)
  File "/usr/lib/python2.7/json/__init__.py", line 338, in loads
    return _default_decoder.decode(s)
  File "/usr/lib/python2.7/json/decoder.py", line 366, in decode
    obj, end = self.raw_decode(s, idx=_w(s, 0).end())
  File "/usr/lib/python2.7/json/decoder.py", line 384, in raw_decode
    raise ValueError("No JSON object could be decoded")
ValueError: No JSON object could be decoded

[ERROR] 2018-06-13 20:20:20,642 | /home/frappe/frappe-bench/apps/frappe/frappe/utils/scheduler.py:
Site: site1.local
Exception in Enqueue Events for Site site1.local
Traceback (most recent call last):
  File "/home/frappe/frappe-bench/apps/frappe/frappe/utils/scheduler.py", line 80, in enqueue_events_for_site
    frappe.init(site=site)
  File "/home/frappe/frappe-bench/apps/frappe/frappe/__init__.py", line 135, in init
    local.conf = _dict(get_site_config())
  File "/home/frappe/frappe-bench/apps/frappe/frappe/__init__.py", line 189, in get_site_config
    config.update(get_file_json(site_config))
  File "/home/frappe/frappe-bench/apps/frappe/frappe/__init__.py", line 896, in get_file_json
    return json.load(f)
  File "/usr/lib/python2.7/json/__init__.py", line 290, in load
    **kw)
  File "/usr/lib/python2.7/json/__init__.py", line 338, in loads
    return _default_decoder.decode(s)
  File "/usr/lib/python2.7/json/decoder.py", line 366, in decode
    obj, end = self.raw_decode(s, idx=_w(s, 0).end())
  File "/usr/lib/python2.7/json/decoder.py", line 384, in raw_decode
    raise ValueError("No JSON object could be decoded")
ValueError: No JSON object could be decoded

[ERROR] 2018-06-13 20:21:20,701 | /home/frappe/frappe-bench/apps/frappe/frappe/utils/scheduler.py:
Site: site1.local
Exception in Enqueue Events for Site site1.local
Traceback (most recent call last):
  File "/home/frappe/frappe-bench/apps/frappe/frappe/utils/scheduler.py", line 80, in enqueue_events_for_site
    frappe.init(site=site)
  File "/home/frappe/frappe-bench/apps/frappe/frappe/__init__.py", line 135, in init
    local.conf = _dict(get_site_config())
  File "/home/frappe/frappe-bench/apps/frappe/frappe/__init__.py", line 189, in get_site_config
    config.update(get_file_json(site_config))
  File "/home/frappe/frappe-bench/apps/frappe/frappe/__init__.py", line 896, in get_file_json
    return json.load(f)
  File "/usr/lib/python2.7/json/__init__.py", line 290, in load
    **kw)
  File "/usr/lib/python2.7/json/__init__.py", line 338, in loads
    return _default_decoder.decode(s)
  File "/usr/lib/python2.7/json/decoder.py", line 366, in decode
    obj, end = self.raw_decode(s, idx=_w(s, 0).end())
  File "/usr/lib/python2.7/json/decoder.py", line 384, in raw_decode
    raise ValueError("No JSON object could be decoded")
ValueError: No JSON object could be decoded

[ERROR] 2018-06-13 20:22:20,761 | /home/frappe/frappe-bench/apps/frappe/frappe/utils/scheduler.py:
Site: site1.local
Exception in Enqueue Events for Site site1.local
Traceback (most recent call last):
  File "/home/frappe/frappe-bench/apps/frappe/frappe/utils/scheduler.py", line 80, in enqueue_events_for_site
    frappe.init(site=site)
  File "/home/frappe/frappe-bench/apps/frappe/frappe/__init__.py", line 135, in init
    local.conf = _dict(get_site_config())
  File "/home/frappe/frappe-bench/apps/frappe/frappe/__init__.py", line 189, in get_site_config
    config.update(get_file_json(site_config))
  File "/home/frappe/frappe-bench/apps/frappe/frappe/__init__.py", line 896, in get_file_json
    return json.load(f)
  File "/usr/lib/python2.7/json/__init__.py", line 290, in load
    **kw)
  File "/usr/lib/python2.7/json/__init__.py", line 338, in loads
    return _default_decoder.decode(s)
  File "/usr/lib/python2.7/json/decoder.py", line 366, in decode
    obj, end = self.raw_decode(s, idx=_w(s, 0).end())
  File "/usr/lib/python2.7/json/decoder.py", line 384, in raw_decode
    raise ValueError("No JSON object could be decoded")
ValueError: No JSON object could be decoded

[ERROR] 2018-06-13 20:23:20,816 | /home/frappe/frappe-bench/apps/frappe/frappe/utils/scheduler.py:
Site: site1.local
Exception in Enqueue Events for Site site1.local
Traceback (most recent call last):
  File "/home/frappe/frappe-bench/apps/frappe/frappe/utils/scheduler.py", line 80, in enqueue_events_for_site
    frappe.init(site=site)
  File "/home/frappe/frappe-bench/apps/frappe/frappe/__init__.py", line 135, in init
    local.conf = _dict(get_site_config())
  File "/home/frappe/frappe-bench/apps/frappe/frappe/__init__.py", line 189, in get_site_config
    config.update(get_file_json(site_config))
  File "/home/frappe/frappe-bench/apps/frappe/frappe/__init__.py", line 896, in get_file_json
    return json.load(f)
  File "/usr/lib/python2.7/json/__init__.py", line 290, in load
    **kw)
  File "/usr/lib/python2.7/json/__init__.py", line 338, in loads
    return _default_decoder.decode(s)
  File "/usr/lib/python2.7/json/decoder.py", line 366, in decode
    obj, end = self.raw_decode(s, idx=_w(s, 0).end())
  File "/usr/lib/python2.7/json/decoder.py", line 384, in raw_decode
    raise ValueError("No JSON object could be decoded")
ValueError: No JSON object could be decoded

[ERROR] 2018-06-13 20:24:20,876 | /home/frappe/frappe-bench/apps/frappe/frappe/utils/scheduler.py:
Site: site1.local
Exception in Enqueue Events for Site site1.local
Traceback (most recent call last):
  File "/home/frappe/frappe-bench/apps/frappe/frappe/utils/scheduler.py", line 80, in enqueue_events_for_site
    frappe.init(site=site)
  File "/home/frappe/frappe-bench/apps/frappe/frappe/__init__.py", line 135, in init
    local.conf = _dict(get_site_config())
  File "/home/frappe/frappe-bench/apps/frappe/frappe/__init__.py", line 189, in get_site_config
    config.update(get_file_json(site_config))
  File "/home/frappe/frappe-bench/apps/frappe/frappe/__init__.py", line 896, in get_file_json
    return json.load(f)
  File "/usr/lib/python2.7/json/__init__.py", line 290, in load
    **kw)
  File "/usr/lib/python2.7/json/__init__.py", line 338, in loads
    return _default_decoder.decode(s)
  File "/usr/lib/python2.7/json/decoder.py", line 366, in decode
    obj, end = self.raw_decode(s, idx=_w(s, 0).end())
  File "/usr/lib/python2.7/json/decoder.py", line 384, in raw_decode
    raise ValueError("No JSON object could be decoded")
ValueError: No JSON object could be decoded

[ERROR] 2018-06-13 20:25:20,938 | /home/frappe/frappe-bench/apps/frappe/frappe/utils/scheduler.py:
Site: site1.local
Exception in Enqueue Events for Site site1.local
Traceback (most recent call last):
  File "/home/frappe/frappe-bench/apps/frappe/frappe/utils/scheduler.py", line 80, in enqueue_events_for_site
    frappe.init(site=site)
  File "/home/frappe/frappe-bench/apps/frappe/frappe/__init__.py", line 135, in init
    local.conf = _dict(get_site_config())
  File "/home/frappe/frappe-bench/apps/frappe/frappe/__init__.py", line 189, in get_site_config
    config.update(get_file_json(site_config))
  File "/home/frappe/frappe-bench/apps/frappe/frappe/__init__.py", line 896, in get_file_json
    return json.load(f)
  File "/usr/lib/python2.7/json/__init__.py", line 290, in load
    **kw)
  File "/usr/lib/python2.7/json/__init__.py", line 338, in loads
    return _default_decoder.decode(s)
  File "/usr/lib/python2.7/json/decoder.py", line 366, in decode
    obj, end = self.raw_decode(s, idx=_w(s, 0).end())
  File "/usr/lib/python2.7/json/decoder.py", line 384, in raw_decode
    raise ValueError("No JSON object could be decoded")
ValueError: No JSON object could be decoded

[ERROR] 2018-06-13 20:26:20,998 | /home/frappe/frappe-bench/apps/frappe/frappe/utils/scheduler.py:
Site: site1.local
Exception in Enqueue Events for Site site1.local
Traceback (most recent call last):
  File "/home/frappe/frappe-bench/apps/frappe/frappe/utils/scheduler.py", line 80, in enqueue_events_for_site
    frappe.init(site=site)
  File "/home/frappe/frappe-bench/apps/frappe/frappe/__init__.py", line 135, in init
    local.conf = _dict(get_site_config())
  File "/home/frappe/frappe-bench/apps/frappe/frappe/__init__.py", line 189, in get_site_config
    config.update(get_file_json(site_config))
  File "/home/frappe/frappe-bench/apps/frappe/frappe/__init__.py", line 896, in get_file_json
    return json.load(f)
  File "/usr/lib/python2.7/json/__init__.py", line 290, in load
    **kw)
  File "/usr/lib/python2.7/json/__init__.py", line 338, in loads
    return _default_decoder.decode(s)
  File "/usr/lib/python2.7/json/decoder.py", line 366, in decode
    obj, end = self.raw_decode(s, idx=_w(s, 0).end())
  File "/usr/lib/python2.7/json/decoder.py", line 384, in raw_decode
    raise ValueError("No JSON object could be decoded")
ValueError: No JSON object could be decoded

[ERROR] 2018-06-13 20:27:21,055 | /home/frappe/frappe-bench/apps/frappe/frappe/utils/scheduler.py:
Site: site1.local
Exception in Enqueue Events for Site site1.local
Traceback (most recent call last):
  File "/home/frappe/frappe-bench/apps/frappe/frappe/utils/scheduler.py", line 80, in enqueue_events_for_site
    frappe.init(site=site)
  File "/home/frappe/frappe-bench/apps/frappe/frappe/__init__.py", line 135, in init
    local.conf = _dict(get_site_config())
  File "/home/frappe/frappe-bench/apps/frappe/frappe/__init__.py", line 189, in get_site_config
    config.update(get_file_json(site_config))
  File "/home/frappe/frappe-bench/apps/frappe/frappe/__init__.py", line 896, in get_file_json
    return json.load(f)
  File "/usr/lib/python2.7/json/__init__.py", line 290, in load
    **kw)
  File "/usr/lib/python2.7/json/__init__.py", line 338, in loads
    return _default_decoder.decode(s)
  File "/usr/lib/python2.7/json/decoder.py", line 366, in decode
    obj, end = self.raw_decode(s, idx=_w(s, 0).end())
  File "/usr/lib/python2.7/json/decoder.py", line 384, in raw_decode
    raise ValueError("No JSON object could be decoded")
ValueError: No JSON object could be decoded

