[ERROR] 2018-06-13 01:05:13,119 | /home/frappe/frappe-bench/apps/frappe/frappe/utils/scheduler.py:
Site: site1.local
Exception in Enqueue Events for Site site1.local
Traceback (most recent call last):
  File "/home/frappe/frappe-bench/apps/frappe/frappe/utils/scheduler.py", line 80, in enqueue_events_for_site
    frappe.init(site=site)
  File "/home/frappe/frappe-bench/apps/frappe/frappe/__init__.py", line 135, in init
    local.conf = _dict(get_site_config())
  File "/home/frappe/frappe-bench/apps/frappe/frappe/__init__.py", line 189, in get_site_config
    config.update(get_file_json(site_config))
  File "/home/frappe/frappe-bench/apps/frappe/frappe/__init__.py", line 896, in get_file_json
    return json.load(f)
  File "/usr/lib/python2.7/json/__init__.py", line 290, in load
    **kw)
  File "/usr/lib/python2.7/json/__init__.py", line 338, in loads
    return _default_decoder.decode(s)
  File "/usr/lib/python2.7/json/decoder.py", line 366, in decode
    obj, end = self.raw_decode(s, idx=_w(s, 0).end())
  File "/usr/lib/python2.7/json/decoder.py", line 384, in raw_decode
    raise ValueError("No JSON object could be decoded")
ValueError: No JSON object could be decoded

[ERROR] 2018-06-13 01:06:13,173 | /home/frappe/frappe-bench/apps/frappe/frappe/utils/scheduler.py:
Site: site1.local
Exception in Enqueue Events for Site site1.local
Traceback (most recent call last):
  File "/home/frappe/frappe-bench/apps/frappe/frappe/utils/scheduler.py", line 80, in enqueue_events_for_site
    frappe.init(site=site)
  File "/home/frappe/frappe-bench/apps/frappe/frappe/__init__.py", line 135, in init
    local.conf = _dict(get_site_config())
  File "/home/frappe/frappe-bench/apps/frappe/frappe/__init__.py", line 189, in get_site_config
    config.update(get_file_json(site_config))
  File "/home/frappe/frappe-bench/apps/frappe/frappe/__init__.py", line 896, in get_file_json
    return json.load(f)
  File "/usr/lib/python2.7/json/__init__.py", line 290, in load
    **kw)
  File "/usr/lib/python2.7/json/__init__.py", line 338, in loads
    return _default_decoder.decode(s)
  File "/usr/lib/python2.7/json/decoder.py", line 366, in decode
    obj, end = self.raw_decode(s, idx=_w(s, 0).end())
  File "/usr/lib/python2.7/json/decoder.py", line 384, in raw_decode
    raise ValueError("No JSON object could be decoded")
ValueError: No JSON object could be decoded

[ERROR] 2018-06-13 01:07:13,230 | /home/frappe/frappe-bench/apps/frappe/frappe/utils/scheduler.py:
Site: site1.local
Exception in Enqueue Events for Site site1.local
Traceback (most recent call last):
  File "/home/frappe/frappe-bench/apps/frappe/frappe/utils/scheduler.py", line 80, in enqueue_events_for_site
    frappe.init(site=site)
  File "/home/frappe/frappe-bench/apps/frappe/frappe/__init__.py", line 135, in init
    local.conf = _dict(get_site_config())
  File "/home/frappe/frappe-bench/apps/frappe/frappe/__init__.py", line 189, in get_site_config
    config.update(get_file_json(site_config))
  File "/home/frappe/frappe-bench/apps/frappe/frappe/__init__.py", line 896, in get_file_json
    return json.load(f)
  File "/usr/lib/python2.7/json/__init__.py", line 290, in load
    **kw)
  File "/usr/lib/python2.7/json/__init__.py", line 338, in loads
    return _default_decoder.decode(s)
  File "/usr/lib/python2.7/json/decoder.py", line 366, in decode
    obj, end = self.raw_decode(s, idx=_w(s, 0).end())
  File "/usr/lib/python2.7/json/decoder.py", line 384, in raw_decode
    raise ValueError("No JSON object could be decoded")
ValueError: No JSON object could be decoded

[ERROR] 2018-06-13 01:08:13,288 | /home/frappe/frappe-bench/apps/frappe/frappe/utils/scheduler.py:
Site: site1.local
Exception in Enqueue Events for Site site1.local
Traceback (most recent call last):
  File "/home/frappe/frappe-bench/apps/frappe/frappe/utils/scheduler.py", line 80, in enqueue_events_for_site
    frappe.init(site=site)
  File "/home/frappe/frappe-bench/apps/frappe/frappe/__init__.py", line 135, in init
    local.conf = _dict(get_site_config())
  File "/home/frappe/frappe-bench/apps/frappe/frappe/__init__.py", line 189, in get_site_config
    config.update(get_file_json(site_config))
  File "/home/frappe/frappe-bench/apps/frappe/frappe/__init__.py", line 896, in get_file_json
    return json.load(f)
  File "/usr/lib/python2.7/json/__init__.py", line 290, in load
    **kw)
  File "/usr/lib/python2.7/json/__init__.py", line 338, in loads
    return _default_decoder.decode(s)
  File "/usr/lib/python2.7/json/decoder.py", line 366, in decode
    obj, end = self.raw_decode(s, idx=_w(s, 0).end())
  File "/usr/lib/python2.7/json/decoder.py", line 384, in raw_decode
    raise ValueError("No JSON object could be decoded")
ValueError: No JSON object could be decoded

[ERROR] 2018-06-13 01:09:13,345 | /home/frappe/frappe-bench/apps/frappe/frappe/utils/scheduler.py:
Site: site1.local
Exception in Enqueue Events for Site site1.local
Traceback (most recent call last):
  File "/home/frappe/frappe-bench/apps/frappe/frappe/utils/scheduler.py", line 80, in enqueue_events_for_site
    frappe.init(site=site)
  File "/home/frappe/frappe-bench/apps/frappe/frappe/__init__.py", line 135, in init
    local.conf = _dict(get_site_config())
  File "/home/frappe/frappe-bench/apps/frappe/frappe/__init__.py", line 189, in get_site_config
    config.update(get_file_json(site_config))
  File "/home/frappe/frappe-bench/apps/frappe/frappe/__init__.py", line 896, in get_file_json
    return json.load(f)
  File "/usr/lib/python2.7/json/__init__.py", line 290, in load
    **kw)
  File "/usr/lib/python2.7/json/__init__.py", line 338, in loads
    return _default_decoder.decode(s)
  File "/usr/lib/python2.7/json/decoder.py", line 366, in decode
    obj, end = self.raw_decode(s, idx=_w(s, 0).end())
  File "/usr/lib/python2.7/json/decoder.py", line 384, in raw_decode
    raise ValueError("No JSON object could be decoded")
ValueError: No JSON object could be decoded

[ERROR] 2018-06-13 01:10:13,401 | /home/frappe/frappe-bench/apps/frappe/frappe/utils/scheduler.py:
Site: site1.local
Exception in Enqueue Events for Site site1.local
Traceback (most recent call last):
  File "/home/frappe/frappe-bench/apps/frappe/frappe/utils/scheduler.py", line 80, in enqueue_events_for_site
    frappe.init(site=site)
  File "/home/frappe/frappe-bench/apps/frappe/frappe/__init__.py", line 135, in init
    local.conf = _dict(get_site_config())
  File "/home/frappe/frappe-bench/apps/frappe/frappe/__init__.py", line 189, in get_site_config
    config.update(get_file_json(site_config))
  File "/home/frappe/frappe-bench/apps/frappe/frappe/__init__.py", line 896, in get_file_json
    return json.load(f)
  File "/usr/lib/python2.7/json/__init__.py", line 290, in load
    **kw)
  File "/usr/lib/python2.7/json/__init__.py", line 338, in loads
    return _default_decoder.decode(s)
  File "/usr/lib/python2.7/json/decoder.py", line 366, in decode
    obj, end = self.raw_decode(s, idx=_w(s, 0).end())
  File "/usr/lib/python2.7/json/decoder.py", line 384, in raw_decode
    raise ValueError("No JSON object could be decoded")
ValueError: No JSON object could be decoded

[ERROR] 2018-06-13 01:11:13,461 | /home/frappe/frappe-bench/apps/frappe/frappe/utils/scheduler.py:
Site: site1.local
Exception in Enqueue Events for Site site1.local
Traceback (most recent call last):
  File "/home/frappe/frappe-bench/apps/frappe/frappe/utils/scheduler.py", line 80, in enqueue_events_for_site
    frappe.init(site=site)
  File "/home/frappe/frappe-bench/apps/frappe/frappe/__init__.py", line 135, in init
    local.conf = _dict(get_site_config())
  File "/home/frappe/frappe-bench/apps/frappe/frappe/__init__.py", line 189, in get_site_config
    config.update(get_file_json(site_config))
  File "/home/frappe/frappe-bench/apps/frappe/frappe/__init__.py", line 896, in get_file_json
    return json.load(f)
  File "/usr/lib/python2.7/json/__init__.py", line 290, in load
    **kw)
  File "/usr/lib/python2.7/json/__init__.py", line 338, in loads
    return _default_decoder.decode(s)
  File "/usr/lib/python2.7/json/decoder.py", line 366, in decode
    obj, end = self.raw_decode(s, idx=_w(s, 0).end())
  File "/usr/lib/python2.7/json/decoder.py", line 384, in raw_decode
    raise ValueError("No JSON object could be decoded")
ValueError: No JSON object could be decoded

[ERROR] 2018-06-13 01:12:13,521 | /home/frappe/frappe-bench/apps/frappe/frappe/utils/scheduler.py:
Site: site1.local
Exception in Enqueue Events for Site site1.local
Traceback (most recent call last):
  File "/home/frappe/frappe-bench/apps/frappe/frappe/utils/scheduler.py", line 80, in enqueue_events_for_site
    frappe.init(site=site)
  File "/home/frappe/frappe-bench/apps/frappe/frappe/__init__.py", line 135, in init
    local.conf = _dict(get_site_config())
  File "/home/frappe/frappe-bench/apps/frappe/frappe/__init__.py", line 189, in get_site_config
    config.update(get_file_json(site_config))
  File "/home/frappe/frappe-bench/apps/frappe/frappe/__init__.py", line 896, in get_file_json
    return json.load(f)
  File "/usr/lib/python2.7/json/__init__.py", line 290, in load
    **kw)
  File "/usr/lib/python2.7/json/__init__.py", line 338, in loads
    return _default_decoder.decode(s)
  File "/usr/lib/python2.7/json/decoder.py", line 366, in decode
    obj, end = self.raw_decode(s, idx=_w(s, 0).end())
  File "/usr/lib/python2.7/json/decoder.py", line 384, in raw_decode
    raise ValueError("No JSON object could be decoded")
ValueError: No JSON object could be decoded

[ERROR] 2018-06-13 01:13:13,583 | /home/frappe/frappe-bench/apps/frappe/frappe/utils/scheduler.py:
Site: site1.local
Exception in Enqueue Events for Site site1.local
Traceback (most recent call last):
  File "/home/frappe/frappe-bench/apps/frappe/frappe/utils/scheduler.py", line 80, in enqueue_events_for_site
    frappe.init(site=site)
  File "/home/frappe/frappe-bench/apps/frappe/frappe/__init__.py", line 135, in init
    local.conf = _dict(get_site_config())
  File "/home/frappe/frappe-bench/apps/frappe/frappe/__init__.py", line 189, in get_site_config
    config.update(get_file_json(site_config))
  File "/home/frappe/frappe-bench/apps/frappe/frappe/__init__.py", line 896, in get_file_json
    return json.load(f)
  File "/usr/lib/python2.7/json/__init__.py", line 290, in load
    **kw)
  File "/usr/lib/python2.7/json/__init__.py", line 338, in loads
    return _default_decoder.decode(s)
  File "/usr/lib/python2.7/json/decoder.py", line 366, in decode
    obj, end = self.raw_decode(s, idx=_w(s, 0).end())
  File "/usr/lib/python2.7/json/decoder.py", line 384, in raw_decode
    raise ValueError("No JSON object could be decoded")
ValueError: No JSON object could be decoded

[ERROR] 2018-06-13 01:14:13,642 | /home/frappe/frappe-bench/apps/frappe/frappe/utils/scheduler.py:
Site: site1.local
Exception in Enqueue Events for Site site1.local
Traceback (most recent call last):
  File "/home/frappe/frappe-bench/apps/frappe/frappe/utils/scheduler.py", line 80, in enqueue_events_for_site
    frappe.init(site=site)
  File "/home/frappe/frappe-bench/apps/frappe/frappe/__init__.py", line 135, in init
    local.conf = _dict(get_site_config())
  File "/home/frappe/frappe-bench/apps/frappe/frappe/__init__.py", line 189, in get_site_config
    config.update(get_file_json(site_config))
  File "/home/frappe/frappe-bench/apps/frappe/frappe/__init__.py", line 896, in get_file_json
    return json.load(f)
  File "/usr/lib/python2.7/json/__init__.py", line 290, in load
    **kw)
  File "/usr/lib/python2.7/json/__init__.py", line 338, in loads
    return _default_decoder.decode(s)
  File "/usr/lib/python2.7/json/decoder.py", line 366, in decode
    obj, end = self.raw_decode(s, idx=_w(s, 0).end())
  File "/usr/lib/python2.7/json/decoder.py", line 384, in raw_decode
    raise ValueError("No JSON object could be decoded")
ValueError: No JSON object could be decoded

[ERROR] 2018-06-13 01:15:13,697 | /home/frappe/frappe-bench/apps/frappe/frappe/utils/scheduler.py:
Site: site1.local
Exception in Enqueue Events for Site site1.local
Traceback (most recent call last):
  File "/home/frappe/frappe-bench/apps/frappe/frappe/utils/scheduler.py", line 80, in enqueue_events_for_site
    frappe.init(site=site)
  File "/home/frappe/frappe-bench/apps/frappe/frappe/__init__.py", line 135, in init
    local.conf = _dict(get_site_config())
  File "/home/frappe/frappe-bench/apps/frappe/frappe/__init__.py", line 189, in get_site_config
    config.update(get_file_json(site_config))
  File "/home/frappe/frappe-bench/apps/frappe/frappe/__init__.py", line 896, in get_file_json
    return json.load(f)
  File "/usr/lib/python2.7/json/__init__.py", line 290, in load
    **kw)
  File "/usr/lib/python2.7/json/__init__.py", line 338, in loads
    return _default_decoder.decode(s)
  File "/usr/lib/python2.7/json/decoder.py", line 366, in decode
    obj, end = self.raw_decode(s, idx=_w(s, 0).end())
  File "/usr/lib/python2.7/json/decoder.py", line 384, in raw_decode
    raise ValueError("No JSON object could be decoded")
ValueError: No JSON object could be decoded

[ERROR] 2018-06-13 01:16:13,750 | /home/frappe/frappe-bench/apps/frappe/frappe/utils/scheduler.py:
Site: site1.local
Exception in Enqueue Events for Site site1.local
Traceback (most recent call last):
  File "/home/frappe/frappe-bench/apps/frappe/frappe/utils/scheduler.py", line 80, in enqueue_events_for_site
    frappe.init(site=site)
  File "/home/frappe/frappe-bench/apps/frappe/frappe/__init__.py", line 135, in init
    local.conf = _dict(get_site_config())
  File "/home/frappe/frappe-bench/apps/frappe/frappe/__init__.py", line 189, in get_site_config
    config.update(get_file_json(site_config))
  File "/home/frappe/frappe-bench/apps/frappe/frappe/__init__.py", line 896, in get_file_json
    return json.load(f)
  File "/usr/lib/python2.7/json/__init__.py", line 290, in load
    **kw)
  File "/usr/lib/python2.7/json/__init__.py", line 338, in loads
    return _default_decoder.decode(s)
  File "/usr/lib/python2.7/json/decoder.py", line 366, in decode
    obj, end = self.raw_decode(s, idx=_w(s, 0).end())
  File "/usr/lib/python2.7/json/decoder.py", line 384, in raw_decode
    raise ValueError("No JSON object could be decoded")
ValueError: No JSON object could be decoded

[ERROR] 2018-06-13 01:17:13,808 | /home/frappe/frappe-bench/apps/frappe/frappe/utils/scheduler.py:
Site: site1.local
Exception in Enqueue Events for Site site1.local
Traceback (most recent call last):
  File "/home/frappe/frappe-bench/apps/frappe/frappe/utils/scheduler.py", line 80, in enqueue_events_for_site
    frappe.init(site=site)
  File "/home/frappe/frappe-bench/apps/frappe/frappe/__init__.py", line 135, in init
    local.conf = _dict(get_site_config())
  File "/home/frappe/frappe-bench/apps/frappe/frappe/__init__.py", line 189, in get_site_config
    config.update(get_file_json(site_config))
  File "/home/frappe/frappe-bench/apps/frappe/frappe/__init__.py", line 896, in get_file_json
    return json.load(f)
  File "/usr/lib/python2.7/json/__init__.py", line 290, in load
    **kw)
  File "/usr/lib/python2.7/json/__init__.py", line 338, in loads
    return _default_decoder.decode(s)
  File "/usr/lib/python2.7/json/decoder.py", line 366, in decode
    obj, end = self.raw_decode(s, idx=_w(s, 0).end())
  File "/usr/lib/python2.7/json/decoder.py", line 384, in raw_decode
    raise ValueError("No JSON object could be decoded")
ValueError: No JSON object could be decoded

[ERROR] 2018-06-13 01:18:13,870 | /home/frappe/frappe-bench/apps/frappe/frappe/utils/scheduler.py:
Site: site1.local
Exception in Enqueue Events for Site site1.local
Traceback (most recent call last):
  File "/home/frappe/frappe-bench/apps/frappe/frappe/utils/scheduler.py", line 80, in enqueue_events_for_site
    frappe.init(site=site)
  File "/home/frappe/frappe-bench/apps/frappe/frappe/__init__.py", line 135, in init
    local.conf = _dict(get_site_config())
  File "/home/frappe/frappe-bench/apps/frappe/frappe/__init__.py", line 189, in get_site_config
    config.update(get_file_json(site_config))
  File "/home/frappe/frappe-bench/apps/frappe/frappe/__init__.py", line 896, in get_file_json
    return json.load(f)
  File "/usr/lib/python2.7/json/__init__.py", line 290, in load
    **kw)
  File "/usr/lib/python2.7/json/__init__.py", line 338, in loads
    return _default_decoder.decode(s)
  File "/usr/lib/python2.7/json/decoder.py", line 366, in decode
    obj, end = self.raw_decode(s, idx=_w(s, 0).end())
  File "/usr/lib/python2.7/json/decoder.py", line 384, in raw_decode
    raise ValueError("No JSON object could be decoded")
ValueError: No JSON object could be decoded

[ERROR] 2018-06-13 01:19:13,921 | /home/frappe/frappe-bench/apps/frappe/frappe/utils/scheduler.py:
Site: site1.local
Exception in Enqueue Events for Site site1.local
Traceback (most recent call last):
  File "/home/frappe/frappe-bench/apps/frappe/frappe/utils/scheduler.py", line 80, in enqueue_events_for_site
    frappe.init(site=site)
  File "/home/frappe/frappe-bench/apps/frappe/frappe/__init__.py", line 135, in init
    local.conf = _dict(get_site_config())
  File "/home/frappe/frappe-bench/apps/frappe/frappe/__init__.py", line 189, in get_site_config
    config.update(get_file_json(site_config))
  File "/home/frappe/frappe-bench/apps/frappe/frappe/__init__.py", line 896, in get_file_json
    return json.load(f)
  File "/usr/lib/python2.7/json/__init__.py", line 290, in load
    **kw)
  File "/usr/lib/python2.7/json/__init__.py", line 338, in loads
    return _default_decoder.decode(s)
  File "/usr/lib/python2.7/json/decoder.py", line 366, in decode
    obj, end = self.raw_decode(s, idx=_w(s, 0).end())
  File "/usr/lib/python2.7/json/decoder.py", line 384, in raw_decode
    raise ValueError("No JSON object could be decoded")
ValueError: No JSON object could be decoded

[ERROR] 2018-06-13 01:20:13,981 | /home/frappe/frappe-bench/apps/frappe/frappe/utils/scheduler.py:
Site: site1.local
Exception in Enqueue Events for Site site1.local
Traceback (most recent call last):
  File "/home/frappe/frappe-bench/apps/frappe/frappe/utils/scheduler.py", line 80, in enqueue_events_for_site
    frappe.init(site=site)
  File "/home/frappe/frappe-bench/apps/frappe/frappe/__init__.py", line 135, in init
    local.conf = _dict(get_site_config())
  File "/home/frappe/frappe-bench/apps/frappe/frappe/__init__.py", line 189, in get_site_config
    config.update(get_file_json(site_config))
  File "/home/frappe/frappe-bench/apps/frappe/frappe/__init__.py", line 896, in get_file_json
    return json.load(f)
  File "/usr/lib/python2.7/json/__init__.py", line 290, in load
    **kw)
  File "/usr/lib/python2.7/json/__init__.py", line 338, in loads
    return _default_decoder.decode(s)
  File "/usr/lib/python2.7/json/decoder.py", line 366, in decode
    obj, end = self.raw_decode(s, idx=_w(s, 0).end())
  File "/usr/lib/python2.7/json/decoder.py", line 384, in raw_decode
    raise ValueError("No JSON object could be decoded")
ValueError: No JSON object could be decoded

[ERROR] 2018-06-13 01:21:14,036 | /home/frappe/frappe-bench/apps/frappe/frappe/utils/scheduler.py:
Site: site1.local
Exception in Enqueue Events for Site site1.local
Traceback (most recent call last):
  File "/home/frappe/frappe-bench/apps/frappe/frappe/utils/scheduler.py", line 80, in enqueue_events_for_site
    frappe.init(site=site)
  File "/home/frappe/frappe-bench/apps/frappe/frappe/__init__.py", line 135, in init
    local.conf = _dict(get_site_config())
  File "/home/frappe/frappe-bench/apps/frappe/frappe/__init__.py", line 189, in get_site_config
    config.update(get_file_json(site_config))
  File "/home/frappe/frappe-bench/apps/frappe/frappe/__init__.py", line 896, in get_file_json
    return json.load(f)
  File "/usr/lib/python2.7/json/__init__.py", line 290, in load
    **kw)
  File "/usr/lib/python2.7/json/__init__.py", line 338, in loads
    return _default_decoder.decode(s)
  File "/usr/lib/python2.7/json/decoder.py", line 366, in decode
    obj, end = self.raw_decode(s, idx=_w(s, 0).end())
  File "/usr/lib/python2.7/json/decoder.py", line 384, in raw_decode
    raise ValueError("No JSON object could be decoded")
ValueError: No JSON object could be decoded

[ERROR] 2018-06-13 01:22:14,094 | /home/frappe/frappe-bench/apps/frappe/frappe/utils/scheduler.py:
Site: site1.local
Exception in Enqueue Events for Site site1.local
Traceback (most recent call last):
  File "/home/frappe/frappe-bench/apps/frappe/frappe/utils/scheduler.py", line 80, in enqueue_events_for_site
    frappe.init(site=site)
  File "/home/frappe/frappe-bench/apps/frappe/frappe/__init__.py", line 135, in init
    local.conf = _dict(get_site_config())
  File "/home/frappe/frappe-bench/apps/frappe/frappe/__init__.py", line 189, in get_site_config
    config.update(get_file_json(site_config))
  File "/home/frappe/frappe-bench/apps/frappe/frappe/__init__.py", line 896, in get_file_json
    return json.load(f)
  File "/usr/lib/python2.7/json/__init__.py", line 290, in load
    **kw)
  File "/usr/lib/python2.7/json/__init__.py", line 338, in loads
    return _default_decoder.decode(s)
  File "/usr/lib/python2.7/json/decoder.py", line 366, in decode
    obj, end = self.raw_decode(s, idx=_w(s, 0).end())
  File "/usr/lib/python2.7/json/decoder.py", line 384, in raw_decode
    raise ValueError("No JSON object could be decoded")
ValueError: No JSON object could be decoded

[ERROR] 2018-06-13 01:23:14,151 | /home/frappe/frappe-bench/apps/frappe/frappe/utils/scheduler.py:
Site: site1.local
Exception in Enqueue Events for Site site1.local
Traceback (most recent call last):
  File "/home/frappe/frappe-bench/apps/frappe/frappe/utils/scheduler.py", line 80, in enqueue_events_for_site
    frappe.init(site=site)
  File "/home/frappe/frappe-bench/apps/frappe/frappe/__init__.py", line 135, in init
    local.conf = _dict(get_site_config())
  File "/home/frappe/frappe-bench/apps/frappe/frappe/__init__.py", line 189, in get_site_config
    config.update(get_file_json(site_config))
  File "/home/frappe/frappe-bench/apps/frappe/frappe/__init__.py", line 896, in get_file_json
    return json.load(f)
  File "/usr/lib/python2.7/json/__init__.py", line 290, in load
    **kw)
  File "/usr/lib/python2.7/json/__init__.py", line 338, in loads
    return _default_decoder.decode(s)
  File "/usr/lib/python2.7/json/decoder.py", line 366, in decode
    obj, end = self.raw_decode(s, idx=_w(s, 0).end())
  File "/usr/lib/python2.7/json/decoder.py", line 384, in raw_decode
    raise ValueError("No JSON object could be decoded")
ValueError: No JSON object could be decoded

[ERROR] 2018-06-13 01:24:14,206 | /home/frappe/frappe-bench/apps/frappe/frappe/utils/scheduler.py:
Site: site1.local
Exception in Enqueue Events for Site site1.local
Traceback (most recent call last):
  File "/home/frappe/frappe-bench/apps/frappe/frappe/utils/scheduler.py", line 80, in enqueue_events_for_site
    frappe.init(site=site)
  File "/home/frappe/frappe-bench/apps/frappe/frappe/__init__.py", line 135, in init
    local.conf = _dict(get_site_config())
  File "/home/frappe/frappe-bench/apps/frappe/frappe/__init__.py", line 189, in get_site_config
    config.update(get_file_json(site_config))
  File "/home/frappe/frappe-bench/apps/frappe/frappe/__init__.py", line 896, in get_file_json
    return json.load(f)
  File "/usr/lib/python2.7/json/__init__.py", line 290, in load
    **kw)
  File "/usr/lib/python2.7/json/__init__.py", line 338, in loads
    return _default_decoder.decode(s)
  File "/usr/lib/python2.7/json/decoder.py", line 366, in decode
    obj, end = self.raw_decode(s, idx=_w(s, 0).end())
  File "/usr/lib/python2.7/json/decoder.py", line 384, in raw_decode
    raise ValueError("No JSON object could be decoded")
ValueError: No JSON object could be decoded

[ERROR] 2018-06-13 01:25:14,262 | /home/frappe/frappe-bench/apps/frappe/frappe/utils/scheduler.py:
Site: site1.local
Exception in Enqueue Events for Site site1.local
Traceback (most recent call last):
  File "/home/frappe/frappe-bench/apps/frappe/frappe/utils/scheduler.py", line 80, in enqueue_events_for_site
    frappe.init(site=site)
  File "/home/frappe/frappe-bench/apps/frappe/frappe/__init__.py", line 135, in init
    local.conf = _dict(get_site_config())
  File "/home/frappe/frappe-bench/apps/frappe/frappe/__init__.py", line 189, in get_site_config
    config.update(get_file_json(site_config))
  File "/home/frappe/frappe-bench/apps/frappe/frappe/__init__.py", line 896, in get_file_json
    return json.load(f)
  File "/usr/lib/python2.7/json/__init__.py", line 290, in load
    **kw)
  File "/usr/lib/python2.7/json/__init__.py", line 338, in loads
    return _default_decoder.decode(s)
  File "/usr/lib/python2.7/json/decoder.py", line 366, in decode
    obj, end = self.raw_decode(s, idx=_w(s, 0).end())
  File "/usr/lib/python2.7/json/decoder.py", line 384, in raw_decode
    raise ValueError("No JSON object could be decoded")
ValueError: No JSON object could be decoded

[ERROR] 2018-06-13 01:26:14,319 | /home/frappe/frappe-bench/apps/frappe/frappe/utils/scheduler.py:
Site: site1.local
Exception in Enqueue Events for Site site1.local
Traceback (most recent call last):
  File "/home/frappe/frappe-bench/apps/frappe/frappe/utils/scheduler.py", line 80, in enqueue_events_for_site
    frappe.init(site=site)
  File "/home/frappe/frappe-bench/apps/frappe/frappe/__init__.py", line 135, in init
    local.conf = _dict(get_site_config())
  File "/home/frappe/frappe-bench/apps/frappe/frappe/__init__.py", line 189, in get_site_config
    config.update(get_file_json(site_config))
  File "/home/frappe/frappe-bench/apps/frappe/frappe/__init__.py", line 896, in get_file_json
    return json.load(f)
  File "/usr/lib/python2.7/json/__init__.py", line 290, in load
    **kw)
  File "/usr/lib/python2.7/json/__init__.py", line 338, in loads
    return _default_decoder.decode(s)
  File "/usr/lib/python2.7/json/decoder.py", line 366, in decode
    obj, end = self.raw_decode(s, idx=_w(s, 0).end())
  File "/usr/lib/python2.7/json/decoder.py", line 384, in raw_decode
    raise ValueError("No JSON object could be decoded")
ValueError: No JSON object could be decoded

[ERROR] 2018-06-13 01:27:14,375 | /home/frappe/frappe-bench/apps/frappe/frappe/utils/scheduler.py:
Site: site1.local
Exception in Enqueue Events for Site site1.local
Traceback (most recent call last):
  File "/home/frappe/frappe-bench/apps/frappe/frappe/utils/scheduler.py", line 80, in enqueue_events_for_site
    frappe.init(site=site)
  File "/home/frappe/frappe-bench/apps/frappe/frappe/__init__.py", line 135, in init
    local.conf = _dict(get_site_config())
  File "/home/frappe/frappe-bench/apps/frappe/frappe/__init__.py", line 189, in get_site_config
    config.update(get_file_json(site_config))
  File "/home/frappe/frappe-bench/apps/frappe/frappe/__init__.py", line 896, in get_file_json
    return json.load(f)
  File "/usr/lib/python2.7/json/__init__.py", line 290, in load
    **kw)
  File "/usr/lib/python2.7/json/__init__.py", line 338, in loads
    return _default_decoder.decode(s)
  File "/usr/lib/python2.7/json/decoder.py", line 366, in decode
    obj, end = self.raw_decode(s, idx=_w(s, 0).end())
  File "/usr/lib/python2.7/json/decoder.py", line 384, in raw_decode
    raise ValueError("No JSON object could be decoded")
ValueError: No JSON object could be decoded

[ERROR] 2018-06-13 01:28:14,432 | /home/frappe/frappe-bench/apps/frappe/frappe/utils/scheduler.py:
Site: site1.local
Exception in Enqueue Events for Site site1.local
Traceback (most recent call last):
  File "/home/frappe/frappe-bench/apps/frappe/frappe/utils/scheduler.py", line 80, in enqueue_events_for_site
    frappe.init(site=site)
  File "/home/frappe/frappe-bench/apps/frappe/frappe/__init__.py", line 135, in init
    local.conf = _dict(get_site_config())
  File "/home/frappe/frappe-bench/apps/frappe/frappe/__init__.py", line 189, in get_site_config
    config.update(get_file_json(site_config))
  File "/home/frappe/frappe-bench/apps/frappe/frappe/__init__.py", line 896, in get_file_json
    return json.load(f)
  File "/usr/lib/python2.7/json/__init__.py", line 290, in load
    **kw)
  File "/usr/lib/python2.7/json/__init__.py", line 338, in loads
    return _default_decoder.decode(s)
  File "/usr/lib/python2.7/json/decoder.py", line 366, in decode
    obj, end = self.raw_decode(s, idx=_w(s, 0).end())
  File "/usr/lib/python2.7/json/decoder.py", line 384, in raw_decode
    raise ValueError("No JSON object could be decoded")
ValueError: No JSON object could be decoded

[ERROR] 2018-06-13 01:29:14,488 | /home/frappe/frappe-bench/apps/frappe/frappe/utils/scheduler.py:
Site: site1.local
Exception in Enqueue Events for Site site1.local
Traceback (most recent call last):
  File "/home/frappe/frappe-bench/apps/frappe/frappe/utils/scheduler.py", line 80, in enqueue_events_for_site
    frappe.init(site=site)
  File "/home/frappe/frappe-bench/apps/frappe/frappe/__init__.py", line 135, in init
    local.conf = _dict(get_site_config())
  File "/home/frappe/frappe-bench/apps/frappe/frappe/__init__.py", line 189, in get_site_config
    config.update(get_file_json(site_config))
  File "/home/frappe/frappe-bench/apps/frappe/frappe/__init__.py", line 896, in get_file_json
    return json.load(f)
  File "/usr/lib/python2.7/json/__init__.py", line 290, in load
    **kw)
  File "/usr/lib/python2.7/json/__init__.py", line 338, in loads
    return _default_decoder.decode(s)
  File "/usr/lib/python2.7/json/decoder.py", line 366, in decode
    obj, end = self.raw_decode(s, idx=_w(s, 0).end())
  File "/usr/lib/python2.7/json/decoder.py", line 384, in raw_decode
    raise ValueError("No JSON object could be decoded")
ValueError: No JSON object could be decoded

[ERROR] 2018-06-13 01:30:14,544 | /home/frappe/frappe-bench/apps/frappe/frappe/utils/scheduler.py:
Site: site1.local
Exception in Enqueue Events for Site site1.local
Traceback (most recent call last):
  File "/home/frappe/frappe-bench/apps/frappe/frappe/utils/scheduler.py", line 80, in enqueue_events_for_site
    frappe.init(site=site)
  File "/home/frappe/frappe-bench/apps/frappe/frappe/__init__.py", line 135, in init
    local.conf = _dict(get_site_config())
  File "/home/frappe/frappe-bench/apps/frappe/frappe/__init__.py", line 189, in get_site_config
    config.update(get_file_json(site_config))
  File "/home/frappe/frappe-bench/apps/frappe/frappe/__init__.py", line 896, in get_file_json
    return json.load(f)
  File "/usr/lib/python2.7/json/__init__.py", line 290, in load
    **kw)
  File "/usr/lib/python2.7/json/__init__.py", line 338, in loads
    return _default_decoder.decode(s)
  File "/usr/lib/python2.7/json/decoder.py", line 366, in decode
    obj, end = self.raw_decode(s, idx=_w(s, 0).end())
  File "/usr/lib/python2.7/json/decoder.py", line 384, in raw_decode
    raise ValueError("No JSON object could be decoded")
ValueError: No JSON object could be decoded

[ERROR] 2018-06-13 01:31:14,599 | /home/frappe/frappe-bench/apps/frappe/frappe/utils/scheduler.py:
Site: site1.local
Exception in Enqueue Events for Site site1.local
Traceback (most recent call last):
  File "/home/frappe/frappe-bench/apps/frappe/frappe/utils/scheduler.py", line 80, in enqueue_events_for_site
    frappe.init(site=site)
  File "/home/frappe/frappe-bench/apps/frappe/frappe/__init__.py", line 135, in init
    local.conf = _dict(get_site_config())
  File "/home/frappe/frappe-bench/apps/frappe/frappe/__init__.py", line 189, in get_site_config
    config.update(get_file_json(site_config))
  File "/home/frappe/frappe-bench/apps/frappe/frappe/__init__.py", line 896, in get_file_json
    return json.load(f)
  File "/usr/lib/python2.7/json/__init__.py", line 290, in load
    **kw)
  File "/usr/lib/python2.7/json/__init__.py", line 338, in loads
    return _default_decoder.decode(s)
  File "/usr/lib/python2.7/json/decoder.py", line 366, in decode
    obj, end = self.raw_decode(s, idx=_w(s, 0).end())
  File "/usr/lib/python2.7/json/decoder.py", line 384, in raw_decode
    raise ValueError("No JSON object could be decoded")
ValueError: No JSON object could be decoded

[ERROR] 2018-06-13 01:32:14,658 | /home/frappe/frappe-bench/apps/frappe/frappe/utils/scheduler.py:
Site: site1.local
Exception in Enqueue Events for Site site1.local
Traceback (most recent call last):
  File "/home/frappe/frappe-bench/apps/frappe/frappe/utils/scheduler.py", line 80, in enqueue_events_for_site
    frappe.init(site=site)
  File "/home/frappe/frappe-bench/apps/frappe/frappe/__init__.py", line 135, in init
    local.conf = _dict(get_site_config())
  File "/home/frappe/frappe-bench/apps/frappe/frappe/__init__.py", line 189, in get_site_config
    config.update(get_file_json(site_config))
  File "/home/frappe/frappe-bench/apps/frappe/frappe/__init__.py", line 896, in get_file_json
    return json.load(f)
  File "/usr/lib/python2.7/json/__init__.py", line 290, in load
    **kw)
  File "/usr/lib/python2.7/json/__init__.py", line 338, in loads
    return _default_decoder.decode(s)
  File "/usr/lib/python2.7/json/decoder.py", line 366, in decode
    obj, end = self.raw_decode(s, idx=_w(s, 0).end())
  File "/usr/lib/python2.7/json/decoder.py", line 384, in raw_decode
    raise ValueError("No JSON object could be decoded")
ValueError: No JSON object could be decoded

[ERROR] 2018-06-13 01:33:14,712 | /home/frappe/frappe-bench/apps/frappe/frappe/utils/scheduler.py:
Site: site1.local
Exception in Enqueue Events for Site site1.local
Traceback (most recent call last):
  File "/home/frappe/frappe-bench/apps/frappe/frappe/utils/scheduler.py", line 80, in enqueue_events_for_site
    frappe.init(site=site)
  File "/home/frappe/frappe-bench/apps/frappe/frappe/__init__.py", line 135, in init
    local.conf = _dict(get_site_config())
  File "/home/frappe/frappe-bench/apps/frappe/frappe/__init__.py", line 189, in get_site_config
    config.update(get_file_json(site_config))
  File "/home/frappe/frappe-bench/apps/frappe/frappe/__init__.py", line 896, in get_file_json
    return json.load(f)
  File "/usr/lib/python2.7/json/__init__.py", line 290, in load
    **kw)
  File "/usr/lib/python2.7/json/__init__.py", line 338, in loads
    return _default_decoder.decode(s)
  File "/usr/lib/python2.7/json/decoder.py", line 366, in decode
    obj, end = self.raw_decode(s, idx=_w(s, 0).end())
  File "/usr/lib/python2.7/json/decoder.py", line 384, in raw_decode
    raise ValueError("No JSON object could be decoded")
ValueError: No JSON object could be decoded

[ERROR] 2018-06-13 01:34:14,768 | /home/frappe/frappe-bench/apps/frappe/frappe/utils/scheduler.py:
Site: site1.local
Exception in Enqueue Events for Site site1.local
Traceback (most recent call last):
  File "/home/frappe/frappe-bench/apps/frappe/frappe/utils/scheduler.py", line 80, in enqueue_events_for_site
    frappe.init(site=site)
  File "/home/frappe/frappe-bench/apps/frappe/frappe/__init__.py", line 135, in init
    local.conf = _dict(get_site_config())
  File "/home/frappe/frappe-bench/apps/frappe/frappe/__init__.py", line 189, in get_site_config
    config.update(get_file_json(site_config))
  File "/home/frappe/frappe-bench/apps/frappe/frappe/__init__.py", line 896, in get_file_json
    return json.load(f)
  File "/usr/lib/python2.7/json/__init__.py", line 290, in load
    **kw)
  File "/usr/lib/python2.7/json/__init__.py", line 338, in loads
    return _default_decoder.decode(s)
  File "/usr/lib/python2.7/json/decoder.py", line 366, in decode
    obj, end = self.raw_decode(s, idx=_w(s, 0).end())
  File "/usr/lib/python2.7/json/decoder.py", line 384, in raw_decode
    raise ValueError("No JSON object could be decoded")
ValueError: No JSON object could be decoded

[ERROR] 2018-06-13 01:35:14,838 | /home/frappe/frappe-bench/apps/frappe/frappe/utils/scheduler.py:
Site: site1.local
Exception in Enqueue Events for Site site1.local
Traceback (most recent call last):
  File "/home/frappe/frappe-bench/apps/frappe/frappe/utils/scheduler.py", line 80, in enqueue_events_for_site
    frappe.init(site=site)
  File "/home/frappe/frappe-bench/apps/frappe/frappe/__init__.py", line 135, in init
    local.conf = _dict(get_site_config())
  File "/home/frappe/frappe-bench/apps/frappe/frappe/__init__.py", line 189, in get_site_config
    config.update(get_file_json(site_config))
  File "/home/frappe/frappe-bench/apps/frappe/frappe/__init__.py", line 896, in get_file_json
    return json.load(f)
  File "/usr/lib/python2.7/json/__init__.py", line 290, in load
    **kw)
  File "/usr/lib/python2.7/json/__init__.py", line 338, in loads
    return _default_decoder.decode(s)
  File "/usr/lib/python2.7/json/decoder.py", line 366, in decode
    obj, end = self.raw_decode(s, idx=_w(s, 0).end())
  File "/usr/lib/python2.7/json/decoder.py", line 384, in raw_decode
    raise ValueError("No JSON object could be decoded")
ValueError: No JSON object could be decoded

[ERROR] 2018-06-13 01:36:14,892 | /home/frappe/frappe-bench/apps/frappe/frappe/utils/scheduler.py:
Site: site1.local
Exception in Enqueue Events for Site site1.local
Traceback (most recent call last):
  File "/home/frappe/frappe-bench/apps/frappe/frappe/utils/scheduler.py", line 80, in enqueue_events_for_site
    frappe.init(site=site)
  File "/home/frappe/frappe-bench/apps/frappe/frappe/__init__.py", line 135, in init
    local.conf = _dict(get_site_config())
  File "/home/frappe/frappe-bench/apps/frappe/frappe/__init__.py", line 189, in get_site_config
    config.update(get_file_json(site_config))
  File "/home/frappe/frappe-bench/apps/frappe/frappe/__init__.py", line 896, in get_file_json
    return json.load(f)
  File "/usr/lib/python2.7/json/__init__.py", line 290, in load
    **kw)
  File "/usr/lib/python2.7/json/__init__.py", line 338, in loads
    return _default_decoder.decode(s)
  File "/usr/lib/python2.7/json/decoder.py", line 366, in decode
    obj, end = self.raw_decode(s, idx=_w(s, 0).end())
  File "/usr/lib/python2.7/json/decoder.py", line 384, in raw_decode
    raise ValueError("No JSON object could be decoded")
ValueError: No JSON object could be decoded

[ERROR] 2018-06-13 01:37:14,950 | /home/frappe/frappe-bench/apps/frappe/frappe/utils/scheduler.py:
Site: site1.local
Exception in Enqueue Events for Site site1.local
Traceback (most recent call last):
  File "/home/frappe/frappe-bench/apps/frappe/frappe/utils/scheduler.py", line 80, in enqueue_events_for_site
    frappe.init(site=site)
  File "/home/frappe/frappe-bench/apps/frappe/frappe/__init__.py", line 135, in init
    local.conf = _dict(get_site_config())
  File "/home/frappe/frappe-bench/apps/frappe/frappe/__init__.py", line 189, in get_site_config
    config.update(get_file_json(site_config))
  File "/home/frappe/frappe-bench/apps/frappe/frappe/__init__.py", line 896, in get_file_json
    return json.load(f)
  File "/usr/lib/python2.7/json/__init__.py", line 290, in load
    **kw)
  File "/usr/lib/python2.7/json/__init__.py", line 338, in loads
    return _default_decoder.decode(s)
  File "/usr/lib/python2.7/json/decoder.py", line 366, in decode
    obj, end = self.raw_decode(s, idx=_w(s, 0).end())
  File "/usr/lib/python2.7/json/decoder.py", line 384, in raw_decode
    raise ValueError("No JSON object could be decoded")
ValueError: No JSON object could be decoded

[ERROR] 2018-06-13 01:38:15,007 | /home/frappe/frappe-bench/apps/frappe/frappe/utils/scheduler.py:
Site: site1.local
Exception in Enqueue Events for Site site1.local
Traceback (most recent call last):
  File "/home/frappe/frappe-bench/apps/frappe/frappe/utils/scheduler.py", line 80, in enqueue_events_for_site
    frappe.init(site=site)
  File "/home/frappe/frappe-bench/apps/frappe/frappe/__init__.py", line 135, in init
    local.conf = _dict(get_site_config())
  File "/home/frappe/frappe-bench/apps/frappe/frappe/__init__.py", line 189, in get_site_config
    config.update(get_file_json(site_config))
  File "/home/frappe/frappe-bench/apps/frappe/frappe/__init__.py", line 896, in get_file_json
    return json.load(f)
  File "/usr/lib/python2.7/json/__init__.py", line 290, in load
    **kw)
  File "/usr/lib/python2.7/json/__init__.py", line 338, in loads
    return _default_decoder.decode(s)
  File "/usr/lib/python2.7/json/decoder.py", line 366, in decode
    obj, end = self.raw_decode(s, idx=_w(s, 0).end())
  File "/usr/lib/python2.7/json/decoder.py", line 384, in raw_decode
    raise ValueError("No JSON object could be decoded")
ValueError: No JSON object could be decoded

[ERROR] 2018-06-13 01:39:15,062 | /home/frappe/frappe-bench/apps/frappe/frappe/utils/scheduler.py:
Site: site1.local
Exception in Enqueue Events for Site site1.local
Traceback (most recent call last):
  File "/home/frappe/frappe-bench/apps/frappe/frappe/utils/scheduler.py", line 80, in enqueue_events_for_site
    frappe.init(site=site)
  File "/home/frappe/frappe-bench/apps/frappe/frappe/__init__.py", line 135, in init
    local.conf = _dict(get_site_config())
  File "/home/frappe/frappe-bench/apps/frappe/frappe/__init__.py", line 189, in get_site_config
    config.update(get_file_json(site_config))
  File "/home/frappe/frappe-bench/apps/frappe/frappe/__init__.py", line 896, in get_file_json
    return json.load(f)
  File "/usr/lib/python2.7/json/__init__.py", line 290, in load
    **kw)
  File "/usr/lib/python2.7/json/__init__.py", line 338, in loads
    return _default_decoder.decode(s)
  File "/usr/lib/python2.7/json/decoder.py", line 366, in decode
    obj, end = self.raw_decode(s, idx=_w(s, 0).end())
  File "/usr/lib/python2.7/json/decoder.py", line 384, in raw_decode
    raise ValueError("No JSON object could be decoded")
ValueError: No JSON object could be decoded

[ERROR] 2018-06-13 01:40:15,140 | /home/frappe/frappe-bench/apps/frappe/frappe/utils/scheduler.py:
Site: site1.local
Exception in Enqueue Events for Site site1.local
Traceback (most recent call last):
  File "/home/frappe/frappe-bench/apps/frappe/frappe/utils/scheduler.py", line 80, in enqueue_events_for_site
    frappe.init(site=site)
  File "/home/frappe/frappe-bench/apps/frappe/frappe/__init__.py", line 135, in init
    local.conf = _dict(get_site_config())
  File "/home/frappe/frappe-bench/apps/frappe/frappe/__init__.py", line 189, in get_site_config
    config.update(get_file_json(site_config))
  File "/home/frappe/frappe-bench/apps/frappe/frappe/__init__.py", line 896, in get_file_json
    return json.load(f)
  File "/usr/lib/python2.7/json/__init__.py", line 290, in load
    **kw)
  File "/usr/lib/python2.7/json/__init__.py", line 338, in loads
    return _default_decoder.decode(s)
  File "/usr/lib/python2.7/json/decoder.py", line 366, in decode
    obj, end = self.raw_decode(s, idx=_w(s, 0).end())
  File "/usr/lib/python2.7/json/decoder.py", line 384, in raw_decode
    raise ValueError("No JSON object could be decoded")
ValueError: No JSON object could be decoded

[ERROR] 2018-06-13 01:41:15,198 | /home/frappe/frappe-bench/apps/frappe/frappe/utils/scheduler.py:
Site: site1.local
Exception in Enqueue Events for Site site1.local
Traceback (most recent call last):
  File "/home/frappe/frappe-bench/apps/frappe/frappe/utils/scheduler.py", line 80, in enqueue_events_for_site
    frappe.init(site=site)
  File "/home/frappe/frappe-bench/apps/frappe/frappe/__init__.py", line 135, in init
    local.conf = _dict(get_site_config())
  File "/home/frappe/frappe-bench/apps/frappe/frappe/__init__.py", line 189, in get_site_config
    config.update(get_file_json(site_config))
  File "/home/frappe/frappe-bench/apps/frappe/frappe/__init__.py", line 896, in get_file_json
    return json.load(f)
  File "/usr/lib/python2.7/json/__init__.py", line 290, in load
    **kw)
  File "/usr/lib/python2.7/json/__init__.py", line 338, in loads
    return _default_decoder.decode(s)
  File "/usr/lib/python2.7/json/decoder.py", line 366, in decode
    obj, end = self.raw_decode(s, idx=_w(s, 0).end())
  File "/usr/lib/python2.7/json/decoder.py", line 384, in raw_decode
    raise ValueError("No JSON object could be decoded")
ValueError: No JSON object could be decoded

[ERROR] 2018-06-13 01:42:15,264 | /home/frappe/frappe-bench/apps/frappe/frappe/utils/scheduler.py:
Site: site1.local
Exception in Enqueue Events for Site site1.local
Traceback (most recent call last):
  File "/home/frappe/frappe-bench/apps/frappe/frappe/utils/scheduler.py", line 80, in enqueue_events_for_site
    frappe.init(site=site)
  File "/home/frappe/frappe-bench/apps/frappe/frappe/__init__.py", line 135, in init
    local.conf = _dict(get_site_config())
  File "/home/frappe/frappe-bench/apps/frappe/frappe/__init__.py", line 189, in get_site_config
    config.update(get_file_json(site_config))
  File "/home/frappe/frappe-bench/apps/frappe/frappe/__init__.py", line 896, in get_file_json
    return json.load(f)
  File "/usr/lib/python2.7/json/__init__.py", line 290, in load
    **kw)
  File "/usr/lib/python2.7/json/__init__.py", line 338, in loads
    return _default_decoder.decode(s)
  File "/usr/lib/python2.7/json/decoder.py", line 366, in decode
    obj, end = self.raw_decode(s, idx=_w(s, 0).end())
  File "/usr/lib/python2.7/json/decoder.py", line 384, in raw_decode
    raise ValueError("No JSON object could be decoded")
ValueError: No JSON object could be decoded

[ERROR] 2018-06-13 01:43:15,319 | /home/frappe/frappe-bench/apps/frappe/frappe/utils/scheduler.py:
Site: site1.local
Exception in Enqueue Events for Site site1.local
Traceback (most recent call last):
  File "/home/frappe/frappe-bench/apps/frappe/frappe/utils/scheduler.py", line 80, in enqueue_events_for_site
    frappe.init(site=site)
  File "/home/frappe/frappe-bench/apps/frappe/frappe/__init__.py", line 135, in init
    local.conf = _dict(get_site_config())
  File "/home/frappe/frappe-bench/apps/frappe/frappe/__init__.py", line 189, in get_site_config
    config.update(get_file_json(site_config))
  File "/home/frappe/frappe-bench/apps/frappe/frappe/__init__.py", line 896, in get_file_json
    return json.load(f)
  File "/usr/lib/python2.7/json/__init__.py", line 290, in load
    **kw)
  File "/usr/lib/python2.7/json/__init__.py", line 338, in loads
    return _default_decoder.decode(s)
  File "/usr/lib/python2.7/json/decoder.py", line 366, in decode
    obj, end = self.raw_decode(s, idx=_w(s, 0).end())
  File "/usr/lib/python2.7/json/decoder.py", line 384, in raw_decode
    raise ValueError("No JSON object could be decoded")
ValueError: No JSON object could be decoded

[ERROR] 2018-06-13 01:44:15,376 | /home/frappe/frappe-bench/apps/frappe/frappe/utils/scheduler.py:
Site: site1.local
Exception in Enqueue Events for Site site1.local
Traceback (most recent call last):
  File "/home/frappe/frappe-bench/apps/frappe/frappe/utils/scheduler.py", line 80, in enqueue_events_for_site
    frappe.init(site=site)
  File "/home/frappe/frappe-bench/apps/frappe/frappe/__init__.py", line 135, in init
    local.conf = _dict(get_site_config())
  File "/home/frappe/frappe-bench/apps/frappe/frappe/__init__.py", line 189, in get_site_config
    config.update(get_file_json(site_config))
  File "/home/frappe/frappe-bench/apps/frappe/frappe/__init__.py", line 896, in get_file_json
    return json.load(f)
  File "/usr/lib/python2.7/json/__init__.py", line 290, in load
    **kw)
  File "/usr/lib/python2.7/json/__init__.py", line 338, in loads
    return _default_decoder.decode(s)
  File "/usr/lib/python2.7/json/decoder.py", line 366, in decode
    obj, end = self.raw_decode(s, idx=_w(s, 0).end())
  File "/usr/lib/python2.7/json/decoder.py", line 384, in raw_decode
    raise ValueError("No JSON object could be decoded")
ValueError: No JSON object could be decoded

[ERROR] 2018-06-13 01:45:15,432 | /home/frappe/frappe-bench/apps/frappe/frappe/utils/scheduler.py:
Site: site1.local
Exception in Enqueue Events for Site site1.local
Traceback (most recent call last):
  File "/home/frappe/frappe-bench/apps/frappe/frappe/utils/scheduler.py", line 80, in enqueue_events_for_site
    frappe.init(site=site)
  File "/home/frappe/frappe-bench/apps/frappe/frappe/__init__.py", line 135, in init
    local.conf = _dict(get_site_config())
  File "/home/frappe/frappe-bench/apps/frappe/frappe/__init__.py", line 189, in get_site_config
    config.update(get_file_json(site_config))
  File "/home/frappe/frappe-bench/apps/frappe/frappe/__init__.py", line 896, in get_file_json
    return json.load(f)
  File "/usr/lib/python2.7/json/__init__.py", line 290, in load
    **kw)
  File "/usr/lib/python2.7/json/__init__.py", line 338, in loads
    return _default_decoder.decode(s)
  File "/usr/lib/python2.7/json/decoder.py", line 366, in decode
    obj, end = self.raw_decode(s, idx=_w(s, 0).end())
  File "/usr/lib/python2.7/json/decoder.py", line 384, in raw_decode
    raise ValueError("No JSON object could be decoded")
ValueError: No JSON object could be decoded

[ERROR] 2018-06-13 01:46:15,489 | /home/frappe/frappe-bench/apps/frappe/frappe/utils/scheduler.py:
Site: site1.local
Exception in Enqueue Events for Site site1.local
Traceback (most recent call last):
  File "/home/frappe/frappe-bench/apps/frappe/frappe/utils/scheduler.py", line 80, in enqueue_events_for_site
    frappe.init(site=site)
  File "/home/frappe/frappe-bench/apps/frappe/frappe/__init__.py", line 135, in init
    local.conf = _dict(get_site_config())
  File "/home/frappe/frappe-bench/apps/frappe/frappe/__init__.py", line 189, in get_site_config
    config.update(get_file_json(site_config))
  File "/home/frappe/frappe-bench/apps/frappe/frappe/__init__.py", line 896, in get_file_json
    return json.load(f)
  File "/usr/lib/python2.7/json/__init__.py", line 290, in load
    **kw)
  File "/usr/lib/python2.7/json/__init__.py", line 338, in loads
    return _default_decoder.decode(s)
  File "/usr/lib/python2.7/json/decoder.py", line 366, in decode
    obj, end = self.raw_decode(s, idx=_w(s, 0).end())
  File "/usr/lib/python2.7/json/decoder.py", line 384, in raw_decode
    raise ValueError("No JSON object could be decoded")
ValueError: No JSON object could be decoded

[ERROR] 2018-06-13 01:47:15,552 | /home/frappe/frappe-bench/apps/frappe/frappe/utils/scheduler.py:
Site: site1.local
Exception in Enqueue Events for Site site1.local
Traceback (most recent call last):
  File "/home/frappe/frappe-bench/apps/frappe/frappe/utils/scheduler.py", line 80, in enqueue_events_for_site
    frappe.init(site=site)
  File "/home/frappe/frappe-bench/apps/frappe/frappe/__init__.py", line 135, in init
    local.conf = _dict(get_site_config())
  File "/home/frappe/frappe-bench/apps/frappe/frappe/__init__.py", line 189, in get_site_config
    config.update(get_file_json(site_config))
  File "/home/frappe/frappe-bench/apps/frappe/frappe/__init__.py", line 896, in get_file_json
    return json.load(f)
  File "/usr/lib/python2.7/json/__init__.py", line 290, in load
    **kw)
  File "/usr/lib/python2.7/json/__init__.py", line 338, in loads
    return _default_decoder.decode(s)
  File "/usr/lib/python2.7/json/decoder.py", line 366, in decode
    obj, end = self.raw_decode(s, idx=_w(s, 0).end())
  File "/usr/lib/python2.7/json/decoder.py", line 384, in raw_decode
    raise ValueError("No JSON object could be decoded")
ValueError: No JSON object could be decoded

[ERROR] 2018-06-13 01:48:15,607 | /home/frappe/frappe-bench/apps/frappe/frappe/utils/scheduler.py:
Site: site1.local
Exception in Enqueue Events for Site site1.local
Traceback (most recent call last):
  File "/home/frappe/frappe-bench/apps/frappe/frappe/utils/scheduler.py", line 80, in enqueue_events_for_site
    frappe.init(site=site)
  File "/home/frappe/frappe-bench/apps/frappe/frappe/__init__.py", line 135, in init
    local.conf = _dict(get_site_config())
  File "/home/frappe/frappe-bench/apps/frappe/frappe/__init__.py", line 189, in get_site_config
    config.update(get_file_json(site_config))
  File "/home/frappe/frappe-bench/apps/frappe/frappe/__init__.py", line 896, in get_file_json
    return json.load(f)
  File "/usr/lib/python2.7/json/__init__.py", line 290, in load
    **kw)
  File "/usr/lib/python2.7/json/__init__.py", line 338, in loads
    return _default_decoder.decode(s)
  File "/usr/lib/python2.7/json/decoder.py", line 366, in decode
    obj, end = self.raw_decode(s, idx=_w(s, 0).end())
  File "/usr/lib/python2.7/json/decoder.py", line 384, in raw_decode
    raise ValueError("No JSON object could be decoded")
ValueError: No JSON object could be decoded

[ERROR] 2018-06-13 01:49:15,667 | /home/frappe/frappe-bench/apps/frappe/frappe/utils/scheduler.py:
Site: site1.local
Exception in Enqueue Events for Site site1.local
Traceback (most recent call last):
  File "/home/frappe/frappe-bench/apps/frappe/frappe/utils/scheduler.py", line 80, in enqueue_events_for_site
    frappe.init(site=site)
  File "/home/frappe/frappe-bench/apps/frappe/frappe/__init__.py", line 135, in init
    local.conf = _dict(get_site_config())
  File "/home/frappe/frappe-bench/apps/frappe/frappe/__init__.py", line 189, in get_site_config
    config.update(get_file_json(site_config))
  File "/home/frappe/frappe-bench/apps/frappe/frappe/__init__.py", line 896, in get_file_json
    return json.load(f)
  File "/usr/lib/python2.7/json/__init__.py", line 290, in load
    **kw)
  File "/usr/lib/python2.7/json/__init__.py", line 338, in loads
    return _default_decoder.decode(s)
  File "/usr/lib/python2.7/json/decoder.py", line 366, in decode
    obj, end = self.raw_decode(s, idx=_w(s, 0).end())
  File "/usr/lib/python2.7/json/decoder.py", line 384, in raw_decode
    raise ValueError("No JSON object could be decoded")
ValueError: No JSON object could be decoded

[ERROR] 2018-06-13 01:50:15,731 | /home/frappe/frappe-bench/apps/frappe/frappe/utils/scheduler.py:
Site: site1.local
Exception in Enqueue Events for Site site1.local
Traceback (most recent call last):
  File "/home/frappe/frappe-bench/apps/frappe/frappe/utils/scheduler.py", line 80, in enqueue_events_for_site
    frappe.init(site=site)
  File "/home/frappe/frappe-bench/apps/frappe/frappe/__init__.py", line 135, in init
    local.conf = _dict(get_site_config())
  File "/home/frappe/frappe-bench/apps/frappe/frappe/__init__.py", line 189, in get_site_config
    config.update(get_file_json(site_config))
  File "/home/frappe/frappe-bench/apps/frappe/frappe/__init__.py", line 896, in get_file_json
    return json.load(f)
  File "/usr/lib/python2.7/json/__init__.py", line 290, in load
    **kw)
  File "/usr/lib/python2.7/json/__init__.py", line 338, in loads
    return _default_decoder.decode(s)
  File "/usr/lib/python2.7/json/decoder.py", line 366, in decode
    obj, end = self.raw_decode(s, idx=_w(s, 0).end())
  File "/usr/lib/python2.7/json/decoder.py", line 384, in raw_decode
    raise ValueError("No JSON object could be decoded")
ValueError: No JSON object could be decoded

[ERROR] 2018-06-13 01:51:15,790 | /home/frappe/frappe-bench/apps/frappe/frappe/utils/scheduler.py:
Site: site1.local
Exception in Enqueue Events for Site site1.local
Traceback (most recent call last):
  File "/home/frappe/frappe-bench/apps/frappe/frappe/utils/scheduler.py", line 80, in enqueue_events_for_site
    frappe.init(site=site)
  File "/home/frappe/frappe-bench/apps/frappe/frappe/__init__.py", line 135, in init
    local.conf = _dict(get_site_config())
  File "/home/frappe/frappe-bench/apps/frappe/frappe/__init__.py", line 189, in get_site_config
    config.update(get_file_json(site_config))
  File "/home/frappe/frappe-bench/apps/frappe/frappe/__init__.py", line 896, in get_file_json
    return json.load(f)
  File "/usr/lib/python2.7/json/__init__.py", line 290, in load
    **kw)
  File "/usr/lib/python2.7/json/__init__.py", line 338, in loads
    return _default_decoder.decode(s)
  File "/usr/lib/python2.7/json/decoder.py", line 366, in decode
    obj, end = self.raw_decode(s, idx=_w(s, 0).end())
  File "/usr/lib/python2.7/json/decoder.py", line 384, in raw_decode
    raise ValueError("No JSON object could be decoded")
ValueError: No JSON object could be decoded

[ERROR] 2018-06-13 01:52:15,852 | /home/frappe/frappe-bench/apps/frappe/frappe/utils/scheduler.py:
Site: site1.local
Exception in Enqueue Events for Site site1.local
Traceback (most recent call last):
  File "/home/frappe/frappe-bench/apps/frappe/frappe/utils/scheduler.py", line 80, in enqueue_events_for_site
    frappe.init(site=site)
  File "/home/frappe/frappe-bench/apps/frappe/frappe/__init__.py", line 135, in init
    local.conf = _dict(get_site_config())
  File "/home/frappe/frappe-bench/apps/frappe/frappe/__init__.py", line 189, in get_site_config
    config.update(get_file_json(site_config))
  File "/home/frappe/frappe-bench/apps/frappe/frappe/__init__.py", line 896, in get_file_json
    return json.load(f)
  File "/usr/lib/python2.7/json/__init__.py", line 290, in load
    **kw)
  File "/usr/lib/python2.7/json/__init__.py", line 338, in loads
    return _default_decoder.decode(s)
  File "/usr/lib/python2.7/json/decoder.py", line 366, in decode
    obj, end = self.raw_decode(s, idx=_w(s, 0).end())
  File "/usr/lib/python2.7/json/decoder.py", line 384, in raw_decode
    raise ValueError("No JSON object could be decoded")
ValueError: No JSON object could be decoded

[ERROR] 2018-06-13 01:53:15,908 | /home/frappe/frappe-bench/apps/frappe/frappe/utils/scheduler.py:
Site: site1.local
Exception in Enqueue Events for Site site1.local
Traceback (most recent call last):
  File "/home/frappe/frappe-bench/apps/frappe/frappe/utils/scheduler.py", line 80, in enqueue_events_for_site
    frappe.init(site=site)
  File "/home/frappe/frappe-bench/apps/frappe/frappe/__init__.py", line 135, in init
    local.conf = _dict(get_site_config())
  File "/home/frappe/frappe-bench/apps/frappe/frappe/__init__.py", line 189, in get_site_config
    config.update(get_file_json(site_config))
  File "/home/frappe/frappe-bench/apps/frappe/frappe/__init__.py", line 896, in get_file_json
    return json.load(f)
  File "/usr/lib/python2.7/json/__init__.py", line 290, in load
    **kw)
  File "/usr/lib/python2.7/json/__init__.py", line 338, in loads
    return _default_decoder.decode(s)
  File "/usr/lib/python2.7/json/decoder.py", line 366, in decode
    obj, end = self.raw_decode(s, idx=_w(s, 0).end())
  File "/usr/lib/python2.7/json/decoder.py", line 384, in raw_decode
    raise ValueError("No JSON object could be decoded")
ValueError: No JSON object could be decoded

[ERROR] 2018-06-13 01:54:15,966 | /home/frappe/frappe-bench/apps/frappe/frappe/utils/scheduler.py:
Site: site1.local
Exception in Enqueue Events for Site site1.local
Traceback (most recent call last):
  File "/home/frappe/frappe-bench/apps/frappe/frappe/utils/scheduler.py", line 80, in enqueue_events_for_site
    frappe.init(site=site)
  File "/home/frappe/frappe-bench/apps/frappe/frappe/__init__.py", line 135, in init
    local.conf = _dict(get_site_config())
  File "/home/frappe/frappe-bench/apps/frappe/frappe/__init__.py", line 189, in get_site_config
    config.update(get_file_json(site_config))
  File "/home/frappe/frappe-bench/apps/frappe/frappe/__init__.py", line 896, in get_file_json
    return json.load(f)
  File "/usr/lib/python2.7/json/__init__.py", line 290, in load
    **kw)
  File "/usr/lib/python2.7/json/__init__.py", line 338, in loads
    return _default_decoder.decode(s)
  File "/usr/lib/python2.7/json/decoder.py", line 366, in decode
    obj, end = self.raw_decode(s, idx=_w(s, 0).end())
  File "/usr/lib/python2.7/json/decoder.py", line 384, in raw_decode
    raise ValueError("No JSON object could be decoded")
ValueError: No JSON object could be decoded

[ERROR] 2018-06-13 01:55:16,022 | /home/frappe/frappe-bench/apps/frappe/frappe/utils/scheduler.py:
Site: site1.local
Exception in Enqueue Events for Site site1.local
Traceback (most recent call last):
  File "/home/frappe/frappe-bench/apps/frappe/frappe/utils/scheduler.py", line 80, in enqueue_events_for_site
    frappe.init(site=site)
  File "/home/frappe/frappe-bench/apps/frappe/frappe/__init__.py", line 135, in init
    local.conf = _dict(get_site_config())
  File "/home/frappe/frappe-bench/apps/frappe/frappe/__init__.py", line 189, in get_site_config
    config.update(get_file_json(site_config))
  File "/home/frappe/frappe-bench/apps/frappe/frappe/__init__.py", line 896, in get_file_json
    return json.load(f)
  File "/usr/lib/python2.7/json/__init__.py", line 290, in load
    **kw)
  File "/usr/lib/python2.7/json/__init__.py", line 338, in loads
    return _default_decoder.decode(s)
  File "/usr/lib/python2.7/json/decoder.py", line 366, in decode
    obj, end = self.raw_decode(s, idx=_w(s, 0).end())
  File "/usr/lib/python2.7/json/decoder.py", line 384, in raw_decode
    raise ValueError("No JSON object could be decoded")
ValueError: No JSON object could be decoded

[ERROR] 2018-06-13 01:56:16,078 | /home/frappe/frappe-bench/apps/frappe/frappe/utils/scheduler.py:
Site: site1.local
Exception in Enqueue Events for Site site1.local
Traceback (most recent call last):
  File "/home/frappe/frappe-bench/apps/frappe/frappe/utils/scheduler.py", line 80, in enqueue_events_for_site
    frappe.init(site=site)
  File "/home/frappe/frappe-bench/apps/frappe/frappe/__init__.py", line 135, in init
    local.conf = _dict(get_site_config())
  File "/home/frappe/frappe-bench/apps/frappe/frappe/__init__.py", line 189, in get_site_config
    config.update(get_file_json(site_config))
  File "/home/frappe/frappe-bench/apps/frappe/frappe/__init__.py", line 896, in get_file_json
    return json.load(f)
  File "/usr/lib/python2.7/json/__init__.py", line 290, in load
    **kw)
  File "/usr/lib/python2.7/json/__init__.py", line 338, in loads
    return _default_decoder.decode(s)
  File "/usr/lib/python2.7/json/decoder.py", line 366, in decode
    obj, end = self.raw_decode(s, idx=_w(s, 0).end())
  File "/usr/lib/python2.7/json/decoder.py", line 384, in raw_decode
    raise ValueError("No JSON object could be decoded")
ValueError: No JSON object could be decoded

[ERROR] 2018-06-13 01:57:16,136 | /home/frappe/frappe-bench/apps/frappe/frappe/utils/scheduler.py:
Site: site1.local
Exception in Enqueue Events for Site site1.local
Traceback (most recent call last):
  File "/home/frappe/frappe-bench/apps/frappe/frappe/utils/scheduler.py", line 80, in enqueue_events_for_site
    frappe.init(site=site)
  File "/home/frappe/frappe-bench/apps/frappe/frappe/__init__.py", line 135, in init
    local.conf = _dict(get_site_config())
  File "/home/frappe/frappe-bench/apps/frappe/frappe/__init__.py", line 189, in get_site_config
    config.update(get_file_json(site_config))
  File "/home/frappe/frappe-bench/apps/frappe/frappe/__init__.py", line 896, in get_file_json
    return json.load(f)
  File "/usr/lib/python2.7/json/__init__.py", line 290, in load
    **kw)
  File "/usr/lib/python2.7/json/__init__.py", line 338, in loads
    return _default_decoder.decode(s)
  File "/usr/lib/python2.7/json/decoder.py", line 366, in decode
    obj, end = self.raw_decode(s, idx=_w(s, 0).end())
  File "/usr/lib/python2.7/json/decoder.py", line 384, in raw_decode
    raise ValueError("No JSON object could be decoded")
ValueError: No JSON object could be decoded

[ERROR] 2018-06-13 01:58:16,196 | /home/frappe/frappe-bench/apps/frappe/frappe/utils/scheduler.py:
Site: site1.local
Exception in Enqueue Events for Site site1.local
Traceback (most recent call last):
  File "/home/frappe/frappe-bench/apps/frappe/frappe/utils/scheduler.py", line 80, in enqueue_events_for_site
    frappe.init(site=site)
  File "/home/frappe/frappe-bench/apps/frappe/frappe/__init__.py", line 135, in init
    local.conf = _dict(get_site_config())
  File "/home/frappe/frappe-bench/apps/frappe/frappe/__init__.py", line 189, in get_site_config
    config.update(get_file_json(site_config))
  File "/home/frappe/frappe-bench/apps/frappe/frappe/__init__.py", line 896, in get_file_json
    return json.load(f)
  File "/usr/lib/python2.7/json/__init__.py", line 290, in load
    **kw)
  File "/usr/lib/python2.7/json/__init__.py", line 338, in loads
    return _default_decoder.decode(s)
  File "/usr/lib/python2.7/json/decoder.py", line 366, in decode
    obj, end = self.raw_decode(s, idx=_w(s, 0).end())
  File "/usr/lib/python2.7/json/decoder.py", line 384, in raw_decode
    raise ValueError("No JSON object could be decoded")
ValueError: No JSON object could be decoded

[ERROR] 2018-06-13 01:59:16,258 | /home/frappe/frappe-bench/apps/frappe/frappe/utils/scheduler.py:
Site: site1.local
Exception in Enqueue Events for Site site1.local
Traceback (most recent call last):
  File "/home/frappe/frappe-bench/apps/frappe/frappe/utils/scheduler.py", line 80, in enqueue_events_for_site
    frappe.init(site=site)
  File "/home/frappe/frappe-bench/apps/frappe/frappe/__init__.py", line 135, in init
    local.conf = _dict(get_site_config())
  File "/home/frappe/frappe-bench/apps/frappe/frappe/__init__.py", line 189, in get_site_config
    config.update(get_file_json(site_config))
  File "/home/frappe/frappe-bench/apps/frappe/frappe/__init__.py", line 896, in get_file_json
    return json.load(f)
  File "/usr/lib/python2.7/json/__init__.py", line 290, in load
    **kw)
  File "/usr/lib/python2.7/json/__init__.py", line 338, in loads
    return _default_decoder.decode(s)
  File "/usr/lib/python2.7/json/decoder.py", line 366, in decode
    obj, end = self.raw_decode(s, idx=_w(s, 0).end())
  File "/usr/lib/python2.7/json/decoder.py", line 384, in raw_decode
    raise ValueError("No JSON object could be decoded")
ValueError: No JSON object could be decoded

[ERROR] 2018-06-13 02:00:16,313 | /home/frappe/frappe-bench/apps/frappe/frappe/utils/scheduler.py:
Site: site1.local
Exception in Enqueue Events for Site site1.local
Traceback (most recent call last):
  File "/home/frappe/frappe-bench/apps/frappe/frappe/utils/scheduler.py", line 80, in enqueue_events_for_site
    frappe.init(site=site)
  File "/home/frappe/frappe-bench/apps/frappe/frappe/__init__.py", line 135, in init
    local.conf = _dict(get_site_config())
  File "/home/frappe/frappe-bench/apps/frappe/frappe/__init__.py", line 189, in get_site_config
    config.update(get_file_json(site_config))
  File "/home/frappe/frappe-bench/apps/frappe/frappe/__init__.py", line 896, in get_file_json
    return json.load(f)
  File "/usr/lib/python2.7/json/__init__.py", line 290, in load
    **kw)
  File "/usr/lib/python2.7/json/__init__.py", line 338, in loads
    return _default_decoder.decode(s)
  File "/usr/lib/python2.7/json/decoder.py", line 366, in decode
    obj, end = self.raw_decode(s, idx=_w(s, 0).end())
  File "/usr/lib/python2.7/json/decoder.py", line 384, in raw_decode
    raise ValueError("No JSON object could be decoded")
ValueError: No JSON object could be decoded

[ERROR] 2018-06-13 02:01:16,373 | /home/frappe/frappe-bench/apps/frappe/frappe/utils/scheduler.py:
Site: site1.local
Exception in Enqueue Events for Site site1.local
Traceback (most recent call last):
  File "/home/frappe/frappe-bench/apps/frappe/frappe/utils/scheduler.py", line 80, in enqueue_events_for_site
    frappe.init(site=site)
  File "/home/frappe/frappe-bench/apps/frappe/frappe/__init__.py", line 135, in init
    local.conf = _dict(get_site_config())
  File "/home/frappe/frappe-bench/apps/frappe/frappe/__init__.py", line 189, in get_site_config
    config.update(get_file_json(site_config))
  File "/home/frappe/frappe-bench/apps/frappe/frappe/__init__.py", line 896, in get_file_json
    return json.load(f)
  File "/usr/lib/python2.7/json/__init__.py", line 290, in load
    **kw)
  File "/usr/lib/python2.7/json/__init__.py", line 338, in loads
    return _default_decoder.decode(s)
  File "/usr/lib/python2.7/json/decoder.py", line 366, in decode
    obj, end = self.raw_decode(s, idx=_w(s, 0).end())
  File "/usr/lib/python2.7/json/decoder.py", line 384, in raw_decode
    raise ValueError("No JSON object could be decoded")
ValueError: No JSON object could be decoded

[ERROR] 2018-06-13 02:02:16,433 | /home/frappe/frappe-bench/apps/frappe/frappe/utils/scheduler.py:
Site: site1.local
Exception in Enqueue Events for Site site1.local
Traceback (most recent call last):
  File "/home/frappe/frappe-bench/apps/frappe/frappe/utils/scheduler.py", line 80, in enqueue_events_for_site
    frappe.init(site=site)
  File "/home/frappe/frappe-bench/apps/frappe/frappe/__init__.py", line 135, in init
    local.conf = _dict(get_site_config())
  File "/home/frappe/frappe-bench/apps/frappe/frappe/__init__.py", line 189, in get_site_config
    config.update(get_file_json(site_config))
  File "/home/frappe/frappe-bench/apps/frappe/frappe/__init__.py", line 896, in get_file_json
    return json.load(f)
  File "/usr/lib/python2.7/json/__init__.py", line 290, in load
    **kw)
  File "/usr/lib/python2.7/json/__init__.py", line 338, in loads
    return _default_decoder.decode(s)
  File "/usr/lib/python2.7/json/decoder.py", line 366, in decode
    obj, end = self.raw_decode(s, idx=_w(s, 0).end())
  File "/usr/lib/python2.7/json/decoder.py", line 384, in raw_decode
    raise ValueError("No JSON object could be decoded")
ValueError: No JSON object could be decoded

[ERROR] 2018-06-13 02:03:16,496 | /home/frappe/frappe-bench/apps/frappe/frappe/utils/scheduler.py:
Site: site1.local
Exception in Enqueue Events for Site site1.local
Traceback (most recent call last):
  File "/home/frappe/frappe-bench/apps/frappe/frappe/utils/scheduler.py", line 80, in enqueue_events_for_site
    frappe.init(site=site)
  File "/home/frappe/frappe-bench/apps/frappe/frappe/__init__.py", line 135, in init
    local.conf = _dict(get_site_config())
  File "/home/frappe/frappe-bench/apps/frappe/frappe/__init__.py", line 189, in get_site_config
    config.update(get_file_json(site_config))
  File "/home/frappe/frappe-bench/apps/frappe/frappe/__init__.py", line 896, in get_file_json
    return json.load(f)
  File "/usr/lib/python2.7/json/__init__.py", line 290, in load
    **kw)
  File "/usr/lib/python2.7/json/__init__.py", line 338, in loads
    return _default_decoder.decode(s)
  File "/usr/lib/python2.7/json/decoder.py", line 366, in decode
    obj, end = self.raw_decode(s, idx=_w(s, 0).end())
  File "/usr/lib/python2.7/json/decoder.py", line 384, in raw_decode
    raise ValueError("No JSON object could be decoded")
ValueError: No JSON object could be decoded

[ERROR] 2018-06-13 02:04:16,554 | /home/frappe/frappe-bench/apps/frappe/frappe/utils/scheduler.py:
Site: site1.local
Exception in Enqueue Events for Site site1.local
Traceback (most recent call last):
  File "/home/frappe/frappe-bench/apps/frappe/frappe/utils/scheduler.py", line 80, in enqueue_events_for_site
    frappe.init(site=site)
  File "/home/frappe/frappe-bench/apps/frappe/frappe/__init__.py", line 135, in init
    local.conf = _dict(get_site_config())
  File "/home/frappe/frappe-bench/apps/frappe/frappe/__init__.py", line 189, in get_site_config
    config.update(get_file_json(site_config))
  File "/home/frappe/frappe-bench/apps/frappe/frappe/__init__.py", line 896, in get_file_json
    return json.load(f)
  File "/usr/lib/python2.7/json/__init__.py", line 290, in load
    **kw)
  File "/usr/lib/python2.7/json/__init__.py", line 338, in loads
    return _default_decoder.decode(s)
  File "/usr/lib/python2.7/json/decoder.py", line 366, in decode
    obj, end = self.raw_decode(s, idx=_w(s, 0).end())
  File "/usr/lib/python2.7/json/decoder.py", line 384, in raw_decode
    raise ValueError("No JSON object could be decoded")
ValueError: No JSON object could be decoded

[ERROR] 2018-06-13 02:05:16,608 | /home/frappe/frappe-bench/apps/frappe/frappe/utils/scheduler.py:
Site: site1.local
Exception in Enqueue Events for Site site1.local
Traceback (most recent call last):
  File "/home/frappe/frappe-bench/apps/frappe/frappe/utils/scheduler.py", line 80, in enqueue_events_for_site
    frappe.init(site=site)
  File "/home/frappe/frappe-bench/apps/frappe/frappe/__init__.py", line 135, in init
    local.conf = _dict(get_site_config())
  File "/home/frappe/frappe-bench/apps/frappe/frappe/__init__.py", line 189, in get_site_config
    config.update(get_file_json(site_config))
  File "/home/frappe/frappe-bench/apps/frappe/frappe/__init__.py", line 896, in get_file_json
    return json.load(f)
  File "/usr/lib/python2.7/json/__init__.py", line 290, in load
    **kw)
  File "/usr/lib/python2.7/json/__init__.py", line 338, in loads
    return _default_decoder.decode(s)
  File "/usr/lib/python2.7/json/decoder.py", line 366, in decode
    obj, end = self.raw_decode(s, idx=_w(s, 0).end())
  File "/usr/lib/python2.7/json/decoder.py", line 384, in raw_decode
    raise ValueError("No JSON object could be decoded")
ValueError: No JSON object could be decoded

[ERROR] 2018-06-13 02:06:16,666 | /home/frappe/frappe-bench/apps/frappe/frappe/utils/scheduler.py:
Site: site1.local
Exception in Enqueue Events for Site site1.local
Traceback (most recent call last):
  File "/home/frappe/frappe-bench/apps/frappe/frappe/utils/scheduler.py", line 80, in enqueue_events_for_site
    frappe.init(site=site)
  File "/home/frappe/frappe-bench/apps/frappe/frappe/__init__.py", line 135, in init
    local.conf = _dict(get_site_config())
  File "/home/frappe/frappe-bench/apps/frappe/frappe/__init__.py", line 189, in get_site_config
    config.update(get_file_json(site_config))
  File "/home/frappe/frappe-bench/apps/frappe/frappe/__init__.py", line 896, in get_file_json
    return json.load(f)
  File "/usr/lib/python2.7/json/__init__.py", line 290, in load
    **kw)
  File "/usr/lib/python2.7/json/__init__.py", line 338, in loads
    return _default_decoder.decode(s)
  File "/usr/lib/python2.7/json/decoder.py", line 366, in decode
    obj, end = self.raw_decode(s, idx=_w(s, 0).end())
  File "/usr/lib/python2.7/json/decoder.py", line 384, in raw_decode
    raise ValueError("No JSON object could be decoded")
ValueError: No JSON object could be decoded

[ERROR] 2018-06-13 02:07:16,724 | /home/frappe/frappe-bench/apps/frappe/frappe/utils/scheduler.py:
Site: site1.local
Exception in Enqueue Events for Site site1.local
Traceback (most recent call last):
  File "/home/frappe/frappe-bench/apps/frappe/frappe/utils/scheduler.py", line 80, in enqueue_events_for_site
    frappe.init(site=site)
  File "/home/frappe/frappe-bench/apps/frappe/frappe/__init__.py", line 135, in init
    local.conf = _dict(get_site_config())
  File "/home/frappe/frappe-bench/apps/frappe/frappe/__init__.py", line 189, in get_site_config
    config.update(get_file_json(site_config))
  File "/home/frappe/frappe-bench/apps/frappe/frappe/__init__.py", line 896, in get_file_json
    return json.load(f)
  File "/usr/lib/python2.7/json/__init__.py", line 290, in load
    **kw)
  File "/usr/lib/python2.7/json/__init__.py", line 338, in loads
    return _default_decoder.decode(s)
  File "/usr/lib/python2.7/json/decoder.py", line 366, in decode
    obj, end = self.raw_decode(s, idx=_w(s, 0).end())
  File "/usr/lib/python2.7/json/decoder.py", line 384, in raw_decode
    raise ValueError("No JSON object could be decoded")
ValueError: No JSON object could be decoded

[ERROR] 2018-06-13 02:08:16,782 | /home/frappe/frappe-bench/apps/frappe/frappe/utils/scheduler.py:
Site: site1.local
Exception in Enqueue Events for Site site1.local
Traceback (most recent call last):
  File "/home/frappe/frappe-bench/apps/frappe/frappe/utils/scheduler.py", line 80, in enqueue_events_for_site
    frappe.init(site=site)
  File "/home/frappe/frappe-bench/apps/frappe/frappe/__init__.py", line 135, in init
    local.conf = _dict(get_site_config())
  File "/home/frappe/frappe-bench/apps/frappe/frappe/__init__.py", line 189, in get_site_config
    config.update(get_file_json(site_config))
  File "/home/frappe/frappe-bench/apps/frappe/frappe/__init__.py", line 896, in get_file_json
    return json.load(f)
  File "/usr/lib/python2.7/json/__init__.py", line 290, in load
    **kw)
  File "/usr/lib/python2.7/json/__init__.py", line 338, in loads
    return _default_decoder.decode(s)
  File "/usr/lib/python2.7/json/decoder.py", line 366, in decode
    obj, end = self.raw_decode(s, idx=_w(s, 0).end())
  File "/usr/lib/python2.7/json/decoder.py", line 384, in raw_decode
    raise ValueError("No JSON object could be decoded")
ValueError: No JSON object could be decoded

[ERROR] 2018-06-13 02:09:16,840 | /home/frappe/frappe-bench/apps/frappe/frappe/utils/scheduler.py:
Site: site1.local
Exception in Enqueue Events for Site site1.local
Traceback (most recent call last):
  File "/home/frappe/frappe-bench/apps/frappe/frappe/utils/scheduler.py", line 80, in enqueue_events_for_site
    frappe.init(site=site)
  File "/home/frappe/frappe-bench/apps/frappe/frappe/__init__.py", line 135, in init
    local.conf = _dict(get_site_config())
  File "/home/frappe/frappe-bench/apps/frappe/frappe/__init__.py", line 189, in get_site_config
    config.update(get_file_json(site_config))
  File "/home/frappe/frappe-bench/apps/frappe/frappe/__init__.py", line 896, in get_file_json
    return json.load(f)
  File "/usr/lib/python2.7/json/__init__.py", line 290, in load
    **kw)
  File "/usr/lib/python2.7/json/__init__.py", line 338, in loads
    return _default_decoder.decode(s)
  File "/usr/lib/python2.7/json/decoder.py", line 366, in decode
    obj, end = self.raw_decode(s, idx=_w(s, 0).end())
  File "/usr/lib/python2.7/json/decoder.py", line 384, in raw_decode
    raise ValueError("No JSON object could be decoded")
ValueError: No JSON object could be decoded

[ERROR] 2018-06-13 02:10:16,898 | /home/frappe/frappe-bench/apps/frappe/frappe/utils/scheduler.py:
Site: site1.local
Exception in Enqueue Events for Site site1.local
Traceback (most recent call last):
  File "/home/frappe/frappe-bench/apps/frappe/frappe/utils/scheduler.py", line 80, in enqueue_events_for_site
    frappe.init(site=site)
  File "/home/frappe/frappe-bench/apps/frappe/frappe/__init__.py", line 135, in init
    local.conf = _dict(get_site_config())
  File "/home/frappe/frappe-bench/apps/frappe/frappe/__init__.py", line 189, in get_site_config
    config.update(get_file_json(site_config))
  File "/home/frappe/frappe-bench/apps/frappe/frappe/__init__.py", line 896, in get_file_json
    return json.load(f)
  File "/usr/lib/python2.7/json/__init__.py", line 290, in load
    **kw)
  File "/usr/lib/python2.7/json/__init__.py", line 338, in loads
    return _default_decoder.decode(s)
  File "/usr/lib/python2.7/json/decoder.py", line 366, in decode
    obj, end = self.raw_decode(s, idx=_w(s, 0).end())
  File "/usr/lib/python2.7/json/decoder.py", line 384, in raw_decode
    raise ValueError("No JSON object could be decoded")
ValueError: No JSON object could be decoded

[ERROR] 2018-06-13 02:11:16,954 | /home/frappe/frappe-bench/apps/frappe/frappe/utils/scheduler.py:
Site: site1.local
Exception in Enqueue Events for Site site1.local
Traceback (most recent call last):
  File "/home/frappe/frappe-bench/apps/frappe/frappe/utils/scheduler.py", line 80, in enqueue_events_for_site
    frappe.init(site=site)
  File "/home/frappe/frappe-bench/apps/frappe/frappe/__init__.py", line 135, in init
    local.conf = _dict(get_site_config())
  File "/home/frappe/frappe-bench/apps/frappe/frappe/__init__.py", line 189, in get_site_config
    config.update(get_file_json(site_config))
  File "/home/frappe/frappe-bench/apps/frappe/frappe/__init__.py", line 896, in get_file_json
    return json.load(f)
  File "/usr/lib/python2.7/json/__init__.py", line 290, in load
    **kw)
  File "/usr/lib/python2.7/json/__init__.py", line 338, in loads
    return _default_decoder.decode(s)
  File "/usr/lib/python2.7/json/decoder.py", line 366, in decode
    obj, end = self.raw_decode(s, idx=_w(s, 0).end())
  File "/usr/lib/python2.7/json/decoder.py", line 384, in raw_decode
    raise ValueError("No JSON object could be decoded")
ValueError: No JSON object could be decoded

[ERROR] 2018-06-13 02:12:17,013 | /home/frappe/frappe-bench/apps/frappe/frappe/utils/scheduler.py:
Site: site1.local
Exception in Enqueue Events for Site site1.local
Traceback (most recent call last):
  File "/home/frappe/frappe-bench/apps/frappe/frappe/utils/scheduler.py", line 80, in enqueue_events_for_site
    frappe.init(site=site)
  File "/home/frappe/frappe-bench/apps/frappe/frappe/__init__.py", line 135, in init
    local.conf = _dict(get_site_config())
  File "/home/frappe/frappe-bench/apps/frappe/frappe/__init__.py", line 189, in get_site_config
    config.update(get_file_json(site_config))
  File "/home/frappe/frappe-bench/apps/frappe/frappe/__init__.py", line 896, in get_file_json
    return json.load(f)
  File "/usr/lib/python2.7/json/__init__.py", line 290, in load
    **kw)
  File "/usr/lib/python2.7/json/__init__.py", line 338, in loads
    return _default_decoder.decode(s)
  File "/usr/lib/python2.7/json/decoder.py", line 366, in decode
    obj, end = self.raw_decode(s, idx=_w(s, 0).end())
  File "/usr/lib/python2.7/json/decoder.py", line 384, in raw_decode
    raise ValueError("No JSON object could be decoded")
ValueError: No JSON object could be decoded

[ERROR] 2018-06-13 02:13:17,073 | /home/frappe/frappe-bench/apps/frappe/frappe/utils/scheduler.py:
Site: site1.local
Exception in Enqueue Events for Site site1.local
Traceback (most recent call last):
  File "/home/frappe/frappe-bench/apps/frappe/frappe/utils/scheduler.py", line 80, in enqueue_events_for_site
    frappe.init(site=site)
  File "/home/frappe/frappe-bench/apps/frappe/frappe/__init__.py", line 135, in init
    local.conf = _dict(get_site_config())
  File "/home/frappe/frappe-bench/apps/frappe/frappe/__init__.py", line 189, in get_site_config
    config.update(get_file_json(site_config))
  File "/home/frappe/frappe-bench/apps/frappe/frappe/__init__.py", line 896, in get_file_json
    return json.load(f)
  File "/usr/lib/python2.7/json/__init__.py", line 290, in load
    **kw)
  File "/usr/lib/python2.7/json/__init__.py", line 338, in loads
    return _default_decoder.decode(s)
  File "/usr/lib/python2.7/json/decoder.py", line 366, in decode
    obj, end = self.raw_decode(s, idx=_w(s, 0).end())
  File "/usr/lib/python2.7/json/decoder.py", line 384, in raw_decode
    raise ValueError("No JSON object could be decoded")
ValueError: No JSON object could be decoded

[ERROR] 2018-06-13 02:14:17,127 | /home/frappe/frappe-bench/apps/frappe/frappe/utils/scheduler.py:
Site: site1.local
Exception in Enqueue Events for Site site1.local
Traceback (most recent call last):
  File "/home/frappe/frappe-bench/apps/frappe/frappe/utils/scheduler.py", line 80, in enqueue_events_for_site
    frappe.init(site=site)
  File "/home/frappe/frappe-bench/apps/frappe/frappe/__init__.py", line 135, in init
    local.conf = _dict(get_site_config())
  File "/home/frappe/frappe-bench/apps/frappe/frappe/__init__.py", line 189, in get_site_config
    config.update(get_file_json(site_config))
  File "/home/frappe/frappe-bench/apps/frappe/frappe/__init__.py", line 896, in get_file_json
    return json.load(f)
  File "/usr/lib/python2.7/json/__init__.py", line 290, in load
    **kw)
  File "/usr/lib/python2.7/json/__init__.py", line 338, in loads
    return _default_decoder.decode(s)
  File "/usr/lib/python2.7/json/decoder.py", line 366, in decode
    obj, end = self.raw_decode(s, idx=_w(s, 0).end())
  File "/usr/lib/python2.7/json/decoder.py", line 384, in raw_decode
    raise ValueError("No JSON object could be decoded")
ValueError: No JSON object could be decoded

[ERROR] 2018-06-13 02:15:17,186 | /home/frappe/frappe-bench/apps/frappe/frappe/utils/scheduler.py:
Site: site1.local
Exception in Enqueue Events for Site site1.local
Traceback (most recent call last):
  File "/home/frappe/frappe-bench/apps/frappe/frappe/utils/scheduler.py", line 80, in enqueue_events_for_site
    frappe.init(site=site)
  File "/home/frappe/frappe-bench/apps/frappe/frappe/__init__.py", line 135, in init
    local.conf = _dict(get_site_config())
  File "/home/frappe/frappe-bench/apps/frappe/frappe/__init__.py", line 189, in get_site_config
    config.update(get_file_json(site_config))
  File "/home/frappe/frappe-bench/apps/frappe/frappe/__init__.py", line 896, in get_file_json
    return json.load(f)
  File "/usr/lib/python2.7/json/__init__.py", line 290, in load
    **kw)
  File "/usr/lib/python2.7/json/__init__.py", line 338, in loads
    return _default_decoder.decode(s)
  File "/usr/lib/python2.7/json/decoder.py", line 366, in decode
    obj, end = self.raw_decode(s, idx=_w(s, 0).end())
  File "/usr/lib/python2.7/json/decoder.py", line 384, in raw_decode
    raise ValueError("No JSON object could be decoded")
ValueError: No JSON object could be decoded

[ERROR] 2018-06-13 02:16:17,243 | /home/frappe/frappe-bench/apps/frappe/frappe/utils/scheduler.py:
Site: site1.local
Exception in Enqueue Events for Site site1.local
Traceback (most recent call last):
  File "/home/frappe/frappe-bench/apps/frappe/frappe/utils/scheduler.py", line 80, in enqueue_events_for_site
    frappe.init(site=site)
  File "/home/frappe/frappe-bench/apps/frappe/frappe/__init__.py", line 135, in init
    local.conf = _dict(get_site_config())
  File "/home/frappe/frappe-bench/apps/frappe/frappe/__init__.py", line 189, in get_site_config
    config.update(get_file_json(site_config))
  File "/home/frappe/frappe-bench/apps/frappe/frappe/__init__.py", line 896, in get_file_json
    return json.load(f)
  File "/usr/lib/python2.7/json/__init__.py", line 290, in load
    **kw)
  File "/usr/lib/python2.7/json/__init__.py", line 338, in loads
    return _default_decoder.decode(s)
  File "/usr/lib/python2.7/json/decoder.py", line 366, in decode
    obj, end = self.raw_decode(s, idx=_w(s, 0).end())
  File "/usr/lib/python2.7/json/decoder.py", line 384, in raw_decode
    raise ValueError("No JSON object could be decoded")
ValueError: No JSON object could be decoded

[ERROR] 2018-06-13 02:17:17,301 | /home/frappe/frappe-bench/apps/frappe/frappe/utils/scheduler.py:
Site: site1.local
Exception in Enqueue Events for Site site1.local
Traceback (most recent call last):
  File "/home/frappe/frappe-bench/apps/frappe/frappe/utils/scheduler.py", line 80, in enqueue_events_for_site
    frappe.init(site=site)
  File "/home/frappe/frappe-bench/apps/frappe/frappe/__init__.py", line 135, in init
    local.conf = _dict(get_site_config())
  File "/home/frappe/frappe-bench/apps/frappe/frappe/__init__.py", line 189, in get_site_config
    config.update(get_file_json(site_config))
  File "/home/frappe/frappe-bench/apps/frappe/frappe/__init__.py", line 896, in get_file_json
    return json.load(f)
  File "/usr/lib/python2.7/json/__init__.py", line 290, in load
    **kw)
  File "/usr/lib/python2.7/json/__init__.py", line 338, in loads
    return _default_decoder.decode(s)
  File "/usr/lib/python2.7/json/decoder.py", line 366, in decode
    obj, end = self.raw_decode(s, idx=_w(s, 0).end())
  File "/usr/lib/python2.7/json/decoder.py", line 384, in raw_decode
    raise ValueError("No JSON object could be decoded")
ValueError: No JSON object could be decoded

[ERROR] 2018-06-13 02:18:17,360 | /home/frappe/frappe-bench/apps/frappe/frappe/utils/scheduler.py:
Site: site1.local
Exception in Enqueue Events for Site site1.local
Traceback (most recent call last):
  File "/home/frappe/frappe-bench/apps/frappe/frappe/utils/scheduler.py", line 80, in enqueue_events_for_site
    frappe.init(site=site)
  File "/home/frappe/frappe-bench/apps/frappe/frappe/__init__.py", line 135, in init
    local.conf = _dict(get_site_config())
  File "/home/frappe/frappe-bench/apps/frappe/frappe/__init__.py", line 189, in get_site_config
    config.update(get_file_json(site_config))
  File "/home/frappe/frappe-bench/apps/frappe/frappe/__init__.py", line 896, in get_file_json
    return json.load(f)
  File "/usr/lib/python2.7/json/__init__.py", line 290, in load
    **kw)
  File "/usr/lib/python2.7/json/__init__.py", line 338, in loads
    return _default_decoder.decode(s)
  File "/usr/lib/python2.7/json/decoder.py", line 366, in decode
    obj, end = self.raw_decode(s, idx=_w(s, 0).end())
  File "/usr/lib/python2.7/json/decoder.py", line 384, in raw_decode
    raise ValueError("No JSON object could be decoded")
ValueError: No JSON object could be decoded

[ERROR] 2018-06-13 02:19:17,415 | /home/frappe/frappe-bench/apps/frappe/frappe/utils/scheduler.py:
Site: site1.local
Exception in Enqueue Events for Site site1.local
Traceback (most recent call last):
  File "/home/frappe/frappe-bench/apps/frappe/frappe/utils/scheduler.py", line 80, in enqueue_events_for_site
    frappe.init(site=site)
  File "/home/frappe/frappe-bench/apps/frappe/frappe/__init__.py", line 135, in init
    local.conf = _dict(get_site_config())
  File "/home/frappe/frappe-bench/apps/frappe/frappe/__init__.py", line 189, in get_site_config
    config.update(get_file_json(site_config))
  File "/home/frappe/frappe-bench/apps/frappe/frappe/__init__.py", line 896, in get_file_json
    return json.load(f)
  File "/usr/lib/python2.7/json/__init__.py", line 290, in load
    **kw)
  File "/usr/lib/python2.7/json/__init__.py", line 338, in loads
    return _default_decoder.decode(s)
  File "/usr/lib/python2.7/json/decoder.py", line 366, in decode
    obj, end = self.raw_decode(s, idx=_w(s, 0).end())
  File "/usr/lib/python2.7/json/decoder.py", line 384, in raw_decode
    raise ValueError("No JSON object could be decoded")
ValueError: No JSON object could be decoded

[ERROR] 2018-06-13 02:20:17,476 | /home/frappe/frappe-bench/apps/frappe/frappe/utils/scheduler.py:
Site: site1.local
Exception in Enqueue Events for Site site1.local
Traceback (most recent call last):
  File "/home/frappe/frappe-bench/apps/frappe/frappe/utils/scheduler.py", line 80, in enqueue_events_for_site
    frappe.init(site=site)
  File "/home/frappe/frappe-bench/apps/frappe/frappe/__init__.py", line 135, in init
    local.conf = _dict(get_site_config())
  File "/home/frappe/frappe-bench/apps/frappe/frappe/__init__.py", line 189, in get_site_config
    config.update(get_file_json(site_config))
  File "/home/frappe/frappe-bench/apps/frappe/frappe/__init__.py", line 896, in get_file_json
    return json.load(f)
  File "/usr/lib/python2.7/json/__init__.py", line 290, in load
    **kw)
  File "/usr/lib/python2.7/json/__init__.py", line 338, in loads
    return _default_decoder.decode(s)
  File "/usr/lib/python2.7/json/decoder.py", line 366, in decode
    obj, end = self.raw_decode(s, idx=_w(s, 0).end())
  File "/usr/lib/python2.7/json/decoder.py", line 384, in raw_decode
    raise ValueError("No JSON object could be decoded")
ValueError: No JSON object could be decoded

[ERROR] 2018-06-13 02:21:17,533 | /home/frappe/frappe-bench/apps/frappe/frappe/utils/scheduler.py:
Site: site1.local
Exception in Enqueue Events for Site site1.local
Traceback (most recent call last):
  File "/home/frappe/frappe-bench/apps/frappe/frappe/utils/scheduler.py", line 80, in enqueue_events_for_site
    frappe.init(site=site)
  File "/home/frappe/frappe-bench/apps/frappe/frappe/__init__.py", line 135, in init
    local.conf = _dict(get_site_config())
  File "/home/frappe/frappe-bench/apps/frappe/frappe/__init__.py", line 189, in get_site_config
    config.update(get_file_json(site_config))
  File "/home/frappe/frappe-bench/apps/frappe/frappe/__init__.py", line 896, in get_file_json
    return json.load(f)
  File "/usr/lib/python2.7/json/__init__.py", line 290, in load
    **kw)
  File "/usr/lib/python2.7/json/__init__.py", line 338, in loads
    return _default_decoder.decode(s)
  File "/usr/lib/python2.7/json/decoder.py", line 366, in decode
    obj, end = self.raw_decode(s, idx=_w(s, 0).end())
  File "/usr/lib/python2.7/json/decoder.py", line 384, in raw_decode
    raise ValueError("No JSON object could be decoded")
ValueError: No JSON object could be decoded

[ERROR] 2018-06-13 02:22:17,592 | /home/frappe/frappe-bench/apps/frappe/frappe/utils/scheduler.py:
Site: site1.local
Exception in Enqueue Events for Site site1.local
Traceback (most recent call last):
  File "/home/frappe/frappe-bench/apps/frappe/frappe/utils/scheduler.py", line 80, in enqueue_events_for_site
    frappe.init(site=site)
  File "/home/frappe/frappe-bench/apps/frappe/frappe/__init__.py", line 135, in init
    local.conf = _dict(get_site_config())
  File "/home/frappe/frappe-bench/apps/frappe/frappe/__init__.py", line 189, in get_site_config
    config.update(get_file_json(site_config))
  File "/home/frappe/frappe-bench/apps/frappe/frappe/__init__.py", line 896, in get_file_json
    return json.load(f)
  File "/usr/lib/python2.7/json/__init__.py", line 290, in load
    **kw)
  File "/usr/lib/python2.7/json/__init__.py", line 338, in loads
    return _default_decoder.decode(s)
  File "/usr/lib/python2.7/json/decoder.py", line 366, in decode
    obj, end = self.raw_decode(s, idx=_w(s, 0).end())
  File "/usr/lib/python2.7/json/decoder.py", line 384, in raw_decode
    raise ValueError("No JSON object could be decoded")
ValueError: No JSON object could be decoded

[ERROR] 2018-06-13 02:23:17,655 | /home/frappe/frappe-bench/apps/frappe/frappe/utils/scheduler.py:
Site: site1.local
Exception in Enqueue Events for Site site1.local
Traceback (most recent call last):
  File "/home/frappe/frappe-bench/apps/frappe/frappe/utils/scheduler.py", line 80, in enqueue_events_for_site
    frappe.init(site=site)
  File "/home/frappe/frappe-bench/apps/frappe/frappe/__init__.py", line 135, in init
    local.conf = _dict(get_site_config())
  File "/home/frappe/frappe-bench/apps/frappe/frappe/__init__.py", line 189, in get_site_config
    config.update(get_file_json(site_config))
  File "/home/frappe/frappe-bench/apps/frappe/frappe/__init__.py", line 896, in get_file_json
    return json.load(f)
  File "/usr/lib/python2.7/json/__init__.py", line 290, in load
    **kw)
  File "/usr/lib/python2.7/json/__init__.py", line 338, in loads
    return _default_decoder.decode(s)
  File "/usr/lib/python2.7/json/decoder.py", line 366, in decode
    obj, end = self.raw_decode(s, idx=_w(s, 0).end())
  File "/usr/lib/python2.7/json/decoder.py", line 384, in raw_decode
    raise ValueError("No JSON object could be decoded")
ValueError: No JSON object could be decoded

[ERROR] 2018-06-13 02:24:17,715 | /home/frappe/frappe-bench/apps/frappe/frappe/utils/scheduler.py:
Site: site1.local
Exception in Enqueue Events for Site site1.local
Traceback (most recent call last):
  File "/home/frappe/frappe-bench/apps/frappe/frappe/utils/scheduler.py", line 80, in enqueue_events_for_site
    frappe.init(site=site)
  File "/home/frappe/frappe-bench/apps/frappe/frappe/__init__.py", line 135, in init
    local.conf = _dict(get_site_config())
  File "/home/frappe/frappe-bench/apps/frappe/frappe/__init__.py", line 189, in get_site_config
    config.update(get_file_json(site_config))
  File "/home/frappe/frappe-bench/apps/frappe/frappe/__init__.py", line 896, in get_file_json
    return json.load(f)
  File "/usr/lib/python2.7/json/__init__.py", line 290, in load
    **kw)
  File "/usr/lib/python2.7/json/__init__.py", line 338, in loads
    return _default_decoder.decode(s)
  File "/usr/lib/python2.7/json/decoder.py", line 366, in decode
    obj, end = self.raw_decode(s, idx=_w(s, 0).end())
  File "/usr/lib/python2.7/json/decoder.py", line 384, in raw_decode
    raise ValueError("No JSON object could be decoded")
ValueError: No JSON object could be decoded

[ERROR] 2018-06-13 02:25:17,775 | /home/frappe/frappe-bench/apps/frappe/frappe/utils/scheduler.py:
Site: site1.local
Exception in Enqueue Events for Site site1.local
Traceback (most recent call last):
  File "/home/frappe/frappe-bench/apps/frappe/frappe/utils/scheduler.py", line 80, in enqueue_events_for_site
    frappe.init(site=site)
  File "/home/frappe/frappe-bench/apps/frappe/frappe/__init__.py", line 135, in init
    local.conf = _dict(get_site_config())
  File "/home/frappe/frappe-bench/apps/frappe/frappe/__init__.py", line 189, in get_site_config
    config.update(get_file_json(site_config))
  File "/home/frappe/frappe-bench/apps/frappe/frappe/__init__.py", line 896, in get_file_json
    return json.load(f)
  File "/usr/lib/python2.7/json/__init__.py", line 290, in load
    **kw)
  File "/usr/lib/python2.7/json/__init__.py", line 338, in loads
    return _default_decoder.decode(s)
  File "/usr/lib/python2.7/json/decoder.py", line 366, in decode
    obj, end = self.raw_decode(s, idx=_w(s, 0).end())
  File "/usr/lib/python2.7/json/decoder.py", line 384, in raw_decode
    raise ValueError("No JSON object could be decoded")
ValueError: No JSON object could be decoded

[ERROR] 2018-06-13 02:26:17,834 | /home/frappe/frappe-bench/apps/frappe/frappe/utils/scheduler.py:
Site: site1.local
Exception in Enqueue Events for Site site1.local
Traceback (most recent call last):
  File "/home/frappe/frappe-bench/apps/frappe/frappe/utils/scheduler.py", line 80, in enqueue_events_for_site
    frappe.init(site=site)
  File "/home/frappe/frappe-bench/apps/frappe/frappe/__init__.py", line 135, in init
    local.conf = _dict(get_site_config())
  File "/home/frappe/frappe-bench/apps/frappe/frappe/__init__.py", line 189, in get_site_config
    config.update(get_file_json(site_config))
  File "/home/frappe/frappe-bench/apps/frappe/frappe/__init__.py", line 896, in get_file_json
    return json.load(f)
  File "/usr/lib/python2.7/json/__init__.py", line 290, in load
    **kw)
  File "/usr/lib/python2.7/json/__init__.py", line 338, in loads
    return _default_decoder.decode(s)
  File "/usr/lib/python2.7/json/decoder.py", line 366, in decode
    obj, end = self.raw_decode(s, idx=_w(s, 0).end())
  File "/usr/lib/python2.7/json/decoder.py", line 384, in raw_decode
    raise ValueError("No JSON object could be decoded")
ValueError: No JSON object could be decoded

[ERROR] 2018-06-13 02:27:17,894 | /home/frappe/frappe-bench/apps/frappe/frappe/utils/scheduler.py:
Site: site1.local
Exception in Enqueue Events for Site site1.local
Traceback (most recent call last):
  File "/home/frappe/frappe-bench/apps/frappe/frappe/utils/scheduler.py", line 80, in enqueue_events_for_site
    frappe.init(site=site)
  File "/home/frappe/frappe-bench/apps/frappe/frappe/__init__.py", line 135, in init
    local.conf = _dict(get_site_config())
  File "/home/frappe/frappe-bench/apps/frappe/frappe/__init__.py", line 189, in get_site_config
    config.update(get_file_json(site_config))
  File "/home/frappe/frappe-bench/apps/frappe/frappe/__init__.py", line 896, in get_file_json
    return json.load(f)
  File "/usr/lib/python2.7/json/__init__.py", line 290, in load
    **kw)
  File "/usr/lib/python2.7/json/__init__.py", line 338, in loads
    return _default_decoder.decode(s)
  File "/usr/lib/python2.7/json/decoder.py", line 366, in decode
    obj, end = self.raw_decode(s, idx=_w(s, 0).end())
  File "/usr/lib/python2.7/json/decoder.py", line 384, in raw_decode
    raise ValueError("No JSON object could be decoded")
ValueError: No JSON object could be decoded

