[ERROR] 2018-06-13 17:42:11,396 | /home/frappe/frappe-bench/apps/frappe/frappe/utils/scheduler.py:
Site: site1.local
Exception in Enqueue Events for Site site1.local
Traceback (most recent call last):
  File "/home/frappe/frappe-bench/apps/frappe/frappe/utils/scheduler.py", line 80, in enqueue_events_for_site
    frappe.init(site=site)
  File "/home/frappe/frappe-bench/apps/frappe/frappe/__init__.py", line 135, in init
    local.conf = _dict(get_site_config())
  File "/home/frappe/frappe-bench/apps/frappe/frappe/__init__.py", line 189, in get_site_config
    config.update(get_file_json(site_config))
  File "/home/frappe/frappe-bench/apps/frappe/frappe/__init__.py", line 896, in get_file_json
    return json.load(f)
  File "/usr/lib/python2.7/json/__init__.py", line 290, in load
    **kw)
  File "/usr/lib/python2.7/json/__init__.py", line 338, in loads
    return _default_decoder.decode(s)
  File "/usr/lib/python2.7/json/decoder.py", line 366, in decode
    obj, end = self.raw_decode(s, idx=_w(s, 0).end())
  File "/usr/lib/python2.7/json/decoder.py", line 384, in raw_decode
    raise ValueError("No JSON object could be decoded")
ValueError: No JSON object could be decoded

[ERROR] 2018-06-13 17:43:11,454 | /home/frappe/frappe-bench/apps/frappe/frappe/utils/scheduler.py:
Site: site1.local
Exception in Enqueue Events for Site site1.local
Traceback (most recent call last):
  File "/home/frappe/frappe-bench/apps/frappe/frappe/utils/scheduler.py", line 80, in enqueue_events_for_site
    frappe.init(site=site)
  File "/home/frappe/frappe-bench/apps/frappe/frappe/__init__.py", line 135, in init
    local.conf = _dict(get_site_config())
  File "/home/frappe/frappe-bench/apps/frappe/frappe/__init__.py", line 189, in get_site_config
    config.update(get_file_json(site_config))
  File "/home/frappe/frappe-bench/apps/frappe/frappe/__init__.py", line 896, in get_file_json
    return json.load(f)
  File "/usr/lib/python2.7/json/__init__.py", line 290, in load
    **kw)
  File "/usr/lib/python2.7/json/__init__.py", line 338, in loads
    return _default_decoder.decode(s)
  File "/usr/lib/python2.7/json/decoder.py", line 366, in decode
    obj, end = self.raw_decode(s, idx=_w(s, 0).end())
  File "/usr/lib/python2.7/json/decoder.py", line 384, in raw_decode
    raise ValueError("No JSON object could be decoded")
ValueError: No JSON object could be decoded

[ERROR] 2018-06-13 17:44:11,515 | /home/frappe/frappe-bench/apps/frappe/frappe/utils/scheduler.py:
Site: site1.local
Exception in Enqueue Events for Site site1.local
Traceback (most recent call last):
  File "/home/frappe/frappe-bench/apps/frappe/frappe/utils/scheduler.py", line 80, in enqueue_events_for_site
    frappe.init(site=site)
  File "/home/frappe/frappe-bench/apps/frappe/frappe/__init__.py", line 135, in init
    local.conf = _dict(get_site_config())
  File "/home/frappe/frappe-bench/apps/frappe/frappe/__init__.py", line 189, in get_site_config
    config.update(get_file_json(site_config))
  File "/home/frappe/frappe-bench/apps/frappe/frappe/__init__.py", line 896, in get_file_json
    return json.load(f)
  File "/usr/lib/python2.7/json/__init__.py", line 290, in load
    **kw)
  File "/usr/lib/python2.7/json/__init__.py", line 338, in loads
    return _default_decoder.decode(s)
  File "/usr/lib/python2.7/json/decoder.py", line 366, in decode
    obj, end = self.raw_decode(s, idx=_w(s, 0).end())
  File "/usr/lib/python2.7/json/decoder.py", line 384, in raw_decode
    raise ValueError("No JSON object could be decoded")
ValueError: No JSON object could be decoded

[ERROR] 2018-06-13 17:45:11,571 | /home/frappe/frappe-bench/apps/frappe/frappe/utils/scheduler.py:
Site: site1.local
Exception in Enqueue Events for Site site1.local
Traceback (most recent call last):
  File "/home/frappe/frappe-bench/apps/frappe/frappe/utils/scheduler.py", line 80, in enqueue_events_for_site
    frappe.init(site=site)
  File "/home/frappe/frappe-bench/apps/frappe/frappe/__init__.py", line 135, in init
    local.conf = _dict(get_site_config())
  File "/home/frappe/frappe-bench/apps/frappe/frappe/__init__.py", line 189, in get_site_config
    config.update(get_file_json(site_config))
  File "/home/frappe/frappe-bench/apps/frappe/frappe/__init__.py", line 896, in get_file_json
    return json.load(f)
  File "/usr/lib/python2.7/json/__init__.py", line 290, in load
    **kw)
  File "/usr/lib/python2.7/json/__init__.py", line 338, in loads
    return _default_decoder.decode(s)
  File "/usr/lib/python2.7/json/decoder.py", line 366, in decode
    obj, end = self.raw_decode(s, idx=_w(s, 0).end())
  File "/usr/lib/python2.7/json/decoder.py", line 384, in raw_decode
    raise ValueError("No JSON object could be decoded")
ValueError: No JSON object could be decoded

[ERROR] 2018-06-13 17:46:11,627 | /home/frappe/frappe-bench/apps/frappe/frappe/utils/scheduler.py:
Site: site1.local
Exception in Enqueue Events for Site site1.local
Traceback (most recent call last):
  File "/home/frappe/frappe-bench/apps/frappe/frappe/utils/scheduler.py", line 80, in enqueue_events_for_site
    frappe.init(site=site)
  File "/home/frappe/frappe-bench/apps/frappe/frappe/__init__.py", line 135, in init
    local.conf = _dict(get_site_config())
  File "/home/frappe/frappe-bench/apps/frappe/frappe/__init__.py", line 189, in get_site_config
    config.update(get_file_json(site_config))
  File "/home/frappe/frappe-bench/apps/frappe/frappe/__init__.py", line 896, in get_file_json
    return json.load(f)
  File "/usr/lib/python2.7/json/__init__.py", line 290, in load
    **kw)
  File "/usr/lib/python2.7/json/__init__.py", line 338, in loads
    return _default_decoder.decode(s)
  File "/usr/lib/python2.7/json/decoder.py", line 366, in decode
    obj, end = self.raw_decode(s, idx=_w(s, 0).end())
  File "/usr/lib/python2.7/json/decoder.py", line 384, in raw_decode
    raise ValueError("No JSON object could be decoded")
ValueError: No JSON object could be decoded

[ERROR] 2018-06-13 17:47:11,687 | /home/frappe/frappe-bench/apps/frappe/frappe/utils/scheduler.py:
Site: site1.local
Exception in Enqueue Events for Site site1.local
Traceback (most recent call last):
  File "/home/frappe/frappe-bench/apps/frappe/frappe/utils/scheduler.py", line 80, in enqueue_events_for_site
    frappe.init(site=site)
  File "/home/frappe/frappe-bench/apps/frappe/frappe/__init__.py", line 135, in init
    local.conf = _dict(get_site_config())
  File "/home/frappe/frappe-bench/apps/frappe/frappe/__init__.py", line 189, in get_site_config
    config.update(get_file_json(site_config))
  File "/home/frappe/frappe-bench/apps/frappe/frappe/__init__.py", line 896, in get_file_json
    return json.load(f)
  File "/usr/lib/python2.7/json/__init__.py", line 290, in load
    **kw)
  File "/usr/lib/python2.7/json/__init__.py", line 338, in loads
    return _default_decoder.decode(s)
  File "/usr/lib/python2.7/json/decoder.py", line 366, in decode
    obj, end = self.raw_decode(s, idx=_w(s, 0).end())
  File "/usr/lib/python2.7/json/decoder.py", line 384, in raw_decode
    raise ValueError("No JSON object could be decoded")
ValueError: No JSON object could be decoded

[ERROR] 2018-06-13 17:48:11,744 | /home/frappe/frappe-bench/apps/frappe/frappe/utils/scheduler.py:
Site: site1.local
Exception in Enqueue Events for Site site1.local
Traceback (most recent call last):
  File "/home/frappe/frappe-bench/apps/frappe/frappe/utils/scheduler.py", line 80, in enqueue_events_for_site
    frappe.init(site=site)
  File "/home/frappe/frappe-bench/apps/frappe/frappe/__init__.py", line 135, in init
    local.conf = _dict(get_site_config())
  File "/home/frappe/frappe-bench/apps/frappe/frappe/__init__.py", line 189, in get_site_config
    config.update(get_file_json(site_config))
  File "/home/frappe/frappe-bench/apps/frappe/frappe/__init__.py", line 896, in get_file_json
    return json.load(f)
  File "/usr/lib/python2.7/json/__init__.py", line 290, in load
    **kw)
  File "/usr/lib/python2.7/json/__init__.py", line 338, in loads
    return _default_decoder.decode(s)
  File "/usr/lib/python2.7/json/decoder.py", line 366, in decode
    obj, end = self.raw_decode(s, idx=_w(s, 0).end())
  File "/usr/lib/python2.7/json/decoder.py", line 384, in raw_decode
    raise ValueError("No JSON object could be decoded")
ValueError: No JSON object could be decoded

[ERROR] 2018-06-13 17:49:11,808 | /home/frappe/frappe-bench/apps/frappe/frappe/utils/scheduler.py:
Site: site1.local
Exception in Enqueue Events for Site site1.local
Traceback (most recent call last):
  File "/home/frappe/frappe-bench/apps/frappe/frappe/utils/scheduler.py", line 80, in enqueue_events_for_site
    frappe.init(site=site)
  File "/home/frappe/frappe-bench/apps/frappe/frappe/__init__.py", line 135, in init
    local.conf = _dict(get_site_config())
  File "/home/frappe/frappe-bench/apps/frappe/frappe/__init__.py", line 189, in get_site_config
    config.update(get_file_json(site_config))
  File "/home/frappe/frappe-bench/apps/frappe/frappe/__init__.py", line 896, in get_file_json
    return json.load(f)
  File "/usr/lib/python2.7/json/__init__.py", line 290, in load
    **kw)
  File "/usr/lib/python2.7/json/__init__.py", line 338, in loads
    return _default_decoder.decode(s)
  File "/usr/lib/python2.7/json/decoder.py", line 366, in decode
    obj, end = self.raw_decode(s, idx=_w(s, 0).end())
  File "/usr/lib/python2.7/json/decoder.py", line 384, in raw_decode
    raise ValueError("No JSON object could be decoded")
ValueError: No JSON object could be decoded

[ERROR] 2018-06-13 17:50:11,868 | /home/frappe/frappe-bench/apps/frappe/frappe/utils/scheduler.py:
Site: site1.local
Exception in Enqueue Events for Site site1.local
Traceback (most recent call last):
  File "/home/frappe/frappe-bench/apps/frappe/frappe/utils/scheduler.py", line 80, in enqueue_events_for_site
    frappe.init(site=site)
  File "/home/frappe/frappe-bench/apps/frappe/frappe/__init__.py", line 135, in init
    local.conf = _dict(get_site_config())
  File "/home/frappe/frappe-bench/apps/frappe/frappe/__init__.py", line 189, in get_site_config
    config.update(get_file_json(site_config))
  File "/home/frappe/frappe-bench/apps/frappe/frappe/__init__.py", line 896, in get_file_json
    return json.load(f)
  File "/usr/lib/python2.7/json/__init__.py", line 290, in load
    **kw)
  File "/usr/lib/python2.7/json/__init__.py", line 338, in loads
    return _default_decoder.decode(s)
  File "/usr/lib/python2.7/json/decoder.py", line 366, in decode
    obj, end = self.raw_decode(s, idx=_w(s, 0).end())
  File "/usr/lib/python2.7/json/decoder.py", line 384, in raw_decode
    raise ValueError("No JSON object could be decoded")
ValueError: No JSON object could be decoded

[ERROR] 2018-06-13 17:51:11,933 | /home/frappe/frappe-bench/apps/frappe/frappe/utils/scheduler.py:
Site: site1.local
Exception in Enqueue Events for Site site1.local
Traceback (most recent call last):
  File "/home/frappe/frappe-bench/apps/frappe/frappe/utils/scheduler.py", line 80, in enqueue_events_for_site
    frappe.init(site=site)
  File "/home/frappe/frappe-bench/apps/frappe/frappe/__init__.py", line 135, in init
    local.conf = _dict(get_site_config())
  File "/home/frappe/frappe-bench/apps/frappe/frappe/__init__.py", line 189, in get_site_config
    config.update(get_file_json(site_config))
  File "/home/frappe/frappe-bench/apps/frappe/frappe/__init__.py", line 896, in get_file_json
    return json.load(f)
  File "/usr/lib/python2.7/json/__init__.py", line 290, in load
    **kw)
  File "/usr/lib/python2.7/json/__init__.py", line 338, in loads
    return _default_decoder.decode(s)
  File "/usr/lib/python2.7/json/decoder.py", line 366, in decode
    obj, end = self.raw_decode(s, idx=_w(s, 0).end())
  File "/usr/lib/python2.7/json/decoder.py", line 384, in raw_decode
    raise ValueError("No JSON object could be decoded")
ValueError: No JSON object could be decoded

[ERROR] 2018-06-13 17:52:11,993 | /home/frappe/frappe-bench/apps/frappe/frappe/utils/scheduler.py:
Site: site1.local
Exception in Enqueue Events for Site site1.local
Traceback (most recent call last):
  File "/home/frappe/frappe-bench/apps/frappe/frappe/utils/scheduler.py", line 80, in enqueue_events_for_site
    frappe.init(site=site)
  File "/home/frappe/frappe-bench/apps/frappe/frappe/__init__.py", line 135, in init
    local.conf = _dict(get_site_config())
  File "/home/frappe/frappe-bench/apps/frappe/frappe/__init__.py", line 189, in get_site_config
    config.update(get_file_json(site_config))
  File "/home/frappe/frappe-bench/apps/frappe/frappe/__init__.py", line 896, in get_file_json
    return json.load(f)
  File "/usr/lib/python2.7/json/__init__.py", line 290, in load
    **kw)
  File "/usr/lib/python2.7/json/__init__.py", line 338, in loads
    return _default_decoder.decode(s)
  File "/usr/lib/python2.7/json/decoder.py", line 366, in decode
    obj, end = self.raw_decode(s, idx=_w(s, 0).end())
  File "/usr/lib/python2.7/json/decoder.py", line 384, in raw_decode
    raise ValueError("No JSON object could be decoded")
ValueError: No JSON object could be decoded

[ERROR] 2018-06-13 17:53:12,051 | /home/frappe/frappe-bench/apps/frappe/frappe/utils/scheduler.py:
Site: site1.local
Exception in Enqueue Events for Site site1.local
Traceback (most recent call last):
  File "/home/frappe/frappe-bench/apps/frappe/frappe/utils/scheduler.py", line 80, in enqueue_events_for_site
    frappe.init(site=site)
  File "/home/frappe/frappe-bench/apps/frappe/frappe/__init__.py", line 135, in init
    local.conf = _dict(get_site_config())
  File "/home/frappe/frappe-bench/apps/frappe/frappe/__init__.py", line 189, in get_site_config
    config.update(get_file_json(site_config))
  File "/home/frappe/frappe-bench/apps/frappe/frappe/__init__.py", line 896, in get_file_json
    return json.load(f)
  File "/usr/lib/python2.7/json/__init__.py", line 290, in load
    **kw)
  File "/usr/lib/python2.7/json/__init__.py", line 338, in loads
    return _default_decoder.decode(s)
  File "/usr/lib/python2.7/json/decoder.py", line 366, in decode
    obj, end = self.raw_decode(s, idx=_w(s, 0).end())
  File "/usr/lib/python2.7/json/decoder.py", line 384, in raw_decode
    raise ValueError("No JSON object could be decoded")
ValueError: No JSON object could be decoded

[ERROR] 2018-06-13 17:54:12,107 | /home/frappe/frappe-bench/apps/frappe/frappe/utils/scheduler.py:
Site: site1.local
Exception in Enqueue Events for Site site1.local
Traceback (most recent call last):
  File "/home/frappe/frappe-bench/apps/frappe/frappe/utils/scheduler.py", line 80, in enqueue_events_for_site
    frappe.init(site=site)
  File "/home/frappe/frappe-bench/apps/frappe/frappe/__init__.py", line 135, in init
    local.conf = _dict(get_site_config())
  File "/home/frappe/frappe-bench/apps/frappe/frappe/__init__.py", line 189, in get_site_config
    config.update(get_file_json(site_config))
  File "/home/frappe/frappe-bench/apps/frappe/frappe/__init__.py", line 896, in get_file_json
    return json.load(f)
  File "/usr/lib/python2.7/json/__init__.py", line 290, in load
    **kw)
  File "/usr/lib/python2.7/json/__init__.py", line 338, in loads
    return _default_decoder.decode(s)
  File "/usr/lib/python2.7/json/decoder.py", line 366, in decode
    obj, end = self.raw_decode(s, idx=_w(s, 0).end())
  File "/usr/lib/python2.7/json/decoder.py", line 384, in raw_decode
    raise ValueError("No JSON object could be decoded")
ValueError: No JSON object could be decoded

[ERROR] 2018-06-13 17:55:12,162 | /home/frappe/frappe-bench/apps/frappe/frappe/utils/scheduler.py:
Site: site1.local
Exception in Enqueue Events for Site site1.local
Traceback (most recent call last):
  File "/home/frappe/frappe-bench/apps/frappe/frappe/utils/scheduler.py", line 80, in enqueue_events_for_site
    frappe.init(site=site)
  File "/home/frappe/frappe-bench/apps/frappe/frappe/__init__.py", line 135, in init
    local.conf = _dict(get_site_config())
  File "/home/frappe/frappe-bench/apps/frappe/frappe/__init__.py", line 189, in get_site_config
    config.update(get_file_json(site_config))
  File "/home/frappe/frappe-bench/apps/frappe/frappe/__init__.py", line 896, in get_file_json
    return json.load(f)
  File "/usr/lib/python2.7/json/__init__.py", line 290, in load
    **kw)
  File "/usr/lib/python2.7/json/__init__.py", line 338, in loads
    return _default_decoder.decode(s)
  File "/usr/lib/python2.7/json/decoder.py", line 366, in decode
    obj, end = self.raw_decode(s, idx=_w(s, 0).end())
  File "/usr/lib/python2.7/json/decoder.py", line 384, in raw_decode
    raise ValueError("No JSON object could be decoded")
ValueError: No JSON object could be decoded

[ERROR] 2018-06-13 17:56:12,219 | /home/frappe/frappe-bench/apps/frappe/frappe/utils/scheduler.py:
Site: site1.local
Exception in Enqueue Events for Site site1.local
Traceback (most recent call last):
  File "/home/frappe/frappe-bench/apps/frappe/frappe/utils/scheduler.py", line 80, in enqueue_events_for_site
    frappe.init(site=site)
  File "/home/frappe/frappe-bench/apps/frappe/frappe/__init__.py", line 135, in init
    local.conf = _dict(get_site_config())
  File "/home/frappe/frappe-bench/apps/frappe/frappe/__init__.py", line 189, in get_site_config
    config.update(get_file_json(site_config))
  File "/home/frappe/frappe-bench/apps/frappe/frappe/__init__.py", line 896, in get_file_json
    return json.load(f)
  File "/usr/lib/python2.7/json/__init__.py", line 290, in load
    **kw)
  File "/usr/lib/python2.7/json/__init__.py", line 338, in loads
    return _default_decoder.decode(s)
  File "/usr/lib/python2.7/json/decoder.py", line 366, in decode
    obj, end = self.raw_decode(s, idx=_w(s, 0).end())
  File "/usr/lib/python2.7/json/decoder.py", line 384, in raw_decode
    raise ValueError("No JSON object could be decoded")
ValueError: No JSON object could be decoded

[ERROR] 2018-06-13 17:57:12,277 | /home/frappe/frappe-bench/apps/frappe/frappe/utils/scheduler.py:
Site: site1.local
Exception in Enqueue Events for Site site1.local
Traceback (most recent call last):
  File "/home/frappe/frappe-bench/apps/frappe/frappe/utils/scheduler.py", line 80, in enqueue_events_for_site
    frappe.init(site=site)
  File "/home/frappe/frappe-bench/apps/frappe/frappe/__init__.py", line 135, in init
    local.conf = _dict(get_site_config())
  File "/home/frappe/frappe-bench/apps/frappe/frappe/__init__.py", line 189, in get_site_config
    config.update(get_file_json(site_config))
  File "/home/frappe/frappe-bench/apps/frappe/frappe/__init__.py", line 896, in get_file_json
    return json.load(f)
  File "/usr/lib/python2.7/json/__init__.py", line 290, in load
    **kw)
  File "/usr/lib/python2.7/json/__init__.py", line 338, in loads
    return _default_decoder.decode(s)
  File "/usr/lib/python2.7/json/decoder.py", line 366, in decode
    obj, end = self.raw_decode(s, idx=_w(s, 0).end())
  File "/usr/lib/python2.7/json/decoder.py", line 384, in raw_decode
    raise ValueError("No JSON object could be decoded")
ValueError: No JSON object could be decoded

[ERROR] 2018-06-13 17:58:12,335 | /home/frappe/frappe-bench/apps/frappe/frappe/utils/scheduler.py:
Site: site1.local
Exception in Enqueue Events for Site site1.local
Traceback (most recent call last):
  File "/home/frappe/frappe-bench/apps/frappe/frappe/utils/scheduler.py", line 80, in enqueue_events_for_site
    frappe.init(site=site)
  File "/home/frappe/frappe-bench/apps/frappe/frappe/__init__.py", line 135, in init
    local.conf = _dict(get_site_config())
  File "/home/frappe/frappe-bench/apps/frappe/frappe/__init__.py", line 189, in get_site_config
    config.update(get_file_json(site_config))
  File "/home/frappe/frappe-bench/apps/frappe/frappe/__init__.py", line 896, in get_file_json
    return json.load(f)
  File "/usr/lib/python2.7/json/__init__.py", line 290, in load
    **kw)
  File "/usr/lib/python2.7/json/__init__.py", line 338, in loads
    return _default_decoder.decode(s)
  File "/usr/lib/python2.7/json/decoder.py", line 366, in decode
    obj, end = self.raw_decode(s, idx=_w(s, 0).end())
  File "/usr/lib/python2.7/json/decoder.py", line 384, in raw_decode
    raise ValueError("No JSON object could be decoded")
ValueError: No JSON object could be decoded

[ERROR] 2018-06-13 17:59:12,394 | /home/frappe/frappe-bench/apps/frappe/frappe/utils/scheduler.py:
Site: site1.local
Exception in Enqueue Events for Site site1.local
Traceback (most recent call last):
  File "/home/frappe/frappe-bench/apps/frappe/frappe/utils/scheduler.py", line 80, in enqueue_events_for_site
    frappe.init(site=site)
  File "/home/frappe/frappe-bench/apps/frappe/frappe/__init__.py", line 135, in init
    local.conf = _dict(get_site_config())
  File "/home/frappe/frappe-bench/apps/frappe/frappe/__init__.py", line 189, in get_site_config
    config.update(get_file_json(site_config))
  File "/home/frappe/frappe-bench/apps/frappe/frappe/__init__.py", line 896, in get_file_json
    return json.load(f)
  File "/usr/lib/python2.7/json/__init__.py", line 290, in load
    **kw)
  File "/usr/lib/python2.7/json/__init__.py", line 338, in loads
    return _default_decoder.decode(s)
  File "/usr/lib/python2.7/json/decoder.py", line 366, in decode
    obj, end = self.raw_decode(s, idx=_w(s, 0).end())
  File "/usr/lib/python2.7/json/decoder.py", line 384, in raw_decode
    raise ValueError("No JSON object could be decoded")
ValueError: No JSON object could be decoded

[ERROR] 2018-06-13 18:00:12,459 | /home/frappe/frappe-bench/apps/frappe/frappe/utils/scheduler.py:
Site: site1.local
Exception in Enqueue Events for Site site1.local
Traceback (most recent call last):
  File "/home/frappe/frappe-bench/apps/frappe/frappe/utils/scheduler.py", line 80, in enqueue_events_for_site
    frappe.init(site=site)
  File "/home/frappe/frappe-bench/apps/frappe/frappe/__init__.py", line 135, in init
    local.conf = _dict(get_site_config())
  File "/home/frappe/frappe-bench/apps/frappe/frappe/__init__.py", line 189, in get_site_config
    config.update(get_file_json(site_config))
  File "/home/frappe/frappe-bench/apps/frappe/frappe/__init__.py", line 896, in get_file_json
    return json.load(f)
  File "/usr/lib/python2.7/json/__init__.py", line 290, in load
    **kw)
  File "/usr/lib/python2.7/json/__init__.py", line 338, in loads
    return _default_decoder.decode(s)
  File "/usr/lib/python2.7/json/decoder.py", line 366, in decode
    obj, end = self.raw_decode(s, idx=_w(s, 0).end())
  File "/usr/lib/python2.7/json/decoder.py", line 384, in raw_decode
    raise ValueError("No JSON object could be decoded")
ValueError: No JSON object could be decoded

[ERROR] 2018-06-13 18:01:12,515 | /home/frappe/frappe-bench/apps/frappe/frappe/utils/scheduler.py:
Site: site1.local
Exception in Enqueue Events for Site site1.local
Traceback (most recent call last):
  File "/home/frappe/frappe-bench/apps/frappe/frappe/utils/scheduler.py", line 80, in enqueue_events_for_site
    frappe.init(site=site)
  File "/home/frappe/frappe-bench/apps/frappe/frappe/__init__.py", line 135, in init
    local.conf = _dict(get_site_config())
  File "/home/frappe/frappe-bench/apps/frappe/frappe/__init__.py", line 189, in get_site_config
    config.update(get_file_json(site_config))
  File "/home/frappe/frappe-bench/apps/frappe/frappe/__init__.py", line 896, in get_file_json
    return json.load(f)
  File "/usr/lib/python2.7/json/__init__.py", line 290, in load
    **kw)
  File "/usr/lib/python2.7/json/__init__.py", line 338, in loads
    return _default_decoder.decode(s)
  File "/usr/lib/python2.7/json/decoder.py", line 366, in decode
    obj, end = self.raw_decode(s, idx=_w(s, 0).end())
  File "/usr/lib/python2.7/json/decoder.py", line 384, in raw_decode
    raise ValueError("No JSON object could be decoded")
ValueError: No JSON object could be decoded

[ERROR] 2018-06-13 18:02:12,570 | /home/frappe/frappe-bench/apps/frappe/frappe/utils/scheduler.py:
Site: site1.local
Exception in Enqueue Events for Site site1.local
Traceback (most recent call last):
  File "/home/frappe/frappe-bench/apps/frappe/frappe/utils/scheduler.py", line 80, in enqueue_events_for_site
    frappe.init(site=site)
  File "/home/frappe/frappe-bench/apps/frappe/frappe/__init__.py", line 135, in init
    local.conf = _dict(get_site_config())
  File "/home/frappe/frappe-bench/apps/frappe/frappe/__init__.py", line 189, in get_site_config
    config.update(get_file_json(site_config))
  File "/home/frappe/frappe-bench/apps/frappe/frappe/__init__.py", line 896, in get_file_json
    return json.load(f)
  File "/usr/lib/python2.7/json/__init__.py", line 290, in load
    **kw)
  File "/usr/lib/python2.7/json/__init__.py", line 338, in loads
    return _default_decoder.decode(s)
  File "/usr/lib/python2.7/json/decoder.py", line 366, in decode
    obj, end = self.raw_decode(s, idx=_w(s, 0).end())
  File "/usr/lib/python2.7/json/decoder.py", line 384, in raw_decode
    raise ValueError("No JSON object could be decoded")
ValueError: No JSON object could be decoded

[ERROR] 2018-06-13 18:03:12,640 | /home/frappe/frappe-bench/apps/frappe/frappe/utils/scheduler.py:
Site: site1.local
Exception in Enqueue Events for Site site1.local
Traceback (most recent call last):
  File "/home/frappe/frappe-bench/apps/frappe/frappe/utils/scheduler.py", line 80, in enqueue_events_for_site
    frappe.init(site=site)
  File "/home/frappe/frappe-bench/apps/frappe/frappe/__init__.py", line 135, in init
    local.conf = _dict(get_site_config())
  File "/home/frappe/frappe-bench/apps/frappe/frappe/__init__.py", line 189, in get_site_config
    config.update(get_file_json(site_config))
  File "/home/frappe/frappe-bench/apps/frappe/frappe/__init__.py", line 896, in get_file_json
    return json.load(f)
  File "/usr/lib/python2.7/json/__init__.py", line 290, in load
    **kw)
  File "/usr/lib/python2.7/json/__init__.py", line 338, in loads
    return _default_decoder.decode(s)
  File "/usr/lib/python2.7/json/decoder.py", line 366, in decode
    obj, end = self.raw_decode(s, idx=_w(s, 0).end())
  File "/usr/lib/python2.7/json/decoder.py", line 384, in raw_decode
    raise ValueError("No JSON object could be decoded")
ValueError: No JSON object could be decoded

[ERROR] 2018-06-13 18:04:12,698 | /home/frappe/frappe-bench/apps/frappe/frappe/utils/scheduler.py:
Site: site1.local
Exception in Enqueue Events for Site site1.local
Traceback (most recent call last):
  File "/home/frappe/frappe-bench/apps/frappe/frappe/utils/scheduler.py", line 80, in enqueue_events_for_site
    frappe.init(site=site)
  File "/home/frappe/frappe-bench/apps/frappe/frappe/__init__.py", line 135, in init
    local.conf = _dict(get_site_config())
  File "/home/frappe/frappe-bench/apps/frappe/frappe/__init__.py", line 189, in get_site_config
    config.update(get_file_json(site_config))
  File "/home/frappe/frappe-bench/apps/frappe/frappe/__init__.py", line 896, in get_file_json
    return json.load(f)
  File "/usr/lib/python2.7/json/__init__.py", line 290, in load
    **kw)
  File "/usr/lib/python2.7/json/__init__.py", line 338, in loads
    return _default_decoder.decode(s)
  File "/usr/lib/python2.7/json/decoder.py", line 366, in decode
    obj, end = self.raw_decode(s, idx=_w(s, 0).end())
  File "/usr/lib/python2.7/json/decoder.py", line 384, in raw_decode
    raise ValueError("No JSON object could be decoded")
ValueError: No JSON object could be decoded

[ERROR] 2018-06-13 18:05:12,762 | /home/frappe/frappe-bench/apps/frappe/frappe/utils/scheduler.py:
Site: site1.local
Exception in Enqueue Events for Site site1.local
Traceback (most recent call last):
  File "/home/frappe/frappe-bench/apps/frappe/frappe/utils/scheduler.py", line 80, in enqueue_events_for_site
    frappe.init(site=site)
  File "/home/frappe/frappe-bench/apps/frappe/frappe/__init__.py", line 135, in init
    local.conf = _dict(get_site_config())
  File "/home/frappe/frappe-bench/apps/frappe/frappe/__init__.py", line 189, in get_site_config
    config.update(get_file_json(site_config))
  File "/home/frappe/frappe-bench/apps/frappe/frappe/__init__.py", line 896, in get_file_json
    return json.load(f)
  File "/usr/lib/python2.7/json/__init__.py", line 290, in load
    **kw)
  File "/usr/lib/python2.7/json/__init__.py", line 338, in loads
    return _default_decoder.decode(s)
  File "/usr/lib/python2.7/json/decoder.py", line 366, in decode
    obj, end = self.raw_decode(s, idx=_w(s, 0).end())
  File "/usr/lib/python2.7/json/decoder.py", line 384, in raw_decode
    raise ValueError("No JSON object could be decoded")
ValueError: No JSON object could be decoded

[ERROR] 2018-06-13 18:06:12,821 | /home/frappe/frappe-bench/apps/frappe/frappe/utils/scheduler.py:
Site: site1.local
Exception in Enqueue Events for Site site1.local
Traceback (most recent call last):
  File "/home/frappe/frappe-bench/apps/frappe/frappe/utils/scheduler.py", line 80, in enqueue_events_for_site
    frappe.init(site=site)
  File "/home/frappe/frappe-bench/apps/frappe/frappe/__init__.py", line 135, in init
    local.conf = _dict(get_site_config())
  File "/home/frappe/frappe-bench/apps/frappe/frappe/__init__.py", line 189, in get_site_config
    config.update(get_file_json(site_config))
  File "/home/frappe/frappe-bench/apps/frappe/frappe/__init__.py", line 896, in get_file_json
    return json.load(f)
  File "/usr/lib/python2.7/json/__init__.py", line 290, in load
    **kw)
  File "/usr/lib/python2.7/json/__init__.py", line 338, in loads
    return _default_decoder.decode(s)
  File "/usr/lib/python2.7/json/decoder.py", line 366, in decode
    obj, end = self.raw_decode(s, idx=_w(s, 0).end())
  File "/usr/lib/python2.7/json/decoder.py", line 384, in raw_decode
    raise ValueError("No JSON object could be decoded")
ValueError: No JSON object could be decoded

[ERROR] 2018-06-13 18:07:12,881 | /home/frappe/frappe-bench/apps/frappe/frappe/utils/scheduler.py:
Site: site1.local
Exception in Enqueue Events for Site site1.local
Traceback (most recent call last):
  File "/home/frappe/frappe-bench/apps/frappe/frappe/utils/scheduler.py", line 80, in enqueue_events_for_site
    frappe.init(site=site)
  File "/home/frappe/frappe-bench/apps/frappe/frappe/__init__.py", line 135, in init
    local.conf = _dict(get_site_config())
  File "/home/frappe/frappe-bench/apps/frappe/frappe/__init__.py", line 189, in get_site_config
    config.update(get_file_json(site_config))
  File "/home/frappe/frappe-bench/apps/frappe/frappe/__init__.py", line 896, in get_file_json
    return json.load(f)
  File "/usr/lib/python2.7/json/__init__.py", line 290, in load
    **kw)
  File "/usr/lib/python2.7/json/__init__.py", line 338, in loads
    return _default_decoder.decode(s)
  File "/usr/lib/python2.7/json/decoder.py", line 366, in decode
    obj, end = self.raw_decode(s, idx=_w(s, 0).end())
  File "/usr/lib/python2.7/json/decoder.py", line 384, in raw_decode
    raise ValueError("No JSON object could be decoded")
ValueError: No JSON object could be decoded

[ERROR] 2018-06-13 18:08:12,940 | /home/frappe/frappe-bench/apps/frappe/frappe/utils/scheduler.py:
Site: site1.local
Exception in Enqueue Events for Site site1.local
Traceback (most recent call last):
  File "/home/frappe/frappe-bench/apps/frappe/frappe/utils/scheduler.py", line 80, in enqueue_events_for_site
    frappe.init(site=site)
  File "/home/frappe/frappe-bench/apps/frappe/frappe/__init__.py", line 135, in init
    local.conf = _dict(get_site_config())
  File "/home/frappe/frappe-bench/apps/frappe/frappe/__init__.py", line 189, in get_site_config
    config.update(get_file_json(site_config))
  File "/home/frappe/frappe-bench/apps/frappe/frappe/__init__.py", line 896, in get_file_json
    return json.load(f)
  File "/usr/lib/python2.7/json/__init__.py", line 290, in load
    **kw)
  File "/usr/lib/python2.7/json/__init__.py", line 338, in loads
    return _default_decoder.decode(s)
  File "/usr/lib/python2.7/json/decoder.py", line 366, in decode
    obj, end = self.raw_decode(s, idx=_w(s, 0).end())
  File "/usr/lib/python2.7/json/decoder.py", line 384, in raw_decode
    raise ValueError("No JSON object could be decoded")
ValueError: No JSON object could be decoded

[ERROR] 2018-06-13 18:09:13,000 | /home/frappe/frappe-bench/apps/frappe/frappe/utils/scheduler.py:
Site: site1.local
Exception in Enqueue Events for Site site1.local
Traceback (most recent call last):
  File "/home/frappe/frappe-bench/apps/frappe/frappe/utils/scheduler.py", line 80, in enqueue_events_for_site
    frappe.init(site=site)
  File "/home/frappe/frappe-bench/apps/frappe/frappe/__init__.py", line 135, in init
    local.conf = _dict(get_site_config())
  File "/home/frappe/frappe-bench/apps/frappe/frappe/__init__.py", line 189, in get_site_config
    config.update(get_file_json(site_config))
  File "/home/frappe/frappe-bench/apps/frappe/frappe/__init__.py", line 896, in get_file_json
    return json.load(f)
  File "/usr/lib/python2.7/json/__init__.py", line 290, in load
    **kw)
  File "/usr/lib/python2.7/json/__init__.py", line 338, in loads
    return _default_decoder.decode(s)
  File "/usr/lib/python2.7/json/decoder.py", line 366, in decode
    obj, end = self.raw_decode(s, idx=_w(s, 0).end())
  File "/usr/lib/python2.7/json/decoder.py", line 384, in raw_decode
    raise ValueError("No JSON object could be decoded")
ValueError: No JSON object could be decoded

[ERROR] 2018-06-13 18:10:13,063 | /home/frappe/frappe-bench/apps/frappe/frappe/utils/scheduler.py:
Site: site1.local
Exception in Enqueue Events for Site site1.local
Traceback (most recent call last):
  File "/home/frappe/frappe-bench/apps/frappe/frappe/utils/scheduler.py", line 80, in enqueue_events_for_site
    frappe.init(site=site)
  File "/home/frappe/frappe-bench/apps/frappe/frappe/__init__.py", line 135, in init
    local.conf = _dict(get_site_config())
  File "/home/frappe/frappe-bench/apps/frappe/frappe/__init__.py", line 189, in get_site_config
    config.update(get_file_json(site_config))
  File "/home/frappe/frappe-bench/apps/frappe/frappe/__init__.py", line 896, in get_file_json
    return json.load(f)
  File "/usr/lib/python2.7/json/__init__.py", line 290, in load
    **kw)
  File "/usr/lib/python2.7/json/__init__.py", line 338, in loads
    return _default_decoder.decode(s)
  File "/usr/lib/python2.7/json/decoder.py", line 366, in decode
    obj, end = self.raw_decode(s, idx=_w(s, 0).end())
  File "/usr/lib/python2.7/json/decoder.py", line 384, in raw_decode
    raise ValueError("No JSON object could be decoded")
ValueError: No JSON object could be decoded

[ERROR] 2018-06-13 18:11:13,119 | /home/frappe/frappe-bench/apps/frappe/frappe/utils/scheduler.py:
Site: site1.local
Exception in Enqueue Events for Site site1.local
Traceback (most recent call last):
  File "/home/frappe/frappe-bench/apps/frappe/frappe/utils/scheduler.py", line 80, in enqueue_events_for_site
    frappe.init(site=site)
  File "/home/frappe/frappe-bench/apps/frappe/frappe/__init__.py", line 135, in init
    local.conf = _dict(get_site_config())
  File "/home/frappe/frappe-bench/apps/frappe/frappe/__init__.py", line 189, in get_site_config
    config.update(get_file_json(site_config))
  File "/home/frappe/frappe-bench/apps/frappe/frappe/__init__.py", line 896, in get_file_json
    return json.load(f)
  File "/usr/lib/python2.7/json/__init__.py", line 290, in load
    **kw)
  File "/usr/lib/python2.7/json/__init__.py", line 338, in loads
    return _default_decoder.decode(s)
  File "/usr/lib/python2.7/json/decoder.py", line 366, in decode
    obj, end = self.raw_decode(s, idx=_w(s, 0).end())
  File "/usr/lib/python2.7/json/decoder.py", line 384, in raw_decode
    raise ValueError("No JSON object could be decoded")
ValueError: No JSON object could be decoded

[ERROR] 2018-06-13 18:12:13,174 | /home/frappe/frappe-bench/apps/frappe/frappe/utils/scheduler.py:
Site: site1.local
Exception in Enqueue Events for Site site1.local
Traceback (most recent call last):
  File "/home/frappe/frappe-bench/apps/frappe/frappe/utils/scheduler.py", line 80, in enqueue_events_for_site
    frappe.init(site=site)
  File "/home/frappe/frappe-bench/apps/frappe/frappe/__init__.py", line 135, in init
    local.conf = _dict(get_site_config())
  File "/home/frappe/frappe-bench/apps/frappe/frappe/__init__.py", line 189, in get_site_config
    config.update(get_file_json(site_config))
  File "/home/frappe/frappe-bench/apps/frappe/frappe/__init__.py", line 896, in get_file_json
    return json.load(f)
  File "/usr/lib/python2.7/json/__init__.py", line 290, in load
    **kw)
  File "/usr/lib/python2.7/json/__init__.py", line 338, in loads
    return _default_decoder.decode(s)
  File "/usr/lib/python2.7/json/decoder.py", line 366, in decode
    obj, end = self.raw_decode(s, idx=_w(s, 0).end())
  File "/usr/lib/python2.7/json/decoder.py", line 384, in raw_decode
    raise ValueError("No JSON object could be decoded")
ValueError: No JSON object could be decoded

[ERROR] 2018-06-13 18:13:13,232 | /home/frappe/frappe-bench/apps/frappe/frappe/utils/scheduler.py:
Site: site1.local
Exception in Enqueue Events for Site site1.local
Traceback (most recent call last):
  File "/home/frappe/frappe-bench/apps/frappe/frappe/utils/scheduler.py", line 80, in enqueue_events_for_site
    frappe.init(site=site)
  File "/home/frappe/frappe-bench/apps/frappe/frappe/__init__.py", line 135, in init
    local.conf = _dict(get_site_config())
  File "/home/frappe/frappe-bench/apps/frappe/frappe/__init__.py", line 189, in get_site_config
    config.update(get_file_json(site_config))
  File "/home/frappe/frappe-bench/apps/frappe/frappe/__init__.py", line 896, in get_file_json
    return json.load(f)
  File "/usr/lib/python2.7/json/__init__.py", line 290, in load
    **kw)
  File "/usr/lib/python2.7/json/__init__.py", line 338, in loads
    return _default_decoder.decode(s)
  File "/usr/lib/python2.7/json/decoder.py", line 366, in decode
    obj, end = self.raw_decode(s, idx=_w(s, 0).end())
  File "/usr/lib/python2.7/json/decoder.py", line 384, in raw_decode
    raise ValueError("No JSON object could be decoded")
ValueError: No JSON object could be decoded

[ERROR] 2018-06-13 18:14:13,296 | /home/frappe/frappe-bench/apps/frappe/frappe/utils/scheduler.py:
Site: site1.local
Exception in Enqueue Events for Site site1.local
Traceback (most recent call last):
  File "/home/frappe/frappe-bench/apps/frappe/frappe/utils/scheduler.py", line 80, in enqueue_events_for_site
    frappe.init(site=site)
  File "/home/frappe/frappe-bench/apps/frappe/frappe/__init__.py", line 135, in init
    local.conf = _dict(get_site_config())
  File "/home/frappe/frappe-bench/apps/frappe/frappe/__init__.py", line 189, in get_site_config
    config.update(get_file_json(site_config))
  File "/home/frappe/frappe-bench/apps/frappe/frappe/__init__.py", line 896, in get_file_json
    return json.load(f)
  File "/usr/lib/python2.7/json/__init__.py", line 290, in load
    **kw)
  File "/usr/lib/python2.7/json/__init__.py", line 338, in loads
    return _default_decoder.decode(s)
  File "/usr/lib/python2.7/json/decoder.py", line 366, in decode
    obj, end = self.raw_decode(s, idx=_w(s, 0).end())
  File "/usr/lib/python2.7/json/decoder.py", line 384, in raw_decode
    raise ValueError("No JSON object could be decoded")
ValueError: No JSON object could be decoded

[ERROR] 2018-06-13 18:15:13,353 | /home/frappe/frappe-bench/apps/frappe/frappe/utils/scheduler.py:
Site: site1.local
Exception in Enqueue Events for Site site1.local
Traceback (most recent call last):
  File "/home/frappe/frappe-bench/apps/frappe/frappe/utils/scheduler.py", line 80, in enqueue_events_for_site
    frappe.init(site=site)
  File "/home/frappe/frappe-bench/apps/frappe/frappe/__init__.py", line 135, in init
    local.conf = _dict(get_site_config())
  File "/home/frappe/frappe-bench/apps/frappe/frappe/__init__.py", line 189, in get_site_config
    config.update(get_file_json(site_config))
  File "/home/frappe/frappe-bench/apps/frappe/frappe/__init__.py", line 896, in get_file_json
    return json.load(f)
  File "/usr/lib/python2.7/json/__init__.py", line 290, in load
    **kw)
  File "/usr/lib/python2.7/json/__init__.py", line 338, in loads
    return _default_decoder.decode(s)
  File "/usr/lib/python2.7/json/decoder.py", line 366, in decode
    obj, end = self.raw_decode(s, idx=_w(s, 0).end())
  File "/usr/lib/python2.7/json/decoder.py", line 384, in raw_decode
    raise ValueError("No JSON object could be decoded")
ValueError: No JSON object could be decoded

[ERROR] 2018-06-13 18:16:13,411 | /home/frappe/frappe-bench/apps/frappe/frappe/utils/scheduler.py:
Site: site1.local
Exception in Enqueue Events for Site site1.local
Traceback (most recent call last):
  File "/home/frappe/frappe-bench/apps/frappe/frappe/utils/scheduler.py", line 80, in enqueue_events_for_site
    frappe.init(site=site)
  File "/home/frappe/frappe-bench/apps/frappe/frappe/__init__.py", line 135, in init
    local.conf = _dict(get_site_config())
  File "/home/frappe/frappe-bench/apps/frappe/frappe/__init__.py", line 189, in get_site_config
    config.update(get_file_json(site_config))
  File "/home/frappe/frappe-bench/apps/frappe/frappe/__init__.py", line 896, in get_file_json
    return json.load(f)
  File "/usr/lib/python2.7/json/__init__.py", line 290, in load
    **kw)
  File "/usr/lib/python2.7/json/__init__.py", line 338, in loads
    return _default_decoder.decode(s)
  File "/usr/lib/python2.7/json/decoder.py", line 366, in decode
    obj, end = self.raw_decode(s, idx=_w(s, 0).end())
  File "/usr/lib/python2.7/json/decoder.py", line 384, in raw_decode
    raise ValueError("No JSON object could be decoded")
ValueError: No JSON object could be decoded

[ERROR] 2018-06-13 18:17:13,465 | /home/frappe/frappe-bench/apps/frappe/frappe/utils/scheduler.py:
Site: site1.local
Exception in Enqueue Events for Site site1.local
Traceback (most recent call last):
  File "/home/frappe/frappe-bench/apps/frappe/frappe/utils/scheduler.py", line 80, in enqueue_events_for_site
    frappe.init(site=site)
  File "/home/frappe/frappe-bench/apps/frappe/frappe/__init__.py", line 135, in init
    local.conf = _dict(get_site_config())
  File "/home/frappe/frappe-bench/apps/frappe/frappe/__init__.py", line 189, in get_site_config
    config.update(get_file_json(site_config))
  File "/home/frappe/frappe-bench/apps/frappe/frappe/__init__.py", line 896, in get_file_json
    return json.load(f)
  File "/usr/lib/python2.7/json/__init__.py", line 290, in load
    **kw)
  File "/usr/lib/python2.7/json/__init__.py", line 338, in loads
    return _default_decoder.decode(s)
  File "/usr/lib/python2.7/json/decoder.py", line 366, in decode
    obj, end = self.raw_decode(s, idx=_w(s, 0).end())
  File "/usr/lib/python2.7/json/decoder.py", line 384, in raw_decode
    raise ValueError("No JSON object could be decoded")
ValueError: No JSON object could be decoded

[ERROR] 2018-06-13 18:18:13,518 | /home/frappe/frappe-bench/apps/frappe/frappe/utils/scheduler.py:
Site: site1.local
Exception in Enqueue Events for Site site1.local
Traceback (most recent call last):
  File "/home/frappe/frappe-bench/apps/frappe/frappe/utils/scheduler.py", line 80, in enqueue_events_for_site
    frappe.init(site=site)
  File "/home/frappe/frappe-bench/apps/frappe/frappe/__init__.py", line 135, in init
    local.conf = _dict(get_site_config())
  File "/home/frappe/frappe-bench/apps/frappe/frappe/__init__.py", line 189, in get_site_config
    config.update(get_file_json(site_config))
  File "/home/frappe/frappe-bench/apps/frappe/frappe/__init__.py", line 896, in get_file_json
    return json.load(f)
  File "/usr/lib/python2.7/json/__init__.py", line 290, in load
    **kw)
  File "/usr/lib/python2.7/json/__init__.py", line 338, in loads
    return _default_decoder.decode(s)
  File "/usr/lib/python2.7/json/decoder.py", line 366, in decode
    obj, end = self.raw_decode(s, idx=_w(s, 0).end())
  File "/usr/lib/python2.7/json/decoder.py", line 384, in raw_decode
    raise ValueError("No JSON object could be decoded")
ValueError: No JSON object could be decoded

[ERROR] 2018-06-13 18:19:13,573 | /home/frappe/frappe-bench/apps/frappe/frappe/utils/scheduler.py:
Site: site1.local
Exception in Enqueue Events for Site site1.local
Traceback (most recent call last):
  File "/home/frappe/frappe-bench/apps/frappe/frappe/utils/scheduler.py", line 80, in enqueue_events_for_site
    frappe.init(site=site)
  File "/home/frappe/frappe-bench/apps/frappe/frappe/__init__.py", line 135, in init
    local.conf = _dict(get_site_config())
  File "/home/frappe/frappe-bench/apps/frappe/frappe/__init__.py", line 189, in get_site_config
    config.update(get_file_json(site_config))
  File "/home/frappe/frappe-bench/apps/frappe/frappe/__init__.py", line 896, in get_file_json
    return json.load(f)
  File "/usr/lib/python2.7/json/__init__.py", line 290, in load
    **kw)
  File "/usr/lib/python2.7/json/__init__.py", line 338, in loads
    return _default_decoder.decode(s)
  File "/usr/lib/python2.7/json/decoder.py", line 366, in decode
    obj, end = self.raw_decode(s, idx=_w(s, 0).end())
  File "/usr/lib/python2.7/json/decoder.py", line 384, in raw_decode
    raise ValueError("No JSON object could be decoded")
ValueError: No JSON object could be decoded

[ERROR] 2018-06-13 18:20:13,628 | /home/frappe/frappe-bench/apps/frappe/frappe/utils/scheduler.py:
Site: site1.local
Exception in Enqueue Events for Site site1.local
Traceback (most recent call last):
  File "/home/frappe/frappe-bench/apps/frappe/frappe/utils/scheduler.py", line 80, in enqueue_events_for_site
    frappe.init(site=site)
  File "/home/frappe/frappe-bench/apps/frappe/frappe/__init__.py", line 135, in init
    local.conf = _dict(get_site_config())
  File "/home/frappe/frappe-bench/apps/frappe/frappe/__init__.py", line 189, in get_site_config
    config.update(get_file_json(site_config))
  File "/home/frappe/frappe-bench/apps/frappe/frappe/__init__.py", line 896, in get_file_json
    return json.load(f)
  File "/usr/lib/python2.7/json/__init__.py", line 290, in load
    **kw)
  File "/usr/lib/python2.7/json/__init__.py", line 338, in loads
    return _default_decoder.decode(s)
  File "/usr/lib/python2.7/json/decoder.py", line 366, in decode
    obj, end = self.raw_decode(s, idx=_w(s, 0).end())
  File "/usr/lib/python2.7/json/decoder.py", line 384, in raw_decode
    raise ValueError("No JSON object could be decoded")
ValueError: No JSON object could be decoded

[ERROR] 2018-06-13 18:21:13,685 | /home/frappe/frappe-bench/apps/frappe/frappe/utils/scheduler.py:
Site: site1.local
Exception in Enqueue Events for Site site1.local
Traceback (most recent call last):
  File "/home/frappe/frappe-bench/apps/frappe/frappe/utils/scheduler.py", line 80, in enqueue_events_for_site
    frappe.init(site=site)
  File "/home/frappe/frappe-bench/apps/frappe/frappe/__init__.py", line 135, in init
    local.conf = _dict(get_site_config())
  File "/home/frappe/frappe-bench/apps/frappe/frappe/__init__.py", line 189, in get_site_config
    config.update(get_file_json(site_config))
  File "/home/frappe/frappe-bench/apps/frappe/frappe/__init__.py", line 896, in get_file_json
    return json.load(f)
  File "/usr/lib/python2.7/json/__init__.py", line 290, in load
    **kw)
  File "/usr/lib/python2.7/json/__init__.py", line 338, in loads
    return _default_decoder.decode(s)
  File "/usr/lib/python2.7/json/decoder.py", line 366, in decode
    obj, end = self.raw_decode(s, idx=_w(s, 0).end())
  File "/usr/lib/python2.7/json/decoder.py", line 384, in raw_decode
    raise ValueError("No JSON object could be decoded")
ValueError: No JSON object could be decoded

[ERROR] 2018-06-13 18:22:13,739 | /home/frappe/frappe-bench/apps/frappe/frappe/utils/scheduler.py:
Site: site1.local
Exception in Enqueue Events for Site site1.local
Traceback (most recent call last):
  File "/home/frappe/frappe-bench/apps/frappe/frappe/utils/scheduler.py", line 80, in enqueue_events_for_site
    frappe.init(site=site)
  File "/home/frappe/frappe-bench/apps/frappe/frappe/__init__.py", line 135, in init
    local.conf = _dict(get_site_config())
  File "/home/frappe/frappe-bench/apps/frappe/frappe/__init__.py", line 189, in get_site_config
    config.update(get_file_json(site_config))
  File "/home/frappe/frappe-bench/apps/frappe/frappe/__init__.py", line 896, in get_file_json
    return json.load(f)
  File "/usr/lib/python2.7/json/__init__.py", line 290, in load
    **kw)
  File "/usr/lib/python2.7/json/__init__.py", line 338, in loads
    return _default_decoder.decode(s)
  File "/usr/lib/python2.7/json/decoder.py", line 366, in decode
    obj, end = self.raw_decode(s, idx=_w(s, 0).end())
  File "/usr/lib/python2.7/json/decoder.py", line 384, in raw_decode
    raise ValueError("No JSON object could be decoded")
ValueError: No JSON object could be decoded

[ERROR] 2018-06-13 18:23:13,796 | /home/frappe/frappe-bench/apps/frappe/frappe/utils/scheduler.py:
Site: site1.local
Exception in Enqueue Events for Site site1.local
Traceback (most recent call last):
  File "/home/frappe/frappe-bench/apps/frappe/frappe/utils/scheduler.py", line 80, in enqueue_events_for_site
    frappe.init(site=site)
  File "/home/frappe/frappe-bench/apps/frappe/frappe/__init__.py", line 135, in init
    local.conf = _dict(get_site_config())
  File "/home/frappe/frappe-bench/apps/frappe/frappe/__init__.py", line 189, in get_site_config
    config.update(get_file_json(site_config))
  File "/home/frappe/frappe-bench/apps/frappe/frappe/__init__.py", line 896, in get_file_json
    return json.load(f)
  File "/usr/lib/python2.7/json/__init__.py", line 290, in load
    **kw)
  File "/usr/lib/python2.7/json/__init__.py", line 338, in loads
    return _default_decoder.decode(s)
  File "/usr/lib/python2.7/json/decoder.py", line 366, in decode
    obj, end = self.raw_decode(s, idx=_w(s, 0).end())
  File "/usr/lib/python2.7/json/decoder.py", line 384, in raw_decode
    raise ValueError("No JSON object could be decoded")
ValueError: No JSON object could be decoded

[ERROR] 2018-06-13 18:24:13,861 | /home/frappe/frappe-bench/apps/frappe/frappe/utils/scheduler.py:
Site: site1.local
Exception in Enqueue Events for Site site1.local
Traceback (most recent call last):
  File "/home/frappe/frappe-bench/apps/frappe/frappe/utils/scheduler.py", line 80, in enqueue_events_for_site
    frappe.init(site=site)
  File "/home/frappe/frappe-bench/apps/frappe/frappe/__init__.py", line 135, in init
    local.conf = _dict(get_site_config())
  File "/home/frappe/frappe-bench/apps/frappe/frappe/__init__.py", line 189, in get_site_config
    config.update(get_file_json(site_config))
  File "/home/frappe/frappe-bench/apps/frappe/frappe/__init__.py", line 896, in get_file_json
    return json.load(f)
  File "/usr/lib/python2.7/json/__init__.py", line 290, in load
    **kw)
  File "/usr/lib/python2.7/json/__init__.py", line 338, in loads
    return _default_decoder.decode(s)
  File "/usr/lib/python2.7/json/decoder.py", line 366, in decode
    obj, end = self.raw_decode(s, idx=_w(s, 0).end())
  File "/usr/lib/python2.7/json/decoder.py", line 384, in raw_decode
    raise ValueError("No JSON object could be decoded")
ValueError: No JSON object could be decoded

[ERROR] 2018-06-13 18:25:13,917 | /home/frappe/frappe-bench/apps/frappe/frappe/utils/scheduler.py:
Site: site1.local
Exception in Enqueue Events for Site site1.local
Traceback (most recent call last):
  File "/home/frappe/frappe-bench/apps/frappe/frappe/utils/scheduler.py", line 80, in enqueue_events_for_site
    frappe.init(site=site)
  File "/home/frappe/frappe-bench/apps/frappe/frappe/__init__.py", line 135, in init
    local.conf = _dict(get_site_config())
  File "/home/frappe/frappe-bench/apps/frappe/frappe/__init__.py", line 189, in get_site_config
    config.update(get_file_json(site_config))
  File "/home/frappe/frappe-bench/apps/frappe/frappe/__init__.py", line 896, in get_file_json
    return json.load(f)
  File "/usr/lib/python2.7/json/__init__.py", line 290, in load
    **kw)
  File "/usr/lib/python2.7/json/__init__.py", line 338, in loads
    return _default_decoder.decode(s)
  File "/usr/lib/python2.7/json/decoder.py", line 366, in decode
    obj, end = self.raw_decode(s, idx=_w(s, 0).end())
  File "/usr/lib/python2.7/json/decoder.py", line 384, in raw_decode
    raise ValueError("No JSON object could be decoded")
ValueError: No JSON object could be decoded

[ERROR] 2018-06-13 18:26:13,979 | /home/frappe/frappe-bench/apps/frappe/frappe/utils/scheduler.py:
Site: site1.local
Exception in Enqueue Events for Site site1.local
Traceback (most recent call last):
  File "/home/frappe/frappe-bench/apps/frappe/frappe/utils/scheduler.py", line 80, in enqueue_events_for_site
    frappe.init(site=site)
  File "/home/frappe/frappe-bench/apps/frappe/frappe/__init__.py", line 135, in init
    local.conf = _dict(get_site_config())
  File "/home/frappe/frappe-bench/apps/frappe/frappe/__init__.py", line 189, in get_site_config
    config.update(get_file_json(site_config))
  File "/home/frappe/frappe-bench/apps/frappe/frappe/__init__.py", line 896, in get_file_json
    return json.load(f)
  File "/usr/lib/python2.7/json/__init__.py", line 290, in load
    **kw)
  File "/usr/lib/python2.7/json/__init__.py", line 338, in loads
    return _default_decoder.decode(s)
  File "/usr/lib/python2.7/json/decoder.py", line 366, in decode
    obj, end = self.raw_decode(s, idx=_w(s, 0).end())
  File "/usr/lib/python2.7/json/decoder.py", line 384, in raw_decode
    raise ValueError("No JSON object could be decoded")
ValueError: No JSON object could be decoded

[ERROR] 2018-06-13 18:27:14,037 | /home/frappe/frappe-bench/apps/frappe/frappe/utils/scheduler.py:
Site: site1.local
Exception in Enqueue Events for Site site1.local
Traceback (most recent call last):
  File "/home/frappe/frappe-bench/apps/frappe/frappe/utils/scheduler.py", line 80, in enqueue_events_for_site
    frappe.init(site=site)
  File "/home/frappe/frappe-bench/apps/frappe/frappe/__init__.py", line 135, in init
    local.conf = _dict(get_site_config())
  File "/home/frappe/frappe-bench/apps/frappe/frappe/__init__.py", line 189, in get_site_config
    config.update(get_file_json(site_config))
  File "/home/frappe/frappe-bench/apps/frappe/frappe/__init__.py", line 896, in get_file_json
    return json.load(f)
  File "/usr/lib/python2.7/json/__init__.py", line 290, in load
    **kw)
  File "/usr/lib/python2.7/json/__init__.py", line 338, in loads
    return _default_decoder.decode(s)
  File "/usr/lib/python2.7/json/decoder.py", line 366, in decode
    obj, end = self.raw_decode(s, idx=_w(s, 0).end())
  File "/usr/lib/python2.7/json/decoder.py", line 384, in raw_decode
    raise ValueError("No JSON object could be decoded")
ValueError: No JSON object could be decoded

[ERROR] 2018-06-13 18:28:14,093 | /home/frappe/frappe-bench/apps/frappe/frappe/utils/scheduler.py:
Site: site1.local
Exception in Enqueue Events for Site site1.local
Traceback (most recent call last):
  File "/home/frappe/frappe-bench/apps/frappe/frappe/utils/scheduler.py", line 80, in enqueue_events_for_site
    frappe.init(site=site)
  File "/home/frappe/frappe-bench/apps/frappe/frappe/__init__.py", line 135, in init
    local.conf = _dict(get_site_config())
  File "/home/frappe/frappe-bench/apps/frappe/frappe/__init__.py", line 189, in get_site_config
    config.update(get_file_json(site_config))
  File "/home/frappe/frappe-bench/apps/frappe/frappe/__init__.py", line 896, in get_file_json
    return json.load(f)
  File "/usr/lib/python2.7/json/__init__.py", line 290, in load
    **kw)
  File "/usr/lib/python2.7/json/__init__.py", line 338, in loads
    return _default_decoder.decode(s)
  File "/usr/lib/python2.7/json/decoder.py", line 366, in decode
    obj, end = self.raw_decode(s, idx=_w(s, 0).end())
  File "/usr/lib/python2.7/json/decoder.py", line 384, in raw_decode
    raise ValueError("No JSON object could be decoded")
ValueError: No JSON object could be decoded

[ERROR] 2018-06-13 18:29:14,149 | /home/frappe/frappe-bench/apps/frappe/frappe/utils/scheduler.py:
Site: site1.local
Exception in Enqueue Events for Site site1.local
Traceback (most recent call last):
  File "/home/frappe/frappe-bench/apps/frappe/frappe/utils/scheduler.py", line 80, in enqueue_events_for_site
    frappe.init(site=site)
  File "/home/frappe/frappe-bench/apps/frappe/frappe/__init__.py", line 135, in init
    local.conf = _dict(get_site_config())
  File "/home/frappe/frappe-bench/apps/frappe/frappe/__init__.py", line 189, in get_site_config
    config.update(get_file_json(site_config))
  File "/home/frappe/frappe-bench/apps/frappe/frappe/__init__.py", line 896, in get_file_json
    return json.load(f)
  File "/usr/lib/python2.7/json/__init__.py", line 290, in load
    **kw)
  File "/usr/lib/python2.7/json/__init__.py", line 338, in loads
    return _default_decoder.decode(s)
  File "/usr/lib/python2.7/json/decoder.py", line 366, in decode
    obj, end = self.raw_decode(s, idx=_w(s, 0).end())
  File "/usr/lib/python2.7/json/decoder.py", line 384, in raw_decode
    raise ValueError("No JSON object could be decoded")
ValueError: No JSON object could be decoded

[ERROR] 2018-06-13 18:30:14,212 | /home/frappe/frappe-bench/apps/frappe/frappe/utils/scheduler.py:
Site: site1.local
Exception in Enqueue Events for Site site1.local
Traceback (most recent call last):
  File "/home/frappe/frappe-bench/apps/frappe/frappe/utils/scheduler.py", line 80, in enqueue_events_for_site
    frappe.init(site=site)
  File "/home/frappe/frappe-bench/apps/frappe/frappe/__init__.py", line 135, in init
    local.conf = _dict(get_site_config())
  File "/home/frappe/frappe-bench/apps/frappe/frappe/__init__.py", line 189, in get_site_config
    config.update(get_file_json(site_config))
  File "/home/frappe/frappe-bench/apps/frappe/frappe/__init__.py", line 896, in get_file_json
    return json.load(f)
  File "/usr/lib/python2.7/json/__init__.py", line 290, in load
    **kw)
  File "/usr/lib/python2.7/json/__init__.py", line 338, in loads
    return _default_decoder.decode(s)
  File "/usr/lib/python2.7/json/decoder.py", line 366, in decode
    obj, end = self.raw_decode(s, idx=_w(s, 0).end())
  File "/usr/lib/python2.7/json/decoder.py", line 384, in raw_decode
    raise ValueError("No JSON object could be decoded")
ValueError: No JSON object could be decoded

[ERROR] 2018-06-13 18:31:14,276 | /home/frappe/frappe-bench/apps/frappe/frappe/utils/scheduler.py:
Site: site1.local
Exception in Enqueue Events for Site site1.local
Traceback (most recent call last):
  File "/home/frappe/frappe-bench/apps/frappe/frappe/utils/scheduler.py", line 80, in enqueue_events_for_site
    frappe.init(site=site)
  File "/home/frappe/frappe-bench/apps/frappe/frappe/__init__.py", line 135, in init
    local.conf = _dict(get_site_config())
  File "/home/frappe/frappe-bench/apps/frappe/frappe/__init__.py", line 189, in get_site_config
    config.update(get_file_json(site_config))
  File "/home/frappe/frappe-bench/apps/frappe/frappe/__init__.py", line 896, in get_file_json
    return json.load(f)
  File "/usr/lib/python2.7/json/__init__.py", line 290, in load
    **kw)
  File "/usr/lib/python2.7/json/__init__.py", line 338, in loads
    return _default_decoder.decode(s)
  File "/usr/lib/python2.7/json/decoder.py", line 366, in decode
    obj, end = self.raw_decode(s, idx=_w(s, 0).end())
  File "/usr/lib/python2.7/json/decoder.py", line 384, in raw_decode
    raise ValueError("No JSON object could be decoded")
ValueError: No JSON object could be decoded

[ERROR] 2018-06-13 18:32:14,334 | /home/frappe/frappe-bench/apps/frappe/frappe/utils/scheduler.py:
Site: site1.local
Exception in Enqueue Events for Site site1.local
Traceback (most recent call last):
  File "/home/frappe/frappe-bench/apps/frappe/frappe/utils/scheduler.py", line 80, in enqueue_events_for_site
    frappe.init(site=site)
  File "/home/frappe/frappe-bench/apps/frappe/frappe/__init__.py", line 135, in init
    local.conf = _dict(get_site_config())
  File "/home/frappe/frappe-bench/apps/frappe/frappe/__init__.py", line 189, in get_site_config
    config.update(get_file_json(site_config))
  File "/home/frappe/frappe-bench/apps/frappe/frappe/__init__.py", line 896, in get_file_json
    return json.load(f)
  File "/usr/lib/python2.7/json/__init__.py", line 290, in load
    **kw)
  File "/usr/lib/python2.7/json/__init__.py", line 338, in loads
    return _default_decoder.decode(s)
  File "/usr/lib/python2.7/json/decoder.py", line 366, in decode
    obj, end = self.raw_decode(s, idx=_w(s, 0).end())
  File "/usr/lib/python2.7/json/decoder.py", line 384, in raw_decode
    raise ValueError("No JSON object could be decoded")
ValueError: No JSON object could be decoded

[ERROR] 2018-06-13 18:33:14,394 | /home/frappe/frappe-bench/apps/frappe/frappe/utils/scheduler.py:
Site: site1.local
Exception in Enqueue Events for Site site1.local
Traceback (most recent call last):
  File "/home/frappe/frappe-bench/apps/frappe/frappe/utils/scheduler.py", line 80, in enqueue_events_for_site
    frappe.init(site=site)
  File "/home/frappe/frappe-bench/apps/frappe/frappe/__init__.py", line 135, in init
    local.conf = _dict(get_site_config())
  File "/home/frappe/frappe-bench/apps/frappe/frappe/__init__.py", line 189, in get_site_config
    config.update(get_file_json(site_config))
  File "/home/frappe/frappe-bench/apps/frappe/frappe/__init__.py", line 896, in get_file_json
    return json.load(f)
  File "/usr/lib/python2.7/json/__init__.py", line 290, in load
    **kw)
  File "/usr/lib/python2.7/json/__init__.py", line 338, in loads
    return _default_decoder.decode(s)
  File "/usr/lib/python2.7/json/decoder.py", line 366, in decode
    obj, end = self.raw_decode(s, idx=_w(s, 0).end())
  File "/usr/lib/python2.7/json/decoder.py", line 384, in raw_decode
    raise ValueError("No JSON object could be decoded")
ValueError: No JSON object could be decoded

[ERROR] 2018-06-13 18:34:14,452 | /home/frappe/frappe-bench/apps/frappe/frappe/utils/scheduler.py:
Site: site1.local
Exception in Enqueue Events for Site site1.local
Traceback (most recent call last):
  File "/home/frappe/frappe-bench/apps/frappe/frappe/utils/scheduler.py", line 80, in enqueue_events_for_site
    frappe.init(site=site)
  File "/home/frappe/frappe-bench/apps/frappe/frappe/__init__.py", line 135, in init
    local.conf = _dict(get_site_config())
  File "/home/frappe/frappe-bench/apps/frappe/frappe/__init__.py", line 189, in get_site_config
    config.update(get_file_json(site_config))
  File "/home/frappe/frappe-bench/apps/frappe/frappe/__init__.py", line 896, in get_file_json
    return json.load(f)
  File "/usr/lib/python2.7/json/__init__.py", line 290, in load
    **kw)
  File "/usr/lib/python2.7/json/__init__.py", line 338, in loads
    return _default_decoder.decode(s)
  File "/usr/lib/python2.7/json/decoder.py", line 366, in decode
    obj, end = self.raw_decode(s, idx=_w(s, 0).end())
  File "/usr/lib/python2.7/json/decoder.py", line 384, in raw_decode
    raise ValueError("No JSON object could be decoded")
ValueError: No JSON object could be decoded

[ERROR] 2018-06-13 18:35:14,509 | /home/frappe/frappe-bench/apps/frappe/frappe/utils/scheduler.py:
Site: site1.local
Exception in Enqueue Events for Site site1.local
Traceback (most recent call last):
  File "/home/frappe/frappe-bench/apps/frappe/frappe/utils/scheduler.py", line 80, in enqueue_events_for_site
    frappe.init(site=site)
  File "/home/frappe/frappe-bench/apps/frappe/frappe/__init__.py", line 135, in init
    local.conf = _dict(get_site_config())
  File "/home/frappe/frappe-bench/apps/frappe/frappe/__init__.py", line 189, in get_site_config
    config.update(get_file_json(site_config))
  File "/home/frappe/frappe-bench/apps/frappe/frappe/__init__.py", line 896, in get_file_json
    return json.load(f)
  File "/usr/lib/python2.7/json/__init__.py", line 290, in load
    **kw)
  File "/usr/lib/python2.7/json/__init__.py", line 338, in loads
    return _default_decoder.decode(s)
  File "/usr/lib/python2.7/json/decoder.py", line 366, in decode
    obj, end = self.raw_decode(s, idx=_w(s, 0).end())
  File "/usr/lib/python2.7/json/decoder.py", line 384, in raw_decode
    raise ValueError("No JSON object could be decoded")
ValueError: No JSON object could be decoded

[ERROR] 2018-06-13 18:36:14,570 | /home/frappe/frappe-bench/apps/frappe/frappe/utils/scheduler.py:
Site: site1.local
Exception in Enqueue Events for Site site1.local
Traceback (most recent call last):
  File "/home/frappe/frappe-bench/apps/frappe/frappe/utils/scheduler.py", line 80, in enqueue_events_for_site
    frappe.init(site=site)
  File "/home/frappe/frappe-bench/apps/frappe/frappe/__init__.py", line 135, in init
    local.conf = _dict(get_site_config())
  File "/home/frappe/frappe-bench/apps/frappe/frappe/__init__.py", line 189, in get_site_config
    config.update(get_file_json(site_config))
  File "/home/frappe/frappe-bench/apps/frappe/frappe/__init__.py", line 896, in get_file_json
    return json.load(f)
  File "/usr/lib/python2.7/json/__init__.py", line 290, in load
    **kw)
  File "/usr/lib/python2.7/json/__init__.py", line 338, in loads
    return _default_decoder.decode(s)
  File "/usr/lib/python2.7/json/decoder.py", line 366, in decode
    obj, end = self.raw_decode(s, idx=_w(s, 0).end())
  File "/usr/lib/python2.7/json/decoder.py", line 384, in raw_decode
    raise ValueError("No JSON object could be decoded")
ValueError: No JSON object could be decoded

[ERROR] 2018-06-13 18:37:14,627 | /home/frappe/frappe-bench/apps/frappe/frappe/utils/scheduler.py:
Site: site1.local
Exception in Enqueue Events for Site site1.local
Traceback (most recent call last):
  File "/home/frappe/frappe-bench/apps/frappe/frappe/utils/scheduler.py", line 80, in enqueue_events_for_site
    frappe.init(site=site)
  File "/home/frappe/frappe-bench/apps/frappe/frappe/__init__.py", line 135, in init
    local.conf = _dict(get_site_config())
  File "/home/frappe/frappe-bench/apps/frappe/frappe/__init__.py", line 189, in get_site_config
    config.update(get_file_json(site_config))
  File "/home/frappe/frappe-bench/apps/frappe/frappe/__init__.py", line 896, in get_file_json
    return json.load(f)
  File "/usr/lib/python2.7/json/__init__.py", line 290, in load
    **kw)
  File "/usr/lib/python2.7/json/__init__.py", line 338, in loads
    return _default_decoder.decode(s)
  File "/usr/lib/python2.7/json/decoder.py", line 366, in decode
    obj, end = self.raw_decode(s, idx=_w(s, 0).end())
  File "/usr/lib/python2.7/json/decoder.py", line 384, in raw_decode
    raise ValueError("No JSON object could be decoded")
ValueError: No JSON object could be decoded

[ERROR] 2018-06-13 18:38:14,686 | /home/frappe/frappe-bench/apps/frappe/frappe/utils/scheduler.py:
Site: site1.local
Exception in Enqueue Events for Site site1.local
Traceback (most recent call last):
  File "/home/frappe/frappe-bench/apps/frappe/frappe/utils/scheduler.py", line 80, in enqueue_events_for_site
    frappe.init(site=site)
  File "/home/frappe/frappe-bench/apps/frappe/frappe/__init__.py", line 135, in init
    local.conf = _dict(get_site_config())
  File "/home/frappe/frappe-bench/apps/frappe/frappe/__init__.py", line 189, in get_site_config
    config.update(get_file_json(site_config))
  File "/home/frappe/frappe-bench/apps/frappe/frappe/__init__.py", line 896, in get_file_json
    return json.load(f)
  File "/usr/lib/python2.7/json/__init__.py", line 290, in load
    **kw)
  File "/usr/lib/python2.7/json/__init__.py", line 338, in loads
    return _default_decoder.decode(s)
  File "/usr/lib/python2.7/json/decoder.py", line 366, in decode
    obj, end = self.raw_decode(s, idx=_w(s, 0).end())
  File "/usr/lib/python2.7/json/decoder.py", line 384, in raw_decode
    raise ValueError("No JSON object could be decoded")
ValueError: No JSON object could be decoded

[ERROR] 2018-06-13 18:39:14,742 | /home/frappe/frappe-bench/apps/frappe/frappe/utils/scheduler.py:
Site: site1.local
Exception in Enqueue Events for Site site1.local
Traceback (most recent call last):
  File "/home/frappe/frappe-bench/apps/frappe/frappe/utils/scheduler.py", line 80, in enqueue_events_for_site
    frappe.init(site=site)
  File "/home/frappe/frappe-bench/apps/frappe/frappe/__init__.py", line 135, in init
    local.conf = _dict(get_site_config())
  File "/home/frappe/frappe-bench/apps/frappe/frappe/__init__.py", line 189, in get_site_config
    config.update(get_file_json(site_config))
  File "/home/frappe/frappe-bench/apps/frappe/frappe/__init__.py", line 896, in get_file_json
    return json.load(f)
  File "/usr/lib/python2.7/json/__init__.py", line 290, in load
    **kw)
  File "/usr/lib/python2.7/json/__init__.py", line 338, in loads
    return _default_decoder.decode(s)
  File "/usr/lib/python2.7/json/decoder.py", line 366, in decode
    obj, end = self.raw_decode(s, idx=_w(s, 0).end())
  File "/usr/lib/python2.7/json/decoder.py", line 384, in raw_decode
    raise ValueError("No JSON object could be decoded")
ValueError: No JSON object could be decoded

[ERROR] 2018-06-13 18:40:14,810 | /home/frappe/frappe-bench/apps/frappe/frappe/utils/scheduler.py:
Site: site1.local
Exception in Enqueue Events for Site site1.local
Traceback (most recent call last):
  File "/home/frappe/frappe-bench/apps/frappe/frappe/utils/scheduler.py", line 80, in enqueue_events_for_site
    frappe.init(site=site)
  File "/home/frappe/frappe-bench/apps/frappe/frappe/__init__.py", line 135, in init
    local.conf = _dict(get_site_config())
  File "/home/frappe/frappe-bench/apps/frappe/frappe/__init__.py", line 189, in get_site_config
    config.update(get_file_json(site_config))
  File "/home/frappe/frappe-bench/apps/frappe/frappe/__init__.py", line 896, in get_file_json
    return json.load(f)
  File "/usr/lib/python2.7/json/__init__.py", line 290, in load
    **kw)
  File "/usr/lib/python2.7/json/__init__.py", line 338, in loads
    return _default_decoder.decode(s)
  File "/usr/lib/python2.7/json/decoder.py", line 366, in decode
    obj, end = self.raw_decode(s, idx=_w(s, 0).end())
  File "/usr/lib/python2.7/json/decoder.py", line 384, in raw_decode
    raise ValueError("No JSON object could be decoded")
ValueError: No JSON object could be decoded

[ERROR] 2018-06-13 18:41:14,874 | /home/frappe/frappe-bench/apps/frappe/frappe/utils/scheduler.py:
Site: site1.local
Exception in Enqueue Events for Site site1.local
Traceback (most recent call last):
  File "/home/frappe/frappe-bench/apps/frappe/frappe/utils/scheduler.py", line 80, in enqueue_events_for_site
    frappe.init(site=site)
  File "/home/frappe/frappe-bench/apps/frappe/frappe/__init__.py", line 135, in init
    local.conf = _dict(get_site_config())
  File "/home/frappe/frappe-bench/apps/frappe/frappe/__init__.py", line 189, in get_site_config
    config.update(get_file_json(site_config))
  File "/home/frappe/frappe-bench/apps/frappe/frappe/__init__.py", line 896, in get_file_json
    return json.load(f)
  File "/usr/lib/python2.7/json/__init__.py", line 290, in load
    **kw)
  File "/usr/lib/python2.7/json/__init__.py", line 338, in loads
    return _default_decoder.decode(s)
  File "/usr/lib/python2.7/json/decoder.py", line 366, in decode
    obj, end = self.raw_decode(s, idx=_w(s, 0).end())
  File "/usr/lib/python2.7/json/decoder.py", line 384, in raw_decode
    raise ValueError("No JSON object could be decoded")
ValueError: No JSON object could be decoded

[ERROR] 2018-06-13 18:42:14,930 | /home/frappe/frappe-bench/apps/frappe/frappe/utils/scheduler.py:
Site: site1.local
Exception in Enqueue Events for Site site1.local
Traceback (most recent call last):
  File "/home/frappe/frappe-bench/apps/frappe/frappe/utils/scheduler.py", line 80, in enqueue_events_for_site
    frappe.init(site=site)
  File "/home/frappe/frappe-bench/apps/frappe/frappe/__init__.py", line 135, in init
    local.conf = _dict(get_site_config())
  File "/home/frappe/frappe-bench/apps/frappe/frappe/__init__.py", line 189, in get_site_config
    config.update(get_file_json(site_config))
  File "/home/frappe/frappe-bench/apps/frappe/frappe/__init__.py", line 896, in get_file_json
    return json.load(f)
  File "/usr/lib/python2.7/json/__init__.py", line 290, in load
    **kw)
  File "/usr/lib/python2.7/json/__init__.py", line 338, in loads
    return _default_decoder.decode(s)
  File "/usr/lib/python2.7/json/decoder.py", line 366, in decode
    obj, end = self.raw_decode(s, idx=_w(s, 0).end())
  File "/usr/lib/python2.7/json/decoder.py", line 384, in raw_decode
    raise ValueError("No JSON object could be decoded")
ValueError: No JSON object could be decoded

[ERROR] 2018-06-13 18:43:14,993 | /home/frappe/frappe-bench/apps/frappe/frappe/utils/scheduler.py:
Site: site1.local
Exception in Enqueue Events for Site site1.local
Traceback (most recent call last):
  File "/home/frappe/frappe-bench/apps/frappe/frappe/utils/scheduler.py", line 80, in enqueue_events_for_site
    frappe.init(site=site)
  File "/home/frappe/frappe-bench/apps/frappe/frappe/__init__.py", line 135, in init
    local.conf = _dict(get_site_config())
  File "/home/frappe/frappe-bench/apps/frappe/frappe/__init__.py", line 189, in get_site_config
    config.update(get_file_json(site_config))
  File "/home/frappe/frappe-bench/apps/frappe/frappe/__init__.py", line 896, in get_file_json
    return json.load(f)
  File "/usr/lib/python2.7/json/__init__.py", line 290, in load
    **kw)
  File "/usr/lib/python2.7/json/__init__.py", line 338, in loads
    return _default_decoder.decode(s)
  File "/usr/lib/python2.7/json/decoder.py", line 366, in decode
    obj, end = self.raw_decode(s, idx=_w(s, 0).end())
  File "/usr/lib/python2.7/json/decoder.py", line 384, in raw_decode
    raise ValueError("No JSON object could be decoded")
ValueError: No JSON object could be decoded

[ERROR] 2018-06-13 18:44:15,050 | /home/frappe/frappe-bench/apps/frappe/frappe/utils/scheduler.py:
Site: site1.local
Exception in Enqueue Events for Site site1.local
Traceback (most recent call last):
  File "/home/frappe/frappe-bench/apps/frappe/frappe/utils/scheduler.py", line 80, in enqueue_events_for_site
    frappe.init(site=site)
  File "/home/frappe/frappe-bench/apps/frappe/frappe/__init__.py", line 135, in init
    local.conf = _dict(get_site_config())
  File "/home/frappe/frappe-bench/apps/frappe/frappe/__init__.py", line 189, in get_site_config
    config.update(get_file_json(site_config))
  File "/home/frappe/frappe-bench/apps/frappe/frappe/__init__.py", line 896, in get_file_json
    return json.load(f)
  File "/usr/lib/python2.7/json/__init__.py", line 290, in load
    **kw)
  File "/usr/lib/python2.7/json/__init__.py", line 338, in loads
    return _default_decoder.decode(s)
  File "/usr/lib/python2.7/json/decoder.py", line 366, in decode
    obj, end = self.raw_decode(s, idx=_w(s, 0).end())
  File "/usr/lib/python2.7/json/decoder.py", line 384, in raw_decode
    raise ValueError("No JSON object could be decoded")
ValueError: No JSON object could be decoded

[ERROR] 2018-06-13 18:45:15,106 | /home/frappe/frappe-bench/apps/frappe/frappe/utils/scheduler.py:
Site: site1.local
Exception in Enqueue Events for Site site1.local
Traceback (most recent call last):
  File "/home/frappe/frappe-bench/apps/frappe/frappe/utils/scheduler.py", line 80, in enqueue_events_for_site
    frappe.init(site=site)
  File "/home/frappe/frappe-bench/apps/frappe/frappe/__init__.py", line 135, in init
    local.conf = _dict(get_site_config())
  File "/home/frappe/frappe-bench/apps/frappe/frappe/__init__.py", line 189, in get_site_config
    config.update(get_file_json(site_config))
  File "/home/frappe/frappe-bench/apps/frappe/frappe/__init__.py", line 896, in get_file_json
    return json.load(f)
  File "/usr/lib/python2.7/json/__init__.py", line 290, in load
    **kw)
  File "/usr/lib/python2.7/json/__init__.py", line 338, in loads
    return _default_decoder.decode(s)
  File "/usr/lib/python2.7/json/decoder.py", line 366, in decode
    obj, end = self.raw_decode(s, idx=_w(s, 0).end())
  File "/usr/lib/python2.7/json/decoder.py", line 384, in raw_decode
    raise ValueError("No JSON object could be decoded")
ValueError: No JSON object could be decoded

[ERROR] 2018-06-13 18:46:15,164 | /home/frappe/frappe-bench/apps/frappe/frappe/utils/scheduler.py:
Site: site1.local
Exception in Enqueue Events for Site site1.local
Traceback (most recent call last):
  File "/home/frappe/frappe-bench/apps/frappe/frappe/utils/scheduler.py", line 80, in enqueue_events_for_site
    frappe.init(site=site)
  File "/home/frappe/frappe-bench/apps/frappe/frappe/__init__.py", line 135, in init
    local.conf = _dict(get_site_config())
  File "/home/frappe/frappe-bench/apps/frappe/frappe/__init__.py", line 189, in get_site_config
    config.update(get_file_json(site_config))
  File "/home/frappe/frappe-bench/apps/frappe/frappe/__init__.py", line 896, in get_file_json
    return json.load(f)
  File "/usr/lib/python2.7/json/__init__.py", line 290, in load
    **kw)
  File "/usr/lib/python2.7/json/__init__.py", line 338, in loads
    return _default_decoder.decode(s)
  File "/usr/lib/python2.7/json/decoder.py", line 366, in decode
    obj, end = self.raw_decode(s, idx=_w(s, 0).end())
  File "/usr/lib/python2.7/json/decoder.py", line 384, in raw_decode
    raise ValueError("No JSON object could be decoded")
ValueError: No JSON object could be decoded

[ERROR] 2018-06-13 18:47:15,229 | /home/frappe/frappe-bench/apps/frappe/frappe/utils/scheduler.py:
Site: site1.local
Exception in Enqueue Events for Site site1.local
Traceback (most recent call last):
  File "/home/frappe/frappe-bench/apps/frappe/frappe/utils/scheduler.py", line 80, in enqueue_events_for_site
    frappe.init(site=site)
  File "/home/frappe/frappe-bench/apps/frappe/frappe/__init__.py", line 135, in init
    local.conf = _dict(get_site_config())
  File "/home/frappe/frappe-bench/apps/frappe/frappe/__init__.py", line 189, in get_site_config
    config.update(get_file_json(site_config))
  File "/home/frappe/frappe-bench/apps/frappe/frappe/__init__.py", line 896, in get_file_json
    return json.load(f)
  File "/usr/lib/python2.7/json/__init__.py", line 290, in load
    **kw)
  File "/usr/lib/python2.7/json/__init__.py", line 338, in loads
    return _default_decoder.decode(s)
  File "/usr/lib/python2.7/json/decoder.py", line 366, in decode
    obj, end = self.raw_decode(s, idx=_w(s, 0).end())
  File "/usr/lib/python2.7/json/decoder.py", line 384, in raw_decode
    raise ValueError("No JSON object could be decoded")
ValueError: No JSON object could be decoded

[ERROR] 2018-06-13 18:48:15,286 | /home/frappe/frappe-bench/apps/frappe/frappe/utils/scheduler.py:
Site: site1.local
Exception in Enqueue Events for Site site1.local
Traceback (most recent call last):
  File "/home/frappe/frappe-bench/apps/frappe/frappe/utils/scheduler.py", line 80, in enqueue_events_for_site
    frappe.init(site=site)
  File "/home/frappe/frappe-bench/apps/frappe/frappe/__init__.py", line 135, in init
    local.conf = _dict(get_site_config())
  File "/home/frappe/frappe-bench/apps/frappe/frappe/__init__.py", line 189, in get_site_config
    config.update(get_file_json(site_config))
  File "/home/frappe/frappe-bench/apps/frappe/frappe/__init__.py", line 896, in get_file_json
    return json.load(f)
  File "/usr/lib/python2.7/json/__init__.py", line 290, in load
    **kw)
  File "/usr/lib/python2.7/json/__init__.py", line 338, in loads
    return _default_decoder.decode(s)
  File "/usr/lib/python2.7/json/decoder.py", line 366, in decode
    obj, end = self.raw_decode(s, idx=_w(s, 0).end())
  File "/usr/lib/python2.7/json/decoder.py", line 384, in raw_decode
    raise ValueError("No JSON object could be decoded")
ValueError: No JSON object could be decoded

[ERROR] 2018-06-13 18:49:15,347 | /home/frappe/frappe-bench/apps/frappe/frappe/utils/scheduler.py:
Site: site1.local
Exception in Enqueue Events for Site site1.local
Traceback (most recent call last):
  File "/home/frappe/frappe-bench/apps/frappe/frappe/utils/scheduler.py", line 80, in enqueue_events_for_site
    frappe.init(site=site)
  File "/home/frappe/frappe-bench/apps/frappe/frappe/__init__.py", line 135, in init
    local.conf = _dict(get_site_config())
  File "/home/frappe/frappe-bench/apps/frappe/frappe/__init__.py", line 189, in get_site_config
    config.update(get_file_json(site_config))
  File "/home/frappe/frappe-bench/apps/frappe/frappe/__init__.py", line 896, in get_file_json
    return json.load(f)
  File "/usr/lib/python2.7/json/__init__.py", line 290, in load
    **kw)
  File "/usr/lib/python2.7/json/__init__.py", line 338, in loads
    return _default_decoder.decode(s)
  File "/usr/lib/python2.7/json/decoder.py", line 366, in decode
    obj, end = self.raw_decode(s, idx=_w(s, 0).end())
  File "/usr/lib/python2.7/json/decoder.py", line 384, in raw_decode
    raise ValueError("No JSON object could be decoded")
ValueError: No JSON object could be decoded

[ERROR] 2018-06-13 18:50:15,405 | /home/frappe/frappe-bench/apps/frappe/frappe/utils/scheduler.py:
Site: site1.local
Exception in Enqueue Events for Site site1.local
Traceback (most recent call last):
  File "/home/frappe/frappe-bench/apps/frappe/frappe/utils/scheduler.py", line 80, in enqueue_events_for_site
    frappe.init(site=site)
  File "/home/frappe/frappe-bench/apps/frappe/frappe/__init__.py", line 135, in init
    local.conf = _dict(get_site_config())
  File "/home/frappe/frappe-bench/apps/frappe/frappe/__init__.py", line 189, in get_site_config
    config.update(get_file_json(site_config))
  File "/home/frappe/frappe-bench/apps/frappe/frappe/__init__.py", line 896, in get_file_json
    return json.load(f)
  File "/usr/lib/python2.7/json/__init__.py", line 290, in load
    **kw)
  File "/usr/lib/python2.7/json/__init__.py", line 338, in loads
    return _default_decoder.decode(s)
  File "/usr/lib/python2.7/json/decoder.py", line 366, in decode
    obj, end = self.raw_decode(s, idx=_w(s, 0).end())
  File "/usr/lib/python2.7/json/decoder.py", line 384, in raw_decode
    raise ValueError("No JSON object could be decoded")
ValueError: No JSON object could be decoded

[ERROR] 2018-06-13 18:51:15,461 | /home/frappe/frappe-bench/apps/frappe/frappe/utils/scheduler.py:
Site: site1.local
Exception in Enqueue Events for Site site1.local
Traceback (most recent call last):
  File "/home/frappe/frappe-bench/apps/frappe/frappe/utils/scheduler.py", line 80, in enqueue_events_for_site
    frappe.init(site=site)
  File "/home/frappe/frappe-bench/apps/frappe/frappe/__init__.py", line 135, in init
    local.conf = _dict(get_site_config())
  File "/home/frappe/frappe-bench/apps/frappe/frappe/__init__.py", line 189, in get_site_config
    config.update(get_file_json(site_config))
  File "/home/frappe/frappe-bench/apps/frappe/frappe/__init__.py", line 896, in get_file_json
    return json.load(f)
  File "/usr/lib/python2.7/json/__init__.py", line 290, in load
    **kw)
  File "/usr/lib/python2.7/json/__init__.py", line 338, in loads
    return _default_decoder.decode(s)
  File "/usr/lib/python2.7/json/decoder.py", line 366, in decode
    obj, end = self.raw_decode(s, idx=_w(s, 0).end())
  File "/usr/lib/python2.7/json/decoder.py", line 384, in raw_decode
    raise ValueError("No JSON object could be decoded")
ValueError: No JSON object could be decoded

[ERROR] 2018-06-13 18:52:15,516 | /home/frappe/frappe-bench/apps/frappe/frappe/utils/scheduler.py:
Site: site1.local
Exception in Enqueue Events for Site site1.local
Traceback (most recent call last):
  File "/home/frappe/frappe-bench/apps/frappe/frappe/utils/scheduler.py", line 80, in enqueue_events_for_site
    frappe.init(site=site)
  File "/home/frappe/frappe-bench/apps/frappe/frappe/__init__.py", line 135, in init
    local.conf = _dict(get_site_config())
  File "/home/frappe/frappe-bench/apps/frappe/frappe/__init__.py", line 189, in get_site_config
    config.update(get_file_json(site_config))
  File "/home/frappe/frappe-bench/apps/frappe/frappe/__init__.py", line 896, in get_file_json
    return json.load(f)
  File "/usr/lib/python2.7/json/__init__.py", line 290, in load
    **kw)
  File "/usr/lib/python2.7/json/__init__.py", line 338, in loads
    return _default_decoder.decode(s)
  File "/usr/lib/python2.7/json/decoder.py", line 366, in decode
    obj, end = self.raw_decode(s, idx=_w(s, 0).end())
  File "/usr/lib/python2.7/json/decoder.py", line 384, in raw_decode
    raise ValueError("No JSON object could be decoded")
ValueError: No JSON object could be decoded

[ERROR] 2018-06-13 18:53:15,574 | /home/frappe/frappe-bench/apps/frappe/frappe/utils/scheduler.py:
Site: site1.local
Exception in Enqueue Events for Site site1.local
Traceback (most recent call last):
  File "/home/frappe/frappe-bench/apps/frappe/frappe/utils/scheduler.py", line 80, in enqueue_events_for_site
    frappe.init(site=site)
  File "/home/frappe/frappe-bench/apps/frappe/frappe/__init__.py", line 135, in init
    local.conf = _dict(get_site_config())
  File "/home/frappe/frappe-bench/apps/frappe/frappe/__init__.py", line 189, in get_site_config
    config.update(get_file_json(site_config))
  File "/home/frappe/frappe-bench/apps/frappe/frappe/__init__.py", line 896, in get_file_json
    return json.load(f)
  File "/usr/lib/python2.7/json/__init__.py", line 290, in load
    **kw)
  File "/usr/lib/python2.7/json/__init__.py", line 338, in loads
    return _default_decoder.decode(s)
  File "/usr/lib/python2.7/json/decoder.py", line 366, in decode
    obj, end = self.raw_decode(s, idx=_w(s, 0).end())
  File "/usr/lib/python2.7/json/decoder.py", line 384, in raw_decode
    raise ValueError("No JSON object could be decoded")
ValueError: No JSON object could be decoded

[ERROR] 2018-06-13 18:54:15,632 | /home/frappe/frappe-bench/apps/frappe/frappe/utils/scheduler.py:
Site: site1.local
Exception in Enqueue Events for Site site1.local
Traceback (most recent call last):
  File "/home/frappe/frappe-bench/apps/frappe/frappe/utils/scheduler.py", line 80, in enqueue_events_for_site
    frappe.init(site=site)
  File "/home/frappe/frappe-bench/apps/frappe/frappe/__init__.py", line 135, in init
    local.conf = _dict(get_site_config())
  File "/home/frappe/frappe-bench/apps/frappe/frappe/__init__.py", line 189, in get_site_config
    config.update(get_file_json(site_config))
  File "/home/frappe/frappe-bench/apps/frappe/frappe/__init__.py", line 896, in get_file_json
    return json.load(f)
  File "/usr/lib/python2.7/json/__init__.py", line 290, in load
    **kw)
  File "/usr/lib/python2.7/json/__init__.py", line 338, in loads
    return _default_decoder.decode(s)
  File "/usr/lib/python2.7/json/decoder.py", line 366, in decode
    obj, end = self.raw_decode(s, idx=_w(s, 0).end())
  File "/usr/lib/python2.7/json/decoder.py", line 384, in raw_decode
    raise ValueError("No JSON object could be decoded")
ValueError: No JSON object could be decoded

[ERROR] 2018-06-13 18:55:15,688 | /home/frappe/frappe-bench/apps/frappe/frappe/utils/scheduler.py:
Site: site1.local
Exception in Enqueue Events for Site site1.local
Traceback (most recent call last):
  File "/home/frappe/frappe-bench/apps/frappe/frappe/utils/scheduler.py", line 80, in enqueue_events_for_site
    frappe.init(site=site)
  File "/home/frappe/frappe-bench/apps/frappe/frappe/__init__.py", line 135, in init
    local.conf = _dict(get_site_config())
  File "/home/frappe/frappe-bench/apps/frappe/frappe/__init__.py", line 189, in get_site_config
    config.update(get_file_json(site_config))
  File "/home/frappe/frappe-bench/apps/frappe/frappe/__init__.py", line 896, in get_file_json
    return json.load(f)
  File "/usr/lib/python2.7/json/__init__.py", line 290, in load
    **kw)
  File "/usr/lib/python2.7/json/__init__.py", line 338, in loads
    return _default_decoder.decode(s)
  File "/usr/lib/python2.7/json/decoder.py", line 366, in decode
    obj, end = self.raw_decode(s, idx=_w(s, 0).end())
  File "/usr/lib/python2.7/json/decoder.py", line 384, in raw_decode
    raise ValueError("No JSON object could be decoded")
ValueError: No JSON object could be decoded

[ERROR] 2018-06-13 18:56:15,744 | /home/frappe/frappe-bench/apps/frappe/frappe/utils/scheduler.py:
Site: site1.local
Exception in Enqueue Events for Site site1.local
Traceback (most recent call last):
  File "/home/frappe/frappe-bench/apps/frappe/frappe/utils/scheduler.py", line 80, in enqueue_events_for_site
    frappe.init(site=site)
  File "/home/frappe/frappe-bench/apps/frappe/frappe/__init__.py", line 135, in init
    local.conf = _dict(get_site_config())
  File "/home/frappe/frappe-bench/apps/frappe/frappe/__init__.py", line 189, in get_site_config
    config.update(get_file_json(site_config))
  File "/home/frappe/frappe-bench/apps/frappe/frappe/__init__.py", line 896, in get_file_json
    return json.load(f)
  File "/usr/lib/python2.7/json/__init__.py", line 290, in load
    **kw)
  File "/usr/lib/python2.7/json/__init__.py", line 338, in loads
    return _default_decoder.decode(s)
  File "/usr/lib/python2.7/json/decoder.py", line 366, in decode
    obj, end = self.raw_decode(s, idx=_w(s, 0).end())
  File "/usr/lib/python2.7/json/decoder.py", line 384, in raw_decode
    raise ValueError("No JSON object could be decoded")
ValueError: No JSON object could be decoded

[ERROR] 2018-06-13 18:57:15,811 | /home/frappe/frappe-bench/apps/frappe/frappe/utils/scheduler.py:
Site: site1.local
Exception in Enqueue Events for Site site1.local
Traceback (most recent call last):
  File "/home/frappe/frappe-bench/apps/frappe/frappe/utils/scheduler.py", line 80, in enqueue_events_for_site
    frappe.init(site=site)
  File "/home/frappe/frappe-bench/apps/frappe/frappe/__init__.py", line 135, in init
    local.conf = _dict(get_site_config())
  File "/home/frappe/frappe-bench/apps/frappe/frappe/__init__.py", line 189, in get_site_config
    config.update(get_file_json(site_config))
  File "/home/frappe/frappe-bench/apps/frappe/frappe/__init__.py", line 896, in get_file_json
    return json.load(f)
  File "/usr/lib/python2.7/json/__init__.py", line 290, in load
    **kw)
  File "/usr/lib/python2.7/json/__init__.py", line 338, in loads
    return _default_decoder.decode(s)
  File "/usr/lib/python2.7/json/decoder.py", line 366, in decode
    obj, end = self.raw_decode(s, idx=_w(s, 0).end())
  File "/usr/lib/python2.7/json/decoder.py", line 384, in raw_decode
    raise ValueError("No JSON object could be decoded")
ValueError: No JSON object could be decoded

[ERROR] 2018-06-13 18:58:15,870 | /home/frappe/frappe-bench/apps/frappe/frappe/utils/scheduler.py:
Site: site1.local
Exception in Enqueue Events for Site site1.local
Traceback (most recent call last):
  File "/home/frappe/frappe-bench/apps/frappe/frappe/utils/scheduler.py", line 80, in enqueue_events_for_site
    frappe.init(site=site)
  File "/home/frappe/frappe-bench/apps/frappe/frappe/__init__.py", line 135, in init
    local.conf = _dict(get_site_config())
  File "/home/frappe/frappe-bench/apps/frappe/frappe/__init__.py", line 189, in get_site_config
    config.update(get_file_json(site_config))
  File "/home/frappe/frappe-bench/apps/frappe/frappe/__init__.py", line 896, in get_file_json
    return json.load(f)
  File "/usr/lib/python2.7/json/__init__.py", line 290, in load
    **kw)
  File "/usr/lib/python2.7/json/__init__.py", line 338, in loads
    return _default_decoder.decode(s)
  File "/usr/lib/python2.7/json/decoder.py", line 366, in decode
    obj, end = self.raw_decode(s, idx=_w(s, 0).end())
  File "/usr/lib/python2.7/json/decoder.py", line 384, in raw_decode
    raise ValueError("No JSON object could be decoded")
ValueError: No JSON object could be decoded

[ERROR] 2018-06-13 18:59:15,929 | /home/frappe/frappe-bench/apps/frappe/frappe/utils/scheduler.py:
Site: site1.local
Exception in Enqueue Events for Site site1.local
Traceback (most recent call last):
  File "/home/frappe/frappe-bench/apps/frappe/frappe/utils/scheduler.py", line 80, in enqueue_events_for_site
    frappe.init(site=site)
  File "/home/frappe/frappe-bench/apps/frappe/frappe/__init__.py", line 135, in init
    local.conf = _dict(get_site_config())
  File "/home/frappe/frappe-bench/apps/frappe/frappe/__init__.py", line 189, in get_site_config
    config.update(get_file_json(site_config))
  File "/home/frappe/frappe-bench/apps/frappe/frappe/__init__.py", line 896, in get_file_json
    return json.load(f)
  File "/usr/lib/python2.7/json/__init__.py", line 290, in load
    **kw)
  File "/usr/lib/python2.7/json/__init__.py", line 338, in loads
    return _default_decoder.decode(s)
  File "/usr/lib/python2.7/json/decoder.py", line 366, in decode
    obj, end = self.raw_decode(s, idx=_w(s, 0).end())
  File "/usr/lib/python2.7/json/decoder.py", line 384, in raw_decode
    raise ValueError("No JSON object could be decoded")
ValueError: No JSON object could be decoded

[ERROR] 2018-06-13 19:00:15,986 | /home/frappe/frappe-bench/apps/frappe/frappe/utils/scheduler.py:
Site: site1.local
Exception in Enqueue Events for Site site1.local
Traceback (most recent call last):
  File "/home/frappe/frappe-bench/apps/frappe/frappe/utils/scheduler.py", line 80, in enqueue_events_for_site
    frappe.init(site=site)
  File "/home/frappe/frappe-bench/apps/frappe/frappe/__init__.py", line 135, in init
    local.conf = _dict(get_site_config())
  File "/home/frappe/frappe-bench/apps/frappe/frappe/__init__.py", line 189, in get_site_config
    config.update(get_file_json(site_config))
  File "/home/frappe/frappe-bench/apps/frappe/frappe/__init__.py", line 896, in get_file_json
    return json.load(f)
  File "/usr/lib/python2.7/json/__init__.py", line 290, in load
    **kw)
  File "/usr/lib/python2.7/json/__init__.py", line 338, in loads
    return _default_decoder.decode(s)
  File "/usr/lib/python2.7/json/decoder.py", line 366, in decode
    obj, end = self.raw_decode(s, idx=_w(s, 0).end())
  File "/usr/lib/python2.7/json/decoder.py", line 384, in raw_decode
    raise ValueError("No JSON object could be decoded")
ValueError: No JSON object could be decoded

[ERROR] 2018-06-13 19:01:16,043 | /home/frappe/frappe-bench/apps/frappe/frappe/utils/scheduler.py:
Site: site1.local
Exception in Enqueue Events for Site site1.local
Traceback (most recent call last):
  File "/home/frappe/frappe-bench/apps/frappe/frappe/utils/scheduler.py", line 80, in enqueue_events_for_site
    frappe.init(site=site)
  File "/home/frappe/frappe-bench/apps/frappe/frappe/__init__.py", line 135, in init
    local.conf = _dict(get_site_config())
  File "/home/frappe/frappe-bench/apps/frappe/frappe/__init__.py", line 189, in get_site_config
    config.update(get_file_json(site_config))
  File "/home/frappe/frappe-bench/apps/frappe/frappe/__init__.py", line 896, in get_file_json
    return json.load(f)
  File "/usr/lib/python2.7/json/__init__.py", line 290, in load
    **kw)
  File "/usr/lib/python2.7/json/__init__.py", line 338, in loads
    return _default_decoder.decode(s)
  File "/usr/lib/python2.7/json/decoder.py", line 366, in decode
    obj, end = self.raw_decode(s, idx=_w(s, 0).end())
  File "/usr/lib/python2.7/json/decoder.py", line 384, in raw_decode
    raise ValueError("No JSON object could be decoded")
ValueError: No JSON object could be decoded

[ERROR] 2018-06-13 19:02:16,105 | /home/frappe/frappe-bench/apps/frappe/frappe/utils/scheduler.py:
Site: site1.local
Exception in Enqueue Events for Site site1.local
Traceback (most recent call last):
  File "/home/frappe/frappe-bench/apps/frappe/frappe/utils/scheduler.py", line 80, in enqueue_events_for_site
    frappe.init(site=site)
  File "/home/frappe/frappe-bench/apps/frappe/frappe/__init__.py", line 135, in init
    local.conf = _dict(get_site_config())
  File "/home/frappe/frappe-bench/apps/frappe/frappe/__init__.py", line 189, in get_site_config
    config.update(get_file_json(site_config))
  File "/home/frappe/frappe-bench/apps/frappe/frappe/__init__.py", line 896, in get_file_json
    return json.load(f)
  File "/usr/lib/python2.7/json/__init__.py", line 290, in load
    **kw)
  File "/usr/lib/python2.7/json/__init__.py", line 338, in loads
    return _default_decoder.decode(s)
  File "/usr/lib/python2.7/json/decoder.py", line 366, in decode
    obj, end = self.raw_decode(s, idx=_w(s, 0).end())
  File "/usr/lib/python2.7/json/decoder.py", line 384, in raw_decode
    raise ValueError("No JSON object could be decoded")
ValueError: No JSON object could be decoded

[ERROR] 2018-06-13 19:03:16,164 | /home/frappe/frappe-bench/apps/frappe/frappe/utils/scheduler.py:
Site: site1.local
Exception in Enqueue Events for Site site1.local
Traceback (most recent call last):
  File "/home/frappe/frappe-bench/apps/frappe/frappe/utils/scheduler.py", line 80, in enqueue_events_for_site
    frappe.init(site=site)
  File "/home/frappe/frappe-bench/apps/frappe/frappe/__init__.py", line 135, in init
    local.conf = _dict(get_site_config())
  File "/home/frappe/frappe-bench/apps/frappe/frappe/__init__.py", line 189, in get_site_config
    config.update(get_file_json(site_config))
  File "/home/frappe/frappe-bench/apps/frappe/frappe/__init__.py", line 896, in get_file_json
    return json.load(f)
  File "/usr/lib/python2.7/json/__init__.py", line 290, in load
    **kw)
  File "/usr/lib/python2.7/json/__init__.py", line 338, in loads
    return _default_decoder.decode(s)
  File "/usr/lib/python2.7/json/decoder.py", line 366, in decode
    obj, end = self.raw_decode(s, idx=_w(s, 0).end())
  File "/usr/lib/python2.7/json/decoder.py", line 384, in raw_decode
    raise ValueError("No JSON object could be decoded")
ValueError: No JSON object could be decoded

[ERROR] 2018-06-13 19:04:16,222 | /home/frappe/frappe-bench/apps/frappe/frappe/utils/scheduler.py:
Site: site1.local
Exception in Enqueue Events for Site site1.local
Traceback (most recent call last):
  File "/home/frappe/frappe-bench/apps/frappe/frappe/utils/scheduler.py", line 80, in enqueue_events_for_site
    frappe.init(site=site)
  File "/home/frappe/frappe-bench/apps/frappe/frappe/__init__.py", line 135, in init
    local.conf = _dict(get_site_config())
  File "/home/frappe/frappe-bench/apps/frappe/frappe/__init__.py", line 189, in get_site_config
    config.update(get_file_json(site_config))
  File "/home/frappe/frappe-bench/apps/frappe/frappe/__init__.py", line 896, in get_file_json
    return json.load(f)
  File "/usr/lib/python2.7/json/__init__.py", line 290, in load
    **kw)
  File "/usr/lib/python2.7/json/__init__.py", line 338, in loads
    return _default_decoder.decode(s)
  File "/usr/lib/python2.7/json/decoder.py", line 366, in decode
    obj, end = self.raw_decode(s, idx=_w(s, 0).end())
  File "/usr/lib/python2.7/json/decoder.py", line 384, in raw_decode
    raise ValueError("No JSON object could be decoded")
ValueError: No JSON object could be decoded

