00:28:20 default: Job OK (a30b07f1-c230-45be-88c8-62a517fb41bd)
00:28:20 Result is kept for 500 seconds
00:28:20 Cleaning registries for queue: default
00:28:20 
00:28:20 *** Listening on default...
16:02:54 default: frappe.utils.background_jobs.execute_job(async=True, event=None, job_name=u'frappe.utils.global_search.update_global_search', kwargs={'doc': <frappe.core.doctype.authentication_log.authentication_log.AuthenticationLog object at 0x7f3a58756c10>}, method=u'frappe.utils.global_search.update_global_search', site=u'site1.local', user=u'Administrator') (64b7f741-613b-4491-a59f-28a4bc31c23c)
16:02:54 default: Job OK (64b7f741-613b-4491-a59f-28a4bc31c23c)
16:02:54 Result is kept for 500 seconds
16:02:54 Cleaning registries for queue: default
16:02:54 
16:02:54 *** Listening on default...
01:37:59 default: frappe.utils.background_jobs.execute_job(async=True, event=None, job_name=u'frappe.utils.global_search.update_global_search', kwargs={'doc': <frappe.core.doctype.authentication_log.authentication_log.AuthenticationLog object at 0x7f6aaa64fc90>}, method=u'frappe.utils.global_search.update_global_search', site=u'site1.local', user=u'noki@gagawala.com') (873ed57c-de57-4622-bbc5-f60eeb977b2d)
01:37:59 default: Job OK (873ed57c-de57-4622-bbc5-f60eeb977b2d)
01:37:59 Result is kept for 500 seconds
01:37:59 Cleaning registries for queue: default
01:37:59 
01:37:59 *** Listening on default...
02:08:20 default: frappe.utils.background_jobs.execute_job(async=True, event=None, job_name=u'frappe.utils.global_search.update_global_search', kwargs={'doc': <frappe.core.doctype.communication.communication.Communication object at 0x7f6aae7f0c10>}, method=u'frappe.utils.global_search.update_global_search', site=u'site1.local', user=u'noki@gagawala.com') (9a810077-01a5-44ab-8c0a-7420b2fb0928)
02:08:20 default: Job OK (9a810077-01a5-44ab-8c0a-7420b2fb0928)
02:08:20 Result is kept for 500 seconds
02:08:20 
02:08:20 *** Listening on default...
02:08:20 default: frappe.utils.background_jobs.execute_job(async=True, event=None, job_name=u'frappe.utils.global_search.update_global_search', kwargs={'doc': <erpnext.accounts.doctype.purchase_invoice.purchase_invoice.PurchaseInvoice object at 0x7f6aaa848f50>}, method=u'frappe.utils.global_search.update_global_search', site=u'site1.local', user=u'noki@gagawala.com') (370fa7eb-2d56-468a-a3e2-7c6f22932d03)
02:08:20 default: Job OK (370fa7eb-2d56-468a-a3e2-7c6f22932d03)
02:08:20 Result is kept for 500 seconds
02:08:20 
02:08:20 *** Listening on default...
02:08:40 default: frappe.utils.background_jobs.execute_job(async=True, event=None, job_name=u'frappe.utils.global_search.update_global_search', kwargs={'doc': <frappe.core.doctype.version.version.Version object at 0x7f6aa8c883d0>}, method=u'frappe.utils.global_search.update_global_search', site=u'site1.local', user=u'noki@gagawala.com') (08f7f039-6edd-41bb-9ce8-62f51c11b05b)
02:08:40 default: Job OK (08f7f039-6edd-41bb-9ce8-62f51c11b05b)
02:08:40 Result is kept for 500 seconds
02:08:40 
02:08:40 *** Listening on default...
02:08:41 default: frappe.utils.background_jobs.execute_job(async=True, event=None, job_name=u'frappe.utils.global_search.update_global_search', kwargs={'doc': <erpnext.accounts.doctype.gl_entry.gl_entry.GLEntry object at 0x7f6aa80ba1d0>}, method=u'frappe.utils.global_search.update_global_search', site=u'site1.local', user=u'noki@gagawala.com') (ed425cd4-a504-4f2f-af76-cef6b0c60f66)
02:08:41 default: Job OK (ed425cd4-a504-4f2f-af76-cef6b0c60f66)
02:08:41 Result is kept for 500 seconds
02:08:41 
02:08:41 *** Listening on default...
02:08:41 default: frappe.utils.background_jobs.execute_job(async=True, event=None, job_name=u'frappe.utils.global_search.update_global_search', kwargs={'doc': <erpnext.accounts.doctype.gl_entry.gl_entry.GLEntry object at 0x7f6aa80ba1d0>}, method=u'frappe.utils.global_search.update_global_search', site=u'site1.local', user=u'noki@gagawala.com') (132a5df3-98d3-42b2-866e-d4d1ad5bec1c)
02:08:41 default: Job OK (132a5df3-98d3-42b2-866e-d4d1ad5bec1c)
02:08:41 Result is kept for 500 seconds
02:08:41 
02:08:41 *** Listening on default...
02:08:41 default: frappe.utils.background_jobs.execute_job(async=True, event=None, job_name=u'frappe.utils.global_search.update_global_search', kwargs={'doc': <erpnext.accounts.doctype.gl_entry.gl_entry.GLEntry object at 0x7f6aa80ba1d0>}, method=u'frappe.utils.global_search.update_global_search', site=u'site1.local', user=u'noki@gagawala.com') (c3262467-0724-44e0-9192-d8ea4245549a)
02:08:41 default: Job OK (c3262467-0724-44e0-9192-d8ea4245549a)
02:08:41 Result is kept for 500 seconds
02:08:41 
02:08:41 *** Listening on default...
02:08:41 default: frappe.utils.background_jobs.execute_job(async=True, event=None, job_name=u'frappe.utils.global_search.update_global_search', kwargs={'doc': <erpnext.accounts.doctype.gl_entry.gl_entry.GLEntry object at 0x7f6aa80ba1d0>}, method=u'frappe.utils.global_search.update_global_search', site=u'site1.local', user=u'noki@gagawala.com') (7556c4df-54ff-4155-8a65-88501b243b6f)
02:08:41 default: Job OK (7556c4df-54ff-4155-8a65-88501b243b6f)
02:08:41 Result is kept for 500 seconds
02:08:41 
02:08:41 *** Listening on default...
02:08:41 default: frappe.utils.background_jobs.execute_job(async=True, event=None, job_name=u'frappe.utils.global_search.update_global_search', kwargs={'doc': <erpnext.accounts.doctype.purchase_invoice.purchase_invoice.PurchaseInvoice object at 0x7f6aadc84410>}, method=u'frappe.utils.global_search.update_global_search', site=u'site1.local', user=u'noki@gagawala.com') (3b54535a-1ea0-4377-a8c7-f31b714c928b)
02:08:41 default: Job OK (3b54535a-1ea0-4377-a8c7-f31b714c928b)
02:08:41 Result is kept for 500 seconds
02:08:41 
02:08:41 *** Listening on default...
02:08:41 default: frappe.utils.background_jobs.execute_job(async=True, event=None, job_name=u'frappe.utils.global_search.update_global_search', kwargs={'doc': <frappe.core.doctype.version.version.Version object at 0x7f6aa906d950>}, method=u'frappe.utils.global_search.update_global_search', site=u'site1.local', user=u'noki@gagawala.com') (4f1ba38b-fa9c-4534-a927-e5b1c811ade8)
02:08:41 default: Job OK (4f1ba38b-fa9c-4534-a927-e5b1c811ade8)
02:08:41 Result is kept for 500 seconds
02:08:41 
02:08:41 *** Listening on default...
02:08:59 default: frappe.utils.background_jobs.execute_job(async=True, event=None, job_name=u'frappe.utils.global_search.update_global_search', kwargs={'doc': <erpnext.accounts.doctype.payment_entry.payment_entry.PaymentEntry object at 0x7f6aaad27dd0>}, method=u'frappe.utils.global_search.update_global_search', site=u'site1.local', user=u'noki@gagawala.com') (23687c5a-d2dd-4489-96f4-da096dc8a136)
02:08:59 default: Job OK (23687c5a-d2dd-4489-96f4-da096dc8a136)
02:08:59 Result is kept for 500 seconds
02:08:59 
02:08:59 *** Listening on default...
02:09:04 default: frappe.utils.background_jobs.execute_job(async=True, event=None, job_name=u'frappe.utils.global_search.update_global_search', kwargs={'doc': <erpnext.accounts.doctype.gl_entry.gl_entry.GLEntry object at 0x7f6aa99936d0>}, method=u'frappe.utils.global_search.update_global_search', site=u'site1.local', user=u'noki@gagawala.com') (94e86cfc-6a8d-4fde-bbee-d98cb294cbd2)
02:09:04 default: Job OK (94e86cfc-6a8d-4fde-bbee-d98cb294cbd2)
02:09:04 Result is kept for 500 seconds
02:09:04 
02:09:04 *** Listening on default...
02:09:04 default: frappe.utils.background_jobs.execute_job(async=True, event=None, job_name=u'frappe.utils.global_search.update_global_search', kwargs={'doc': <frappe.core.doctype.version.version.Version object at 0x7f6aab36fed0>}, method=u'frappe.utils.global_search.update_global_search', site=u'site1.local', user=u'noki@gagawala.com') (66860199-b798-4011-8bba-257c04802f89)
02:09:04 default: Job OK (66860199-b798-4011-8bba-257c04802f89)
02:09:04 Result is kept for 500 seconds
02:09:04 
02:09:04 *** Listening on default...
02:09:04 default: frappe.utils.background_jobs.execute_job(async=True, event=None, job_name=u'frappe.utils.global_search.update_global_search', kwargs={'doc': <erpnext.accounts.doctype.gl_entry.gl_entry.GLEntry object at 0x7f6aa99936d0>}, method=u'frappe.utils.global_search.update_global_search', site=u'site1.local', user=u'noki@gagawala.com') (2ba8a69a-59cc-4266-a7f7-2b5ba0f6eb06)
02:09:04 default: Job OK (2ba8a69a-59cc-4266-a7f7-2b5ba0f6eb06)
02:09:04 Result is kept for 500 seconds
02:09:04 
02:09:04 *** Listening on default...
02:09:04 default: frappe.utils.background_jobs.execute_job(async=True, event=None, job_name=u'frappe.utils.global_search.update_global_search', kwargs={'doc': <erpnext.accounts.doctype.gl_entry.gl_entry.GLEntry object at 0x7f6aa99936d0>}, method=u'frappe.utils.global_search.update_global_search', site=u'site1.local', user=u'noki@gagawala.com') (b1bd39bb-c54e-4fef-8fc9-724cd3ed6137)
02:09:04 default: Job OK (b1bd39bb-c54e-4fef-8fc9-724cd3ed6137)
02:09:04 Result is kept for 500 seconds
02:09:04 
02:09:04 *** Listening on default...
02:09:04 default: frappe.utils.background_jobs.execute_job(async=True, event=None, job_name=u'frappe.utils.global_search.update_global_search', kwargs={'doc': <erpnext.accounts.doctype.gl_entry.gl_entry.GLEntry object at 0x7f6aa99936d0>}, method=u'frappe.utils.global_search.update_global_search', site=u'site1.local', user=u'noki@gagawala.com') (5d5e3cec-3919-4e4a-b1bd-d8e1f25ab8ec)
02:09:04 default: Job OK (5d5e3cec-3919-4e4a-b1bd-d8e1f25ab8ec)
02:09:04 Result is kept for 500 seconds
02:09:04 
02:09:04 *** Listening on default...
02:09:04 default: frappe.utils.background_jobs.execute_job(async=True, event=None, job_name=u'frappe.utils.global_search.update_global_search', kwargs={'doc': <erpnext.accounts.doctype.payment_entry.payment_entry.PaymentEntry object at 0x7f6aa9be0c50>}, method=u'frappe.utils.global_search.update_global_search', site=u'site1.local', user=u'noki@gagawala.com') (0d4f6015-74a7-4a2a-83ed-745fa4bdde4a)
02:09:04 default: Job OK (0d4f6015-74a7-4a2a-83ed-745fa4bdde4a)
02:09:04 Result is kept for 500 seconds
02:09:04 
02:09:04 *** Listening on default...
02:09:04 default: frappe.utils.background_jobs.execute_job(async=True, event=None, job_name=u'frappe.utils.global_search.update_global_search', kwargs={'doc': <frappe.core.doctype.version.version.Version object at 0x7f6aa93f2c90>}, method=u'frappe.utils.global_search.update_global_search', site=u'site1.local', user=u'noki@gagawala.com') (11847d68-e521-499f-a106-a4b53011baa1)
02:09:04 default: Job OK (11847d68-e521-499f-a106-a4b53011baa1)
02:09:04 Result is kept for 500 seconds
02:09:04 
02:09:04 *** Listening on default...
08:19:18 default: frappe.utils.background_jobs.execute_job(async=True, event=None, job_name=u'frappe.utils.global_search.update_global_search', kwargs={'doc': <frappe.core.doctype.authentication_log.authentication_log.AuthenticationLog object at 0x7f6aaaee5b90>}, method=u'frappe.utils.global_search.update_global_search', site=u'site1.local', user=u'kr@gagawala.com') (171fc757-6d99-439f-80ef-acc32eb9a418)
08:19:18 default: Job OK (171fc757-6d99-439f-80ef-acc32eb9a418)
08:19:18 Result is kept for 500 seconds
08:19:18 Cleaning registries for queue: default
08:19:18 
08:19:18 *** Listening on default...
16:00:20 default: frappe.utils.background_jobs.execute_job(async=True, event=None, job_name=u'frappe.utils.global_search.update_global_search', kwargs={'doc': <frappe.core.doctype.authentication_log.authentication_log.AuthenticationLog object at 0x7f3a58756c10>}, method=u'frappe.utils.global_search.update_global_search', site=u'site1.local', user=u'Administrator') (2790758e-2ab7-44b3-990c-e27691267a30)
16:00:20 default: Job OK (2790758e-2ab7-44b3-990c-e27691267a30)
16:00:20 Result is kept for 500 seconds
16:00:20 Cleaning registries for queue: default
16:00:20 
16:00:20 *** Listening on default...
16:00:20 default: frappe.utils.background_jobs.execute_job(async=True, event=None, job_name=u'frappe.utils.global_search.update_global_search', kwargs={'doc': <frappe.core.doctype.authentication_log.authentication_log.AuthenticationLog object at 0x7f3a58580890>}, method=u'frappe.utils.global_search.update_global_search', site=u'site1.local', user=u'Administrator') (47572379-8d57-418a-a0be-5c479f8fa6c6)
16:00:20 default: Job OK (47572379-8d57-418a-a0be-5c479f8fa6c6)
16:00:20 Result is kept for 500 seconds
16:00:20 
16:00:20 *** Listening on default...
03:28:44 default: frappe.utils.background_jobs.execute_job(async=True, event=None, job_name=u'frappe.utils.global_search.update_global_search', kwargs={'doc': <frappe.core.doctype.authentication_log.authentication_log.AuthenticationLog object at 0x7f6aab430150>}, method=u'frappe.utils.global_search.update_global_search', site=u'site1.local', user=u'noki@gagawala.com') (98393763-4996-4bc2-bd41-3a62cd6b2943)
03:28:44 default: Job OK (98393763-4996-4bc2-bd41-3a62cd6b2943)
03:28:44 Result is kept for 500 seconds
03:28:44 Cleaning registries for queue: default
03:28:44 
03:28:44 *** Listening on default...
04:09:03 default: frappe.utils.background_jobs.execute_job(async=True, event=None, job_name=u'frappe.utils.global_search.update_global_search', kwargs={'doc': <frappe.core.doctype.communication.communication.Communication object at 0x7f6aab27e690>}, method=u'frappe.utils.global_search.update_global_search', site=u'site1.local', user=u'noki@gagawala.com') (450d6c62-c4f7-4e5a-b36d-b26438c93536)
04:09:03 default: Job OK (450d6c62-c4f7-4e5a-b36d-b26438c93536)
04:09:03 Result is kept for 500 seconds
04:09:03 
04:09:03 *** Listening on default...
04:09:03 default: frappe.utils.background_jobs.execute_job(async=True, event=None, job_name=u'frappe.utils.global_search.update_global_search', kwargs={'doc': <erpnext.accounts.doctype.purchase_invoice.purchase_invoice.PurchaseInvoice object at 0x7f6aa9af2f10>}, method=u'frappe.utils.global_search.update_global_search', site=u'site1.local', user=u'noki@gagawala.com') (b78b4b46-5c61-4122-9009-feef18cc1079)
04:09:03 default: Job OK (b78b4b46-5c61-4122-9009-feef18cc1079)
04:09:03 Result is kept for 500 seconds
04:09:03 
04:09:03 *** Listening on default...
04:09:11 default: frappe.utils.background_jobs.execute_job(async=True, event=None, job_name=u'frappe.utils.global_search.update_global_search', kwargs={'doc': <frappe.core.doctype.version.version.Version object at 0x7f6aa9b2c7d0>}, method=u'frappe.utils.global_search.update_global_search', site=u'site1.local', user=u'noki@gagawala.com') (77034cc0-536c-46a0-914d-18100b8aa29a)
04:09:11 default: Job OK (77034cc0-536c-46a0-914d-18100b8aa29a)
04:09:11 Result is kept for 500 seconds
04:09:11 
04:09:11 *** Listening on default...
04:09:12 default: frappe.utils.background_jobs.execute_job(async=True, event=None, job_name=u'frappe.utils.global_search.update_global_search', kwargs={'doc': <erpnext.accounts.doctype.gl_entry.gl_entry.GLEntry object at 0x7f6aa9773350>}, method=u'frappe.utils.global_search.update_global_search', site=u'site1.local', user=u'noki@gagawala.com') (356a554c-0b15-40a9-abda-e7acd741ed12)
04:09:12 default: Job OK (356a554c-0b15-40a9-abda-e7acd741ed12)
04:09:12 Result is kept for 500 seconds
04:09:12 
04:09:12 *** Listening on default...
04:09:12 default: frappe.utils.background_jobs.execute_job(async=True, event=None, job_name=u'frappe.utils.global_search.update_global_search', kwargs={'doc': <erpnext.accounts.doctype.gl_entry.gl_entry.GLEntry object at 0x7f6aa9773350>}, method=u'frappe.utils.global_search.update_global_search', site=u'site1.local', user=u'noki@gagawala.com') (c60a39b1-9efd-479c-bc19-5e988ec0ae3f)
04:09:12 default: Job OK (c60a39b1-9efd-479c-bc19-5e988ec0ae3f)
04:09:12 Result is kept for 500 seconds
04:09:12 
04:09:12 *** Listening on default...
04:09:12 default: frappe.utils.background_jobs.execute_job(async=True, event=None, job_name=u'frappe.utils.global_search.update_global_search', kwargs={'doc': <erpnext.accounts.doctype.gl_entry.gl_entry.GLEntry object at 0x7f6aa9773350>}, method=u'frappe.utils.global_search.update_global_search', site=u'site1.local', user=u'noki@gagawala.com') (801278cc-0349-4459-91dd-f1fd42317250)
04:09:12 default: Job OK (801278cc-0349-4459-91dd-f1fd42317250)
04:09:12 Result is kept for 500 seconds
04:09:12 
04:09:12 *** Listening on default...
04:09:12 default: frappe.utils.background_jobs.execute_job(async=True, event=None, job_name=u'frappe.utils.global_search.update_global_search', kwargs={'doc': <erpnext.accounts.doctype.gl_entry.gl_entry.GLEntry object at 0x7f6aa9773350>}, method=u'frappe.utils.global_search.update_global_search', site=u'site1.local', user=u'noki@gagawala.com') (c45a6540-34dd-4199-abb4-0da9a9883502)
04:09:12 default: Job OK (c45a6540-34dd-4199-abb4-0da9a9883502)
04:09:12 Result is kept for 500 seconds
04:09:12 
04:09:12 *** Listening on default...
04:09:12 default: frappe.utils.background_jobs.execute_job(async=True, event=None, job_name=u'frappe.utils.global_search.update_global_search', kwargs={'doc': <erpnext.accounts.doctype.purchase_invoice.purchase_invoice.PurchaseInvoice object at 0x7f6aaa76fb10>}, method=u'frappe.utils.global_search.update_global_search', site=u'site1.local', user=u'noki@gagawala.com') (41c018ce-180c-439f-859a-b96f5cb7febb)
04:09:12 default: Job OK (41c018ce-180c-439f-859a-b96f5cb7febb)
04:09:12 Result is kept for 500 seconds
04:09:12 
04:09:12 *** Listening on default...
04:09:12 default: frappe.utils.background_jobs.execute_job(async=True, event=None, job_name=u'frappe.utils.global_search.update_global_search', kwargs={'doc': <frappe.core.doctype.version.version.Version object at 0x7f6aa8886190>}, method=u'frappe.utils.global_search.update_global_search', site=u'site1.local', user=u'noki@gagawala.com') (6bddc630-4083-4a0b-b3b5-53d025cf298e)
04:09:12 default: Job OK (6bddc630-4083-4a0b-b3b5-53d025cf298e)
04:09:12 Result is kept for 500 seconds
04:09:12 
04:09:12 *** Listening on default...
04:09:29 default: frappe.utils.background_jobs.execute_job(async=True, event=None, job_name=u'frappe.utils.global_search.update_global_search', kwargs={'doc': <erpnext.accounts.doctype.payment_entry.payment_entry.PaymentEntry object at 0x7f6aaabe6790>}, method=u'frappe.utils.global_search.update_global_search', site=u'site1.local', user=u'noki@gagawala.com') (6631c38f-e123-4ff4-8077-4a237c0d5e87)
04:09:29 default: Job OK (6631c38f-e123-4ff4-8077-4a237c0d5e87)
04:09:29 Result is kept for 500 seconds
04:09:29 
04:09:29 *** Listening on default...
04:09:34 default: frappe.utils.background_jobs.execute_job(async=True, event=None, job_name=u'frappe.utils.global_search.update_global_search', kwargs={'doc': <erpnext.accounts.doctype.gl_entry.gl_entry.GLEntry object at 0x7f6aa9bdaa50>}, method=u'frappe.utils.global_search.update_global_search', site=u'site1.local', user=u'noki@gagawala.com') (5d91c8a5-ab8f-44d7-96bc-2b391066a3c4)
04:09:34 default: Job OK (5d91c8a5-ab8f-44d7-96bc-2b391066a3c4)
04:09:34 Result is kept for 500 seconds
04:09:34 
04:09:34 *** Listening on default...
04:09:34 default: frappe.utils.background_jobs.execute_job(async=True, event=None, job_name=u'frappe.utils.global_search.update_global_search', kwargs={'doc': <frappe.core.doctype.version.version.Version object at 0x7f6aaa9409d0>}, method=u'frappe.utils.global_search.update_global_search', site=u'site1.local', user=u'noki@gagawala.com') (c7a048ee-db9d-45c9-a7fc-0070dc1ed7b8)
04:09:35 default: Job OK (c7a048ee-db9d-45c9-a7fc-0070dc1ed7b8)
04:09:35 Result is kept for 500 seconds
04:09:35 
04:09:35 *** Listening on default...
04:09:35 default: frappe.utils.background_jobs.execute_job(async=True, event=None, job_name=u'frappe.utils.global_search.update_global_search', kwargs={'doc': <erpnext.accounts.doctype.gl_entry.gl_entry.GLEntry object at 0x7f6aa9bdaa50>}, method=u'frappe.utils.global_search.update_global_search', site=u'site1.local', user=u'noki@gagawala.com') (9ea1a095-d908-4d14-9f2d-004c577bd73e)
04:09:35 default: Job OK (9ea1a095-d908-4d14-9f2d-004c577bd73e)
04:09:35 Result is kept for 500 seconds
04:09:35 
04:09:35 *** Listening on default...
04:09:35 default: frappe.utils.background_jobs.execute_job(async=True, event=None, job_name=u'frappe.utils.global_search.update_global_search', kwargs={'doc': <erpnext.accounts.doctype.gl_entry.gl_entry.GLEntry object at 0x7f6aa9bdaa50>}, method=u'frappe.utils.global_search.update_global_search', site=u'site1.local', user=u'noki@gagawala.com') (29fb4835-a273-4eba-ae99-5bf6b2527a8d)
04:09:35 default: Job OK (29fb4835-a273-4eba-ae99-5bf6b2527a8d)
04:09:35 Result is kept for 500 seconds
04:09:35 
04:09:35 *** Listening on default...
04:09:35 default: frappe.utils.background_jobs.execute_job(async=True, event=None, job_name=u'frappe.utils.global_search.update_global_search', kwargs={'doc': <erpnext.accounts.doctype.gl_entry.gl_entry.GLEntry object at 0x7f6aa9bdaa50>}, method=u'frappe.utils.global_search.update_global_search', site=u'site1.local', user=u'noki@gagawala.com') (b63e5942-37b9-4571-b648-e0e4dd16eafb)
04:09:35 default: Job OK (b63e5942-37b9-4571-b648-e0e4dd16eafb)
04:09:35 Result is kept for 500 seconds
04:09:35 
04:09:35 *** Listening on default...
04:09:35 default: frappe.utils.background_jobs.execute_job(async=True, event=None, job_name=u'frappe.utils.global_search.update_global_search', kwargs={'doc': <erpnext.accounts.doctype.payment_entry.payment_entry.PaymentEntry object at 0x7f6aaadfb110>}, method=u'frappe.utils.global_search.update_global_search', site=u'site1.local', user=u'noki@gagawala.com') (cc2e9959-28d9-4a1d-9674-6a57bc0d74c7)
04:09:35 default: Job OK (cc2e9959-28d9-4a1d-9674-6a57bc0d74c7)
04:09:35 Result is kept for 500 seconds
04:09:35 
04:09:35 *** Listening on default...
04:09:35 default: frappe.utils.background_jobs.execute_job(async=True, event=None, job_name=u'frappe.utils.global_search.update_global_search', kwargs={'doc': <frappe.core.doctype.version.version.Version object at 0x7f6aaa940bd0>}, method=u'frappe.utils.global_search.update_global_search', site=u'site1.local', user=u'noki@gagawala.com') (5668deac-c4a9-4e42-8c0d-02068b8eebcd)
04:09:35 default: Job OK (5668deac-c4a9-4e42-8c0d-02068b8eebcd)
04:09:35 Result is kept for 500 seconds
04:09:35 
04:09:35 *** Listening on default...
05:14:14 default: frappe.utils.background_jobs.execute_job(async=True, event=None, job_name=u'frappe.utils.global_search.update_global_search', kwargs={'doc': <erpnext.stock.doctype.item.item.Item object at 0x7f6aab21c550>}, method=u'frappe.utils.global_search.update_global_search', site=u'site1.local', user=u'noki@gagawala.com') (08e56fda-44c1-4e3d-9973-511a79feb526)
05:14:14 default: Job OK (08e56fda-44c1-4e3d-9973-511a79feb526)
05:14:14 Result is kept for 500 seconds
05:14:14 Cleaning registries for queue: default
05:14:14 
05:14:14 *** Listening on default...
05:14:58 default: frappe.utils.background_jobs.execute_job(async=True, event=None, job_name=u'frappe.utils.global_search.update_global_search', kwargs={'doc': <erpnext.stock.doctype.item_price.item_price.ItemPrice object at 0x7f6aa9bba090>}, method=u'frappe.utils.global_search.update_global_search', site=u'site1.local', user=u'noki@gagawala.com') (27b11d72-84ef-44c8-a759-5eb2ca36d2a1)
05:14:58 default: Job OK (27b11d72-84ef-44c8-a759-5eb2ca36d2a1)
05:14:58 Result is kept for 500 seconds
05:14:58 
05:14:58 *** Listening on default...
05:14:58 default: frappe.utils.background_jobs.execute_job(async=True, event=None, job_name=u'frappe.utils.global_search.update_global_search', kwargs={'doc': <frappe.core.doctype.communication.communication.Communication object at 0x7f6aa9ad8c90>}, method=u'frappe.utils.global_search.update_global_search', site=u'site1.local', user=u'noki@gagawala.com') (e2a7bdaa-dfa5-4250-969d-fa3e69e9a854)
05:14:59 default: Job OK (e2a7bdaa-dfa5-4250-969d-fa3e69e9a854)
05:14:59 Result is kept for 500 seconds
05:14:59 
05:14:59 *** Listening on default...
05:14:59 default: frappe.utils.background_jobs.execute_job(async=True, event=None, job_name=u'frappe.utils.global_search.update_global_search', kwargs={'doc': <erpnext.accounts.doctype.sales_invoice.sales_invoice.SalesInvoice object at 0x7f6aa8f18d10>}, method=u'frappe.utils.global_search.update_global_search', site=u'site1.local', user=u'noki@gagawala.com') (5017623a-c23a-4ccd-b3a9-20162df315dc)
05:14:59 default: Job OK (5017623a-c23a-4ccd-b3a9-20162df315dc)
05:14:59 Result is kept for 500 seconds
05:14:59 
05:14:59 *** Listening on default...
05:15:14 default: frappe.utils.background_jobs.execute_job(async=True, event=None, job_name=u'frappe.utils.global_search.update_global_search', kwargs={'doc': <frappe.core.doctype.version.version.Version object at 0x7f6aa96bbcd0>}, method=u'frappe.utils.global_search.update_global_search', site=u'site1.local', user=u'noki@gagawala.com') (91bf36ce-5939-4928-877c-4cf6b185fa6d)
05:15:14 default: Job OK (91bf36ce-5939-4928-877c-4cf6b185fa6d)
05:15:14 Result is kept for 500 seconds
05:15:14 
05:15:14 *** Listening on default...
05:15:14 default: frappe.utils.background_jobs.execute_job(async=True, event=None, job_name=u'frappe.utils.global_search.update_global_search', kwargs={'doc': <erpnext.accounts.doctype.gl_entry.gl_entry.GLEntry object at 0x7f6aaa3016d0>}, method=u'frappe.utils.global_search.update_global_search', site=u'site1.local', user=u'noki@gagawala.com') (055323a1-e6bf-4502-aae3-b84523f87805)
05:15:14 default: Job OK (055323a1-e6bf-4502-aae3-b84523f87805)
05:15:14 Result is kept for 500 seconds
05:15:14 
05:15:14 *** Listening on default...
05:15:14 default: frappe.utils.background_jobs.execute_job(async=True, event=None, job_name=u'frappe.utils.global_search.update_global_search', kwargs={'doc': <erpnext.accounts.doctype.gl_entry.gl_entry.GLEntry object at 0x7f6aaa3016d0>}, method=u'frappe.utils.global_search.update_global_search', site=u'site1.local', user=u'noki@gagawala.com') (71ad72b8-cba5-4478-af05-f60c0c181b5f)
05:15:14 default: Job OK (71ad72b8-cba5-4478-af05-f60c0c181b5f)
05:15:14 Result is kept for 500 seconds
05:15:14 
05:15:14 *** Listening on default...
05:15:14 default: frappe.utils.background_jobs.execute_job(async=True, event=None, job_name=u'frappe.utils.global_search.update_global_search', kwargs={'doc': <erpnext.accounts.doctype.gl_entry.gl_entry.GLEntry object at 0x7f6aaa3016d0>}, method=u'frappe.utils.global_search.update_global_search', site=u'site1.local', user=u'noki@gagawala.com') (72443103-2643-40c5-b5e4-de63a908a8f1)
05:15:14 default: Job OK (72443103-2643-40c5-b5e4-de63a908a8f1)
05:15:14 Result is kept for 500 seconds
05:15:14 
05:15:14 *** Listening on default...
05:15:14 default: frappe.utils.background_jobs.execute_job(async=True, event=None, job_name=u'frappe.utils.global_search.update_global_search', kwargs={'doc': <erpnext.accounts.doctype.gl_entry.gl_entry.GLEntry object at 0x7f6aaa3016d0>}, method=u'frappe.utils.global_search.update_global_search', site=u'site1.local', user=u'noki@gagawala.com') (4d1648a1-ab36-4540-9ae7-fe94e9851d85)
05:15:14 default: Job OK (4d1648a1-ab36-4540-9ae7-fe94e9851d85)
05:15:14 Result is kept for 500 seconds
05:15:14 
05:15:14 *** Listening on default...
05:15:14 default: frappe.utils.background_jobs.execute_job(async=True, event=None, job_name=u'frappe.utils.global_search.update_global_search', kwargs={'doc': <erpnext.accounts.doctype.sales_invoice.sales_invoice.SalesInvoice object at 0x7f6aae5f1150>}, method=u'frappe.utils.global_search.update_global_search', site=u'site1.local', user=u'noki@gagawala.com') (e8f0b54b-0e9d-4fb6-89a8-e4d751a0994a)
05:15:14 default: Job OK (e8f0b54b-0e9d-4fb6-89a8-e4d751a0994a)
05:15:14 Result is kept for 500 seconds
05:15:14 
05:15:14 *** Listening on default...
05:15:14 default: frappe.utils.background_jobs.execute_job(async=True, event=None, job_name=u'frappe.utils.global_search.update_global_search', kwargs={'doc': <frappe.core.doctype.version.version.Version object at 0x7f6aa9a2f890>}, method=u'frappe.utils.global_search.update_global_search', site=u'site1.local', user=u'noki@gagawala.com') (332916d2-b747-4759-b103-7ccfe3cc52ad)
05:15:14 default: Job OK (332916d2-b747-4759-b103-7ccfe3cc52ad)
05:15:14 Result is kept for 500 seconds
05:15:14 
05:15:14 *** Listening on default...
16:01:45 default: frappe.utils.background_jobs.execute_job(async=True, event=None, job_name=u'frappe.utils.global_search.update_global_search', kwargs={'doc': <frappe.core.doctype.authentication_log.authentication_log.AuthenticationLog object at 0x7f3a58756c10>}, method=u'frappe.utils.global_search.update_global_search', site=u'site1.local', user=u'Administrator') (49e745d5-956d-4aab-9896-743697a5bb6a)
16:01:45 default: Job OK (49e745d5-956d-4aab-9896-743697a5bb6a)
16:01:45 Result is kept for 500 seconds
16:01:45 Cleaning registries for queue: default
16:01:45 
16:01:45 *** Listening on default...
Traceback (most recent call last):
  File "/usr/lib/python2.7/runpy.py", line 162, in _run_module_as_main
    "__main__", fname, loader, pkg_name)
  File "/usr/lib/python2.7/runpy.py", line 72, in _run_code
    exec code in run_globals
  File "/home/frappe/frappe-bench/apps/frappe/frappe/utils/bench_helper.py", line 79, in <module>
    main()
  File "/home/frappe/frappe-bench/apps/frappe/frappe/utils/bench_helper.py", line 16, in main
    click.Group(commands=commands)(prog_name='bench')
  File "/home/frappe/frappe-bench/env/local/lib/python2.7/site-packages/click/core.py", line 722, in __call__
    return self.main(*args, **kwargs)
  File "/home/frappe/frappe-bench/env/local/lib/python2.7/site-packages/click/core.py", line 697, in main
    rv = self.invoke(ctx)
  File "/home/frappe/frappe-bench/env/local/lib/python2.7/site-packages/click/core.py", line 1066, in invoke
    return _process_result(sub_ctx.command.invoke(sub_ctx))
  File "/home/frappe/frappe-bench/env/local/lib/python2.7/site-packages/click/core.py", line 1066, in invoke
    return _process_result(sub_ctx.command.invoke(sub_ctx))
  File "/home/frappe/frappe-bench/env/local/lib/python2.7/site-packages/click/core.py", line 895, in invoke
    return ctx.invoke(self.callback, **ctx.params)
  File "/home/frappe/frappe-bench/env/local/lib/python2.7/site-packages/click/core.py", line 535, in invoke
    return callback(*args, **kwargs)
  File "/home/frappe/frappe-bench/apps/frappe/frappe/commands/scheduler.py", line 157, in start_worker
    start_worker(queue)
  File "/home/frappe/frappe-bench/apps/frappe/frappe/utils/background_jobs.py", line 106, in start_worker
    Worker(queues, name=get_worker_name(queue)).work()
  File "/home/frappe/frappe-bench/env/local/lib/python2.7/site-packages/rq/worker.py", line 480, in work
    self.register_death()
  File "/home/frappe/frappe-bench/env/local/lib/python2.7/site-packages/rq/worker.py", line 279, in register_death
    p.execute()
  File "/home/frappe/frappe-bench/env/local/lib/python2.7/site-packages/redis/client.py", line 2641, in execute
    return execute(conn, stack, raise_on_error)
  File "/home/frappe/frappe-bench/env/local/lib/python2.7/site-packages/redis/client.py", line 2495, in _execute_transaction
    connection.send_packed_command(all_cmds)
  File "/home/frappe/frappe-bench/env/local/lib/python2.7/site-packages/redis/connection.py", line 538, in send_packed_command
    self.connect()
  File "/home/frappe/frappe-bench/env/local/lib/python2.7/site-packages/redis/connection.py", line 442, in connect
    raise ConnectionError(self._error_message(e))
redis.exceptions.ConnectionError: Error 111 connecting to localhost:11000. Connection refused.
