17:00:37 long: Job OK (e140247c-383b-49c6-9c70-489ff67906a9)
17:00:37 Result is kept for 500 seconds
17:00:37 Cleaning registries for queue: long
17:00:37 
17:00:37 *** Listening on long...
17:00:37 long: frappe.utils.background_jobs.execute_job(async=True, event=u'daily_long', job_name=u'frappe.integrations.doctype.s3_backup_settings.s3_backup_settings.take_backups_daily', kwargs={}, method=u'frappe.integrations.doctype.s3_backup_settings.s3_backup_settings.take_backups_daily', site=u'site1.local', user=u'Administrator') (19332c5c-fbec-4f7a-8a0c-1827317fc7b1)
17:00:37 long: Job OK (19332c5c-fbec-4f7a-8a0c-1827317fc7b1)
17:00:37 Result is kept for 500 seconds
17:00:37 
17:00:37 *** Listening on long...
14:30:25 long: frappe.utils.background_jobs.execute_job(async=True, event=u'daily_long', job_name=u'frappe.integrations.doctype.dropbox_settings.dropbox_settings.take_backups_daily', kwargs={}, method=u'frappe.integrations.doctype.dropbox_settings.dropbox_settings.take_backups_daily', site=u'site1.local', user=u'Administrator') (5a2d2344-fdc8-489e-94ae-4101a9f1380c)
14:30:26 long: Job OK (5a2d2344-fdc8-489e-94ae-4101a9f1380c)
14:30:26 Result is kept for 500 seconds
14:30:26 Cleaning registries for queue: long
14:30:26 
14:30:26 *** Listening on long...
14:30:26 long: frappe.utils.background_jobs.execute_job(async=True, event=u'daily_long', job_name=u'frappe.integrations.doctype.s3_backup_settings.s3_backup_settings.take_backups_daily', kwargs={}, method=u'frappe.integrations.doctype.s3_backup_settings.s3_backup_settings.take_backups_daily', site=u'site1.local', user=u'Administrator') (0be18b22-936e-4b6f-98d8-e38419c9c30d)
14:30:26 long: Job OK (0be18b22-936e-4b6f-98d8-e38419c9c30d)
14:30:26 Result is kept for 500 seconds
14:30:26 
14:30:26 *** Listening on long...
14:30:31 long: frappe.utils.background_jobs.execute_job(async=True, event=u'daily_long', job_name=u'frappe.integrations.doctype.dropbox_settings.dropbox_settings.take_backups_daily', kwargs={}, method=u'frappe.integrations.doctype.dropbox_settings.dropbox_settings.take_backups_daily', site=u'site1.local', user=u'Administrator') (65ed5fc7-efb1-45fd-b2df-0983bb5f82a1)
14:30:32 long: Job OK (65ed5fc7-efb1-45fd-b2df-0983bb5f82a1)
14:30:32 Result is kept for 500 seconds
14:30:32 Cleaning registries for queue: long
14:30:32 
14:30:32 *** Listening on long...
14:30:32 long: frappe.utils.background_jobs.execute_job(async=True, event=u'daily_long', job_name=u'frappe.integrations.doctype.s3_backup_settings.s3_backup_settings.take_backups_daily', kwargs={}, method=u'frappe.integrations.doctype.s3_backup_settings.s3_backup_settings.take_backups_daily', site=u'site1.local', user=u'Administrator') (c92af32a-3cb5-4669-9cac-7f53e43d727c)
14:30:32 long: Job OK (c92af32a-3cb5-4669-9cac-7f53e43d727c)
14:30:32 Result is kept for 500 seconds
14:30:32 
14:30:32 *** Listening on long...
14:30:35 long: frappe.utils.background_jobs.execute_job(async=True, event=u'daily_long', job_name=u'frappe.integrations.doctype.dropbox_settings.dropbox_settings.take_backups_daily', kwargs={}, method=u'frappe.integrations.doctype.dropbox_settings.dropbox_settings.take_backups_daily', site=u'site1.local', user=u'Administrator') (7b534c7d-97e5-4398-81b0-f8e68503286b)
14:30:36 long: Job OK (7b534c7d-97e5-4398-81b0-f8e68503286b)
14:30:36 Result is kept for 500 seconds
14:30:36 Cleaning registries for queue: long
14:30:36 
14:30:36 *** Listening on long...
14:30:36 long: frappe.utils.background_jobs.execute_job(async=True, event=u'daily_long', job_name=u'frappe.integrations.doctype.s3_backup_settings.s3_backup_settings.take_backups_daily', kwargs={}, method=u'frappe.integrations.doctype.s3_backup_settings.s3_backup_settings.take_backups_daily', site=u'site1.local', user=u'Administrator') (67a6a978-d146-444d-a9f0-c03432485644)
14:30:36 long: Job OK (67a6a978-d146-444d-a9f0-c03432485644)
14:30:36 Result is kept for 500 seconds
14:30:36 
14:30:36 *** Listening on long...
14:30:36 long: frappe.utils.background_jobs.execute_job(async=True, event=u'weekly_long', job_name=u'frappe.integrations.doctype.dropbox_settings.dropbox_settings.take_backups_weekly', kwargs={}, method=u'frappe.integrations.doctype.dropbox_settings.dropbox_settings.take_backups_weekly', site=u'site1.local', user=u'Administrator') (ecee87ec-e97b-4004-bba8-caf818fcdf28)
14:30:37 long: Job OK (ecee87ec-e97b-4004-bba8-caf818fcdf28)
14:30:37 Result is kept for 500 seconds
14:30:37 
14:30:37 *** Listening on long...
14:30:37 long: frappe.utils.background_jobs.execute_job(async=True, event=u'weekly_long', job_name=u'frappe.integrations.doctype.s3_backup_settings.s3_backup_settings.take_backups_weekly', kwargs={}, method=u'frappe.integrations.doctype.s3_backup_settings.s3_backup_settings.take_backups_weekly', site=u'site1.local', user=u'Administrator') (5d0b9f24-0110-422e-9691-da5d2de18b63)
14:30:37 long: Job OK (5d0b9f24-0110-422e-9691-da5d2de18b63)
14:30:37 Result is kept for 500 seconds
14:30:37 
14:30:37 *** Listening on long...
14:30:39 long: frappe.utils.background_jobs.execute_job(async=True, event=u'daily_long', job_name=u'frappe.integrations.doctype.dropbox_settings.dropbox_settings.take_backups_daily', kwargs={}, method=u'frappe.integrations.doctype.dropbox_settings.dropbox_settings.take_backups_daily', site=u'site1.local', user=u'Administrator') (cebb0bd5-55d8-4c0c-a041-c8218655a56c)
14:30:40 long: Job OK (cebb0bd5-55d8-4c0c-a041-c8218655a56c)
14:30:40 Result is kept for 500 seconds
14:30:40 Cleaning registries for queue: long
14:30:40 
14:30:40 *** Listening on long...
14:30:40 long: frappe.utils.background_jobs.execute_job(async=True, event=u'daily_long', job_name=u'frappe.integrations.doctype.s3_backup_settings.s3_backup_settings.take_backups_daily', kwargs={}, method=u'frappe.integrations.doctype.s3_backup_settings.s3_backup_settings.take_backups_daily', site=u'site1.local', user=u'Administrator') (0ddc4381-9ae6-4fe5-b013-56496a11211e)
14:30:40 long: Job OK (0ddc4381-9ae6-4fe5-b013-56496a11211e)
14:30:40 Result is kept for 500 seconds
14:30:40 
14:30:40 *** Listening on long...
13:18:39 long: frappe.utils.background_jobs.execute_job(async=True, event=u'daily_long', job_name=u'frappe.integrations.doctype.dropbox_settings.dropbox_settings.take_backups_daily', kwargs={}, method=u'frappe.integrations.doctype.dropbox_settings.dropbox_settings.take_backups_daily', site=u'site1.local', user=u'Administrator') (548c1028-eb6e-427b-b3a0-7995cbae084c)
13:18:40 long: Job OK (548c1028-eb6e-427b-b3a0-7995cbae084c)
13:18:40 Result is kept for 500 seconds
13:18:40 Cleaning registries for queue: long
13:18:40 
13:18:40 *** Listening on long...
13:18:40 long: frappe.utils.background_jobs.execute_job(async=True, event=u'daily_long', job_name=u'frappe.integrations.doctype.s3_backup_settings.s3_backup_settings.take_backups_daily', kwargs={}, method=u'frappe.integrations.doctype.s3_backup_settings.s3_backup_settings.take_backups_daily', site=u'site1.local', user=u'Administrator') (6898d8df-9049-44fc-9f9b-d416ab3e134f)
13:18:40 long: Job OK (6898d8df-9049-44fc-9f9b-d416ab3e134f)
13:18:40 Result is kept for 500 seconds
13:18:40 
13:18:40 *** Listening on long...
13:18:40 long: frappe.utils.background_jobs.execute_job(async=True, event=u'weekly_long', job_name=u'frappe.integrations.doctype.dropbox_settings.dropbox_settings.take_backups_weekly', kwargs={}, method=u'frappe.integrations.doctype.dropbox_settings.dropbox_settings.take_backups_weekly', site=u'site1.local', user=u'Administrator') (33a67a08-b6d6-406f-bb60-0e74a25869d1)
13:18:41 long: Job OK (33a67a08-b6d6-406f-bb60-0e74a25869d1)
13:18:41 Result is kept for 500 seconds
13:18:41 
13:18:41 *** Listening on long...
13:18:41 long: frappe.utils.background_jobs.execute_job(async=True, event=u'weekly_long', job_name=u'frappe.integrations.doctype.s3_backup_settings.s3_backup_settings.take_backups_weekly', kwargs={}, method=u'frappe.integrations.doctype.s3_backup_settings.s3_backup_settings.take_backups_weekly', site=u'site1.local', user=u'Administrator') (2dbdda32-8059-460c-ab5b-e789d97d7083)
13:18:42 long: Job OK (2dbdda32-8059-460c-ab5b-e789d97d7083)
13:18:42 Result is kept for 500 seconds
13:18:42 
13:18:42 *** Listening on long...
13:37:32 Warm shut down requested
