17:00:08 long: Job OK (960eba73-b7b2-4d77-83be-85999e0c687d)
17:00:08 Result is kept for 500 seconds
17:00:08 Cleaning registries for queue: long
17:00:08 
17:00:08 *** Listening on long...
17:00:08 long: frappe.utils.background_jobs.execute_job(async=True, event=u'daily_long', job_name=u'frappe.integrations.doctype.s3_backup_settings.s3_backup_settings.take_backups_daily', kwargs={}, method=u'frappe.integrations.doctype.s3_backup_settings.s3_backup_settings.take_backups_daily', site=u'site1.local', user=u'Administrator') (2bd240b2-9c15-47dc-94dd-67f2d4927a92)
17:00:08 long: Job OK (2bd240b2-9c15-47dc-94dd-67f2d4927a92)
17:00:08 Result is kept for 500 seconds
17:00:08 
17:00:08 *** Listening on long...
17:00:14 long: frappe.utils.background_jobs.execute_job(async=True, event=u'daily_long', job_name=u'frappe.integrations.doctype.dropbox_settings.dropbox_settings.take_backups_daily', kwargs={}, method=u'frappe.integrations.doctype.dropbox_settings.dropbox_settings.take_backups_daily', site=u'site1.local', user=u'Administrator') (48963a19-0aa1-4c1f-903e-1085fb0531ff)
17:00:15 long: Job OK (48963a19-0aa1-4c1f-903e-1085fb0531ff)
17:00:15 Result is kept for 500 seconds
17:00:15 Cleaning registries for queue: long
17:00:15 
17:00:15 *** Listening on long...
17:00:15 long: frappe.utils.background_jobs.execute_job(async=True, event=u'daily_long', job_name=u'frappe.integrations.doctype.s3_backup_settings.s3_backup_settings.take_backups_daily', kwargs={}, method=u'frappe.integrations.doctype.s3_backup_settings.s3_backup_settings.take_backups_daily', site=u'site1.local', user=u'Administrator') (74876ed5-f572-4acd-ab3e-368e00dfa205)
17:00:15 long: Job OK (74876ed5-f572-4acd-ab3e-368e00dfa205)
17:00:15 Result is kept for 500 seconds
17:00:15 
17:00:15 *** Listening on long...
17:00:46 long: frappe.utils.background_jobs.execute_job(async=True, event=u'daily_long', job_name=u'frappe.integrations.doctype.dropbox_settings.dropbox_settings.take_backups_daily', kwargs={}, method=u'frappe.integrations.doctype.dropbox_settings.dropbox_settings.take_backups_daily', site=u'site1.local', user=u'Administrator') (5b6addd3-9b16-4701-a73b-c129e2b83dd4)
17:00:47 long: Job OK (5b6addd3-9b16-4701-a73b-c129e2b83dd4)
17:00:47 Result is kept for 500 seconds
17:00:47 Cleaning registries for queue: long
17:00:47 
17:00:47 *** Listening on long...
17:00:47 long: frappe.utils.background_jobs.execute_job(async=True, event=u'daily_long', job_name=u'frappe.integrations.doctype.s3_backup_settings.s3_backup_settings.take_backups_daily', kwargs={}, method=u'frappe.integrations.doctype.s3_backup_settings.s3_backup_settings.take_backups_daily', site=u'site1.local', user=u'Administrator') (292565f0-b251-474d-bb83-2571e4ef5255)
17:00:47 long: Job OK (292565f0-b251-474d-bb83-2571e4ef5255)
17:00:47 Result is kept for 500 seconds
17:00:47 
17:00:47 *** Listening on long...
17:00:47 long: frappe.utils.background_jobs.execute_job(async=True, event=u'weekly_long', job_name=u'frappe.integrations.doctype.dropbox_settings.dropbox_settings.take_backups_weekly', kwargs={}, method=u'frappe.integrations.doctype.dropbox_settings.dropbox_settings.take_backups_weekly', site=u'site1.local', user=u'Administrator') (90e7b9ff-096c-46f7-9947-2725bd871a9b)
17:00:48 long: Job OK (90e7b9ff-096c-46f7-9947-2725bd871a9b)
17:00:48 Result is kept for 500 seconds
17:00:48 
17:00:48 *** Listening on long...
17:00:48 long: frappe.utils.background_jobs.execute_job(async=True, event=u'weekly_long', job_name=u'frappe.integrations.doctype.s3_backup_settings.s3_backup_settings.take_backups_weekly', kwargs={}, method=u'frappe.integrations.doctype.s3_backup_settings.s3_backup_settings.take_backups_weekly', site=u'site1.local', user=u'Administrator') (7cb386db-1d6b-4636-b6d1-a0e382197324)
17:00:48 long: Job OK (7cb386db-1d6b-4636-b6d1-a0e382197324)
17:00:48 Result is kept for 500 seconds
17:00:48 
17:00:48 *** Listening on long...
17:00:53 long: frappe.utils.background_jobs.execute_job(async=True, event=u'daily_long', job_name=u'frappe.integrations.doctype.dropbox_settings.dropbox_settings.take_backups_daily', kwargs={}, method=u'frappe.integrations.doctype.dropbox_settings.dropbox_settings.take_backups_daily', site=u'site1.local', user=u'Administrator') (cb1dace5-11df-429c-a46d-9b85601ba6d1)
17:00:53 long: Job OK (cb1dace5-11df-429c-a46d-9b85601ba6d1)
17:00:53 Result is kept for 500 seconds
17:00:53 Cleaning registries for queue: long
17:00:53 
17:00:53 *** Listening on long...
17:00:53 long: frappe.utils.background_jobs.execute_job(async=True, event=u'daily_long', job_name=u'frappe.integrations.doctype.s3_backup_settings.s3_backup_settings.take_backups_daily', kwargs={}, method=u'frappe.integrations.doctype.s3_backup_settings.s3_backup_settings.take_backups_daily', site=u'site1.local', user=u'Administrator') (fcbfd283-8290-4b3c-b0bb-0c14e77e3500)
17:00:54 long: Job OK (fcbfd283-8290-4b3c-b0bb-0c14e77e3500)
17:00:54 Result is kept for 500 seconds
17:00:54 
17:00:54 *** Listening on long...
17:00:58 long: frappe.utils.background_jobs.execute_job(async=True, event=u'daily_long', job_name=u'frappe.integrations.doctype.dropbox_settings.dropbox_settings.take_backups_daily', kwargs={}, method=u'frappe.integrations.doctype.dropbox_settings.dropbox_settings.take_backups_daily', site=u'site1.local', user=u'Administrator') (04d84ac1-7843-4e89-a541-e1a7d39d9d40)
17:00:59 long: Job OK (04d84ac1-7843-4e89-a541-e1a7d39d9d40)
17:00:59 Result is kept for 500 seconds
17:00:59 Cleaning registries for queue: long
17:00:59 
17:00:59 *** Listening on long...
17:00:59 long: frappe.utils.background_jobs.execute_job(async=True, event=u'daily_long', job_name=u'frappe.integrations.doctype.s3_backup_settings.s3_backup_settings.take_backups_daily', kwargs={}, method=u'frappe.integrations.doctype.s3_backup_settings.s3_backup_settings.take_backups_daily', site=u'site1.local', user=u'Administrator') (08e939ac-4c0d-4a1a-a178-577dc29cab36)
17:00:59 long: Job OK (08e939ac-4c0d-4a1a-a178-577dc29cab36)
17:00:59 Result is kept for 500 seconds
17:00:59 
17:00:59 *** Listening on long...
17:00:40 long: frappe.utils.background_jobs.execute_job(async=True, event=u'daily_long', job_name=u'frappe.integrations.doctype.dropbox_settings.dropbox_settings.take_backups_daily', kwargs={}, method=u'frappe.integrations.doctype.dropbox_settings.dropbox_settings.take_backups_daily', site=u'site1.local', user=u'Administrator') (e6c90924-b9ec-495c-bf88-102f048a14b2)
17:00:40 long: Job OK (e6c90924-b9ec-495c-bf88-102f048a14b2)
17:00:40 Result is kept for 500 seconds
17:00:40 Cleaning registries for queue: long
17:00:40 
17:00:40 *** Listening on long...
17:00:40 long: frappe.utils.background_jobs.execute_job(async=True, event=u'daily_long', job_name=u'frappe.integrations.doctype.s3_backup_settings.s3_backup_settings.take_backups_daily', kwargs={}, method=u'frappe.integrations.doctype.s3_backup_settings.s3_backup_settings.take_backups_daily', site=u'site1.local', user=u'Administrator') (d169e317-02fc-4453-91f3-65f4163443ec)
17:00:40 long: Job OK (d169e317-02fc-4453-91f3-65f4163443ec)
17:00:40 Result is kept for 500 seconds
17:00:40 
17:00:40 *** Listening on long...
05:05:56 Warm shut down requested
Traceback (most recent call last):
  File "/usr/lib/python2.7/runpy.py", line 162, in _run_module_as_main
    "__main__", fname, loader, pkg_name)
  File "/usr/lib/python2.7/runpy.py", line 72, in _run_code
    exec code in run_globals
  File "/home/frappe/frappe-bench/apps/frappe/frappe/utils/bench_helper.py", line 94, in <module>
    main()
  File "/home/frappe/frappe-bench/apps/frappe/frappe/utils/bench_helper.py", line 18, in main
    click.Group(commands=commands)(prog_name='bench')
  File "/home/frappe/frappe-bench/env/local/lib/python2.7/site-packages/click/core.py", line 722, in __call__
    return self.main(*args, **kwargs)
  File "/home/frappe/frappe-bench/env/local/lib/python2.7/site-packages/click/core.py", line 697, in main
    rv = self.invoke(ctx)
  File "/home/frappe/frappe-bench/env/local/lib/python2.7/site-packages/click/core.py", line 1066, in invoke
    return _process_result(sub_ctx.command.invoke(sub_ctx))
  File "/home/frappe/frappe-bench/env/local/lib/python2.7/site-packages/click/core.py", line 1066, in invoke
    return _process_result(sub_ctx.command.invoke(sub_ctx))
  File "/home/frappe/frappe-bench/env/local/lib/python2.7/site-packages/click/core.py", line 895, in invoke
    return ctx.invoke(self.callback, **ctx.params)
  File "/home/frappe/frappe-bench/env/local/lib/python2.7/site-packages/click/core.py", line 535, in invoke
    return callback(*args, **kwargs)
  File "/home/frappe/frappe-bench/apps/frappe/frappe/commands/scheduler.py", line 157, in start_worker
    from frappe.utils.background_jobs import start_worker
  File "/home/frappe/frappe-bench/apps/frappe/frappe/utils/background_jobs.py", line 139, in start_worker
    with Connection(redis_connection):
  File "/home/frappe/frappe-bench/env/local/lib/python2.7/site-packages/rq/worker.py", line 480, in work
    self.register_death()
  File "/home/frappe/frappe-bench/env/local/lib/python2.7/site-packages/rq/worker.py", line 279, in register_death
    p.execute()
  File "/home/frappe/frappe-bench/env/local/lib/python2.7/site-packages/redis/client.py", line 2641, in execute
    return execute(conn, stack, raise_on_error)
  File "/home/frappe/frappe-bench/env/local/lib/python2.7/site-packages/redis/client.py", line 2495, in _execute_transaction
    connection.send_packed_command(all_cmds)
  File "/home/frappe/frappe-bench/env/local/lib/python2.7/site-packages/redis/connection.py", line 538, in send_packed_command
    self.connect()
  File "/home/frappe/frappe-bench/env/local/lib/python2.7/site-packages/redis/connection.py", line 439, in connect
    sock = self._connect()
  File "/home/frappe/frappe-bench/env/local/lib/python2.7/site-packages/redis/connection.py", line 482, in _connect
    sock.connect(socket_address)
  File "/usr/lib/python2.7/socket.py", line 224, in meth
    return getattr(self._sock,name)(*args)
  File "/home/frappe/frappe-bench/env/local/lib/python2.7/site-packages/rq/worker.py", line 405, in request_stop
    raise StopRequested()
rq.worker.StopRequested
